SOML_DECODER/tb/tb.vcd
$date
	Tue Nov 12 10:24:09 2024
$end
$version
	Icarus Verilog
$end
$timescale
	1ps
$end
$scope module Read_data $end
$var wire 1 ! clk $end
$var wire 1 " load_h $end
$var wire 1 # load_h_ena $end
$var wire 4 $ out_addr_Si [3:0] $end
$var wire 1 % out_addr_colS $end
$var wire 2 & out_addr_rowH [1:0] $end
$var wire 1 ' rst $end
$var wire 1 ( out_cnt_8 $end
$var wire 1 ) enaSi $end
$var wire 1 * enaRowH $end
$var wire 1 + done_16s $end
$var reg 4 , addr_Si [3:0] $end
$var reg 1 - addr_colS $end
$var reg 2 . addr_rowH [1:0] $end
$var reg 3 / cnt_8 [2:0] $end
$var reg 1 0 tx_en $end
$upscope $end
$scope module tb_Hq_Cal $end
$var wire 16 1 Hq_r [15:0] $end
$var wire 16 2 Hq_i [15:0] $end
$var reg 1 3 clk $end
$var reg 1 4 rst $end
$scope module dut $end
$var wire 1 3 clk $end
$var wire 64 5 out_colS_i [63:0] $end
$var wire 64 6 out_colS_r [63:0] $end
$var wire 64 7 rowH_i [63:0] $end
$var wire 64 8 rowH_r [63:0] $end
$var wire 1 4 rst $end
$var wire 64 9 temp_colS_r [63:0] $end
$var wire 64 : temp_colS_i [63:0] $end
$var wire 16 ; out_reg_c3_r [15:0] $end
$var wire 16 < out_reg_c3_i [15:0] $end
$var wire 16 = out_reg_c2_r [15:0] $end
$var wire 16 > out_reg_c2_i [15:0] $end
$var wire 16 ? out_reg_c1_r [15:0] $end
$var wire 16 @ out_reg_c1_i [15:0] $end
$var wire 16 A out_reg_c0_r [15:0] $end
$var wire 16 B out_reg_c0_i [15:0] $end
$var wire 16 C out_add1_r [15:0] $end
$var wire 16 D out_add1_i [15:0] $end
$var wire 16 E out_add0_r [15:0] $end
$var wire 16 F out_add0_i [15:0] $end
$var wire 2 G addr_rowH [1:0] $end
$var wire 2 H addr_colS [1:0] $end
$var wire 4 I addr_Si [3:0] $end
$var wire 16 J Hq_r [15:0] $end
$var wire 16 K Hq_i [15:0] $end
$scope module AddrGen0 $end
$var wire 1 3 clk $end
$var wire 1 4 rst $end
$var reg 4 L addr_Si [3:0] $end
$var reg 2 M addr_colS [1:0] $end
$var reg 2 N addr_rowH [1:0] $end
$upscope $end
$scope module add0 $end
$var wire 16 O c [15:0] $end
$var wire 16 P b [15:0] $end
$var wire 16 Q a [15:0] $end
$upscope $end
$scope module add1 $end
$var wire 16 R c [15:0] $end
$var wire 16 S b [15:0] $end
$var wire 16 T a [15:0] $end
$upscope $end
$scope module add2 $end
$var wire 16 U a [15:0] $end
$var wire 16 V b [15:0] $end
$var wire 16 W c [15:0] $end
$upscope $end
$scope module add3 $end
$var wire 16 X c [15:0] $end
$var wire 16 Y b [15:0] $end
$var wire 16 Z a [15:0] $end
$upscope $end
$scope module add4 $end
$var wire 16 [ c [15:0] $end
$var wire 16 \ b [15:0] $end
$var wire 16 ] a [15:0] $end
$upscope $end
$scope module add5 $end
$var wire 16 ^ a [15:0] $end
$var wire 16 _ b [15:0] $end
$var wire 16 ` c [15:0] $end
$upscope $end
$scope module c0 $end
$var wire 16 a ai [15:0] $end
$var wire 16 b ar [15:0] $end
$var wire 16 c bi [15:0] $end
$var wire 16 d br [15:0] $end
$var wire 1 3 clk $end
$var wire 1 4 rst $end
$var wire 16 e tmp_multr [15:0] $end
$var wire 16 f tmp_multi [15:0] $end
$var wire 16 g tmp_mult0 [15:0] $end
$var wire 16 h pr [15:0] $end
$var wire 16 i pi [15:0] $end
$var wire 1 j ovr_multr $end
$var wire 1 k ovr_multi $end
$var wire 1 l ovr_mult0 $end
$var reg 16 m addcommon [15:0] $end
$var reg 16 n addi [15:0] $end
$var reg 16 o addr [15:0] $end
$var reg 16 p ai_d [15:0] $end
$var reg 16 q ai_dd [15:0] $end
$var reg 16 r ai_ddd [15:0] $end
$var reg 16 s ai_dddd [15:0] $end
$var reg 16 t ar_d [15:0] $end
$var reg 16 u ar_dd [15:0] $end
$var reg 16 v ar_ddd [15:0] $end
$var reg 16 w ar_dddd [15:0] $end
$var reg 16 x bi_d [15:0] $end
$var reg 16 y bi_dd [15:0] $end
$var reg 16 z bi_ddd [15:0] $end
$var reg 16 { br_d [15:0] $end
$var reg 16 | br_dd [15:0] $end
$var reg 16 } br_ddd [15:0] $end
$var reg 16 ~ common [15:0] $end
$var reg 16 !" commonr1 [15:0] $end
$var reg 16 "" commonr2 [15:0] $end
$var reg 16 #" mult0 [15:0] $end
$var reg 16 $" multi [15:0] $end
$var reg 16 %" multr [15:0] $end
$var reg 16 &" pi_int [15:0] $end
$var reg 16 '" pr_int [15:0] $end
$scope module qmult_common $end
$var wire 16 (" i_multiplicand [15:0] $end
$var wire 16 )" i_multiplier [15:0] $end
$var wire 16 *" o_result [15:0] $end
$var wire 16 +" temp_multiplicand [15:0] $end
$var wire 16 ," temp_meltiplier [15:0] $end
$var wire 32 -" r_result [31:0] $end
$var reg 1 ." is_signed $end
$var reg 1 l ovr $end
$var reg 16 /" r_RetVal [15:0] $end
$var reg 16 0" temp_RetVal [15:0] $end
$upscope $end
$scope module qmult_imag $end
$var wire 16 1" i_multiplicand [15:0] $end
$var wire 16 2" i_multiplier [15:0] $end
$var wire 16 3" o_result [15:0] $end
$var wire 16 4" temp_multiplicand [15:0] $end
$var wire 16 5" temp_meltiplier [15:0] $end
$var wire 32 6" r_result [31:0] $end
$var reg 1 7" is_signed $end
$var reg 1 k ovr $end
$var reg 16 8" r_RetVal [15:0] $end
$var reg 16 9" temp_RetVal [15:0] $end
$upscope $end
$scope module qmult_real $end
$var wire 16 :" i_multiplicand [15:0] $end
$var wire 16 ;" i_multiplier [15:0] $end
$var wire 16 <" o_result [15:0] $end
$var wire 16 =" temp_multiplicand [15:0] $end
$var wire 16 >" temp_meltiplier [15:0] $end
$var wire 32 ?" r_result [31:0] $end
$var reg 1 @" is_signed $end
$var reg 1 j ovr $end
$var reg 16 A" r_RetVal [15:0] $end
$var reg 16 B" temp_RetVal [15:0] $end
$upscope $end
$upscope $end
$scope module c1 $end
$var wire 16 C" ai [15:0] $end
$var wire 16 D" ar [15:0] $end
$var wire 16 E" bi [15:0] $end
$var wire 16 F" br [15:0] $end
$var wire 1 3 clk $end
$var wire 1 4 rst $end
$var wire 16 G" tmp_multr [15:0] $end
$var wire 16 H" tmp_multi [15:0] $end
$var wire 16 I" tmp_mult0 [15:0] $end
$var wire 16 J" pr [15:0] $end
$var wire 16 K" pi [15:0] $end
$var wire 1 L" ovr_multr $end
$var wire 1 M" ovr_multi $end
$var wire 1 N" ovr_mult0 $end
$var reg 16 O" addcommon [15:0] $end
$var reg 16 P" addi [15:0] $end
$var reg 16 Q" addr [15:0] $end
$var reg 16 R" ai_d [15:0] $end
$var reg 16 S" ai_dd [15:0] $end
$var reg 16 T" ai_ddd [15:0] $end
$var reg 16 U" ai_dddd [15:0] $end
$var reg 16 V" ar_d [15:0] $end
$var reg 16 W" ar_dd [15:0] $end
$var reg 16 X" ar_ddd [15:0] $end
$var reg 16 Y" ar_dddd [15:0] $end
$var reg 16 Z" bi_d [15:0] $end
$var reg 16 [" bi_dd [15:0] $end
$var reg 16 \" bi_ddd [15:0] $end
$var reg 16 ]" br_d [15:0] $end
$var reg 16 ^" br_dd [15:0] $end
$var reg 16 _" br_ddd [15:0] $end
$var reg 16 `" common [15:0] $end
$var reg 16 a" commonr1 [15:0] $end
$var reg 16 b" commonr2 [15:0] $end
$var reg 16 c" mult0 [15:0] $end
$var reg 16 d" multi [15:0] $end
$var reg 16 e" multr [15:0] $end
$var reg 16 f" pi_int [15:0] $end
$var reg 16 g" pr_int [15:0] $end
$scope module qmult_common $end
$var wire 16 h" i_multiplicand [15:0] $end
$var wire 16 i" i_multiplier [15:0] $end
$var wire 16 j" o_result [15:0] $end
$var wire 16 k" temp_multiplicand [15:0] $end
$var wire 16 l" temp_meltiplier [15:0] $end
$var wire 32 m" r_result [31:0] $end
$var reg 1 n" is_signed $end
$var reg 1 N" ovr $end
$var reg 16 o" r_RetVal [15:0] $end
$var reg 16 p" temp_RetVal [15:0] $end
$upscope $end
$scope module qmult_imag $end
$var wire 16 q" i_multiplicand [15:0] $end
$var wire 16 r" i_multiplier [15:0] $end
$var wire 16 s" o_result [15:0] $end
$var wire 16 t" temp_multiplicand [15:0] $end
$var wire 16 u" temp_meltiplier [15:0] $end
$var wire 32 v" r_result [31:0] $end
$var reg 1 w" is_signed $end
$var reg 1 M" ovr $end
$var reg 16 x" r_RetVal [15:0] $end
$var reg 16 y" temp_RetVal [15:0] $end
$upscope $end
$scope module qmult_real $end
$var wire 16 z" i_multiplicand [15:0] $end
$var wire 16 {" i_multiplier [15:0] $end
$var wire 16 |" o_result [15:0] $end
$var wire 16 }" temp_multiplicand [15:0] $end
$var wire 16 ~" temp_meltiplier [15:0] $end
$var wire 32 !# r_result [31:0] $end
$var reg 1 "# is_signed $end
$var reg 1 L" ovr $end
$var reg 16 ## r_RetVal [15:0] $end
$var reg 16 $# temp_RetVal [15:0] $end
$upscope $end
$upscope $end
$scope module c2 $end
$var wire 16 %# ai [15:0] $end
$var wire 16 &# ar [15:0] $end
$var wire 16 '# bi [15:0] $end
$var wire 16 (# br [15:0] $end
$var wire 1 3 clk $end
$var wire 1 4 rst $end
$var wire 16 )# tmp_multr [15:0] $end
$var wire 16 *# tmp_multi [15:0] $end
$var wire 16 +# tmp_mult0 [15:0] $end
$var wire 16 ,# pr [15:0] $end
$var wire 16 -# pi [15:0] $end
$var wire 1 .# ovr_multr $end
$var wire 1 /# ovr_multi $end
$var wire 1 0# ovr_mult0 $end
$var reg 16 1# addcommon [15:0] $end
$var reg 16 2# addi [15:0] $end
$var reg 16 3# addr [15:0] $end
$var reg 16 4# ai_d [15:0] $end
$var reg 16 5# ai_dd [15:0] $end
$var reg 16 6# ai_ddd [15:0] $end
$var reg 16 7# ai_dddd [15:0] $end
$var reg 16 8# ar_d [15:0] $end
$var reg 16 9# ar_dd [15:0] $end
$var reg 16 :# ar_ddd [15:0] $end
$var reg 16 ;# ar_dddd [15:0] $end
$var reg 16 <# bi_d [15:0] $end
$var reg 16 =# bi_dd [15:0] $end
$var reg 16 ># bi_ddd [15:0] $end
$var reg 16 ?# br_d [15:0] $end
$var reg 16 @# br_dd [15:0] $end
$var reg 16 A# br_ddd [15:0] $end
$var reg 16 B# common [15:0] $end
$var reg 16 C# commonr1 [15:0] $end
$var reg 16 D# commonr2 [15:0] $end
$var reg 16 E# mult0 [15:0] $end
$var reg 16 F# multi [15:0] $end
$var reg 16 G# multr [15:0] $end
$var reg 16 H# pi_int [15:0] $end
$var reg 16 I# pr_int [15:0] $end
$scope module qmult_common $end
$var wire 16 J# i_multiplicand [15:0] $end
$var wire 16 K# i_multiplier [15:0] $end
$var wire 16 L# o_result [15:0] $end
$var wire 16 M# temp_multiplicand [15:0] $end
$var wire 16 N# temp_meltiplier [15:0] $end
$var wire 32 O# r_result [31:0] $end
$var reg 1 P# is_signed $end
$var reg 1 0# ovr $end
$var reg 16 Q# r_RetVal [15:0] $end
$var reg 16 R# temp_RetVal [15:0] $end
$upscope $end
$scope module qmult_imag $end
$var wire 16 S# i_multiplicand [15:0] $end
$var wire 16 T# i_multiplier [15:0] $end
$var wire 16 U# o_result [15:0] $end
$var wire 16 V# temp_multiplicand [15:0] $end
$var wire 16 W# temp_meltiplier [15:0] $end
$var wire 32 X# r_result [31:0] $end
$var reg 1 Y# is_signed $end
$var reg 1 /# ovr $end
$var reg 16 Z# r_RetVal [15:0] $end
$var reg 16 [# temp_RetVal [15:0] $end
$upscope $end
$scope module qmult_real $end
$var wire 16 \# i_multiplicand [15:0] $end
$var wire 16 ]# i_multiplier [15:0] $end
$var wire 16 ^# o_result [15:0] $end
$var wire 16 _# temp_multiplicand [15:0] $end
$var wire 16 `# temp_meltiplier [15:0] $end
$var wire 32 a# r_result [31:0] $end
$var reg 1 b# is_signed $end
$var reg 1 .# ovr $end
$var reg 16 c# r_RetVal [15:0] $end
$var reg 16 d# temp_RetVal [15:0] $end
$upscope $end
$upscope $end
$scope module c3 $end
$var wire 16 e# ai [15:0] $end
$var wire 16 f# ar [15:0] $end
$var wire 16 g# bi [15:0] $end
$var wire 16 h# br [15:0] $end
$var wire 1 3 clk $end
$var wire 1 4 rst $end
$var wire 16 i# tmp_multr [15:0] $end
$var wire 16 j# tmp_multi [15:0] $end
$var wire 16 k# tmp_mult0 [15:0] $end
$var wire 16 l# pr [15:0] $end
$var wire 16 m# pi [15:0] $end
$var wire 1 n# ovr_multr $end
$var wire 1 o# ovr_multi $end
$var wire 1 p# ovr_mult0 $end
$var reg 16 q# addcommon [15:0] $end
$var reg 16 r# addi [15:0] $end
$var reg 16 s# addr [15:0] $end
$var reg 16 t# ai_d [15:0] $end
$var reg 16 u# ai_dd [15:0] $end
$var reg 16 v# ai_ddd [15:0] $end
$var reg 16 w# ai_dddd [15:0] $end
$var reg 16 x# ar_d [15:0] $end
$var reg 16 y# ar_dd [15:0] $end
$var reg 16 z# ar_ddd [15:0] $end
$var reg 16 {# ar_dddd [15:0] $end
$var reg 16 |# bi_d [15:0] $end
$var reg 16 }# bi_dd [15:0] $end
$var reg 16 ~# bi_ddd [15:0] $end
$var reg 16 !$ br_d [15:0] $end
$var reg 16 "$ br_dd [15:0] $end
$var reg 16 #$ br_ddd [15:0] $end
$var reg 16 $$ common [15:0] $end
$var reg 16 %$ commonr1 [15:0] $end
$var reg 16 &$ commonr2 [15:0] $end
$var reg 16 '$ mult0 [15:0] $end
$var reg 16 ($ multi [15:0] $end
$var reg 16 )$ multr [15:0] $end
$var reg 16 *$ pi_int [15:0] $end
$var reg 16 +$ pr_int [15:0] $end
$scope module qmult_common $end
$var wire 16 ,$ i_multiplicand [15:0] $end
$var wire 16 -$ i_multiplier [15:0] $end
$var wire 16 .$ o_result [15:0] $end
$var wire 16 /$ temp_multiplicand [15:0] $end
$var wire 16 0$ temp_meltiplier [15:0] $end
$var wire 32 1$ r_result [31:0] $end
$var reg 1 2$ is_signed $end
$var reg 1 p# ovr $end
$var reg 16 3$ r_RetVal [15:0] $end
$var reg 16 4$ temp_RetVal [15:0] $end
$upscope $end
$scope module qmult_imag $end
$var wire 16 5$ i_multiplicand [15:0] $end
$var wire 16 6$ i_multiplier [15:0] $end
$var wire 16 7$ o_result [15:0] $end
$var wire 16 8$ temp_multiplicand [15:0] $end
$var wire 16 9$ temp_meltiplier [15:0] $end
$var wire 32 :$ r_result [31:0] $end
$var reg 1 ;$ is_signed $end
$var reg 1 o# ovr $end
$var reg 16 <$ r_RetVal [15:0] $end
$var reg 16 =$ temp_RetVal [15:0] $end
$upscope $end
$scope module qmult_real $end
$var wire 16 >$ i_multiplicand [15:0] $end
$var wire 16 ?$ i_multiplier [15:0] $end
$var wire 16 @$ o_result [15:0] $end
$var wire 16 A$ temp_multiplicand [15:0] $end
$var wire 16 B$ temp_meltiplier [15:0] $end
$var wire 32 C$ r_result [31:0] $end
$var reg 1 D$ is_signed $end
$var reg 1 n# ovr $end
$var reg 16 E$ r_RetVal [15:0] $end
$var reg 16 F$ temp_RetVal [15:0] $end
$upscope $end
$upscope $end
$scope module romS0 $end
$var wire 4 G$ Si [3:0] $end
$var wire 1 3 clk $end
$var wire 1 H$ colS $end
$var wire 64 I$ out_colS_i [63:0] $end
$var wire 64 J$ out_colS_r [63:0] $end
$upscope $end
$upscope $end
$scope task wait4clk $end
$var integer 32 K$ n [31:0] $end
$upscope $end
$upscope $end
$enddefinitions $end
#0
$dumpvars
bx K$
bx J$
bx I$
xH$
bx G$
bx F$
bx E$
xD$
bx C$
bx B$
bx A$
bx @$
bx ?$
bx >$
bx =$
bx <$
x;$
bx :$
bx 9$
bx 8$
bx 7$
bx 6$
bx 5$
bx 4$
bx 3$
x2$
bx 1$
bx 0$
bx /$
bx .$
bx -$
bx ,$
bx +$
bx *$
bx )$
bx ($
bx '$
bx &$
bx %$
bx $$
bx #$
bx "$
bx !$
bx ~#
bx }#
bx |#
bx {#
bx z#
bx y#
bx x#
bx w#
bx v#
bx u#
bx t#
bx s#
bx r#
bx q#
xp#
xo#
xn#
bx m#
bx l#
bx k#
bx j#
bx i#
bx h#
bx g#
bx f#
bx e#
bx d#
bx c#
xb#
bx a#
bx `#
bx _#
bx ^#
bx ]#
bx \#
bx [#
bx Z#
xY#
bx X#
bx W#
bx V#
bx U#
bx T#
bx S#
bx R#
bx Q#
xP#
bx O#
bx N#
bx M#
bx L#
bx K#
bx J#
bx I#
bx H#
bx G#
bx F#
bx E#
bx D#
bx C#
bx B#
bx A#
bx @#
bx ?#
bx >#
bx =#
bx <#
bx ;#
bx :#
bx 9#
bx 8#
bx 7#
bx 6#
bx 5#
bx 4#
bx 3#
bx 2#
bx 1#
x0#
x/#
x.#
bx -#
bx ,#
bx +#
bx *#
bx )#
bx (#
bx '#
bx &#
bx %#
bx $#
bx ##
x"#
bx !#
bx ~"
bx }"
bx |"
bx {"
bx z"
bx y"
bx x"
xw"
bx v"
bx u"
bx t"
bx s"
bx r"
bx q"
bx p"
bx o"
xn"
bx m"
bx l"
bx k"
bx j"
bx i"
bx h"
bx g"
bx f"
bx e"
bx d"
bx c"
bx b"
bx a"
bx `"
bx _"
bx ^"
bx ]"
bx \"
bx ["
bx Z"
bx Y"
bx X"
bx W"
bx V"
bx U"
bx T"
bx S"
bx R"
bx Q"
bx P"
bx O"
xN"
xM"
xL"
bx K"
bx J"
bx I"
bx H"
bx G"
bx F"
bx E"
bx D"
bx C"
bx B"
bx A"
x@"
bx ?"
bx >"
bx ="
bx <"
bx ;"
bx :"
bx 9"
bx 8"
x7"
bx 6"
bx 5"
bx 4"
bx 3"
bx 2"
bx 1"
bx 0"
bx /"
x."
bx -"
bx ,"
bx +"
bx *"
bx )"
bx ("
bx '"
bx &"
bx %"
bx $"
bx #"
bx ""
bx !"
bx ~
bx }
bx |
bx {
bx z
bx y
bx x
bx w
bx v
bx u
bx t
bx s
bx r
bx q
bx p
bx o
bx n
bx m
xl
xk
xj
bx i
bx h
bx g
bx f
bx e
bx d
bx c
bx b
bx a
bx `
bx _
bx ^
bx ]
bx \
bx [
bx Z
bx Y
bx X
bx W
bx V
bx U
bx T
bx S
bx R
bx Q
bx P
bx O
bx N
bx M
bx L
bx K
bx J
bx I
bx H
bx G
bx F
bx E
bx D
bx C
bx B
bx A
bx @
bx ?
bx >
bx =
bx <
bx ;
bx :
bx 9
bx 8
bx 7
bx 6
bx 5
04
03
bx 2
bx 1
x0
bx /
bx .
x-
bx ,
x+
x*
x)
x(
z'
bx &
x%
bx $
x#
z"
z!
$end
#50000
b10000000 d
b1111111110000000 F"
b10000000 (#
b1111111110000000 h#
b0 c
b0 E"
b0 '#
b0 g#
b11000001 a
b1111111111110100 C"
b111100 %#
b1111111011011000 e#
b1111111111011101 b
b110000011 D"
b1001101 &#
b100001000 f#
b10000000111111111000000000000000100000001111111110000000 6
b10000000111111111000000000000000100000001111111110000000 9
b10000000111111111000000000000000100000001111111110000000 J$
b0 5
b0 :
b0 I$
0H$
b0 I
b0 L
b0 G$
b11000001111111111111010000000000001111001111111011011000 7
b1111111111011101000000011000001100000000010011010000000100001000 8
b0 G
b0 N
b0 H
b0 M
b0 x
b0 {
b0 p
b0 t
b0 Z"
b0 ]"
b0 R"
b0 V"
b0 <#
b0 ?#
b0 4#
b0 8#
b0 |#
b0 !$
b0 t#
b0 x#
b10 K$
14
13
#100000
03
#150000
b0 /$
b0 M#
b0 k"
b0 +"
b0 q#
b0 ,$
b0 1#
b0 J#
b0 O"
b0 h"
b0 m
b0 ("
13
#200000
03
#250000
b1 K$
04
13
#300000
03
#350000
0p#
b0 k#
b0 .$
b0 3$
b0 4$
02$
00#
b0 +#
b0 L#
b0 Q#
b0 R#
0P#
0N"
b0 I"
b0 j"
b0 o"
b0 p"
0n"
0l
b0 g
b0 *"
b0 /"
b0 0"
0."
b10000000 F"
b10000000 h#
b0 1$
b0 0$
b0 O#
b0 N#
b0 m"
b0 l"
b0 -"
b0 ,"
b10000000000000001000000000000000100000000000000010000000 6
b10000000000000001000000000000000100000000000000010000000 9
b10000000000000001000000000000000100000000000000010000000 J$
1H$
b0 }#
b0 -$
b0 "$
b1111111110000000 !$
b0 u#
b1111111011011000 t#
b0 y#
b100001000 x#
b0 =#
b0 K#
b0 @#
b10000000 ?#
b0 5#
b111100 4#
b0 9#
b1001101 8#
b0 ["
b0 i"
b0 ^"
b1111111110000000 ]"
b0 S"
b1111111111110100 R"
b0 W"
b110000011 V"
b0 y
b0 )"
b0 |
b10000000 {
b0 q
b11000001 p
b0 u
b1111111111011101 t
b1 H
b1 M
b11001000 K$
13
#400000
03
#450000
b1111111110000000 F"
b1111111110000000 h#
b1111111101001010 a
b111111 C"
b1111111110110100 %#
b1001010 e#
b1111111110111010 b
b10110111 D"
b10000011 &#
b100010001 f#
b10000000111111111000000000000000100000001111111110000000 6
b10000000111111111000000000000000100000001111111110000000 9
b10000000111111111000000000000000100000001111111110000000 J$
0H$
b11100100 +"
b110001111 k"
b10001 M#
b1000110000 /$
b1111111101001010000000000011111111111111101101000000000001001010 7
b1111111110111010000000001011011100000000100000110000000100010001 8
b1 G
b1 N
b0 H
b0 M
b0 z
b0 }
b10000000 |
b11000001 q
b1111111111011101 u
b0 #"
b1111111100011100 m
b1111111100011100 ("
b0 v
b0 r
b0 \"
b0 _"
b1111111110000000 ^"
b10000000 ]"
b1111111111110100 S"
b110000011 W"
b0 c"
b110001111 O"
b110001111 h"
b0 X"
b0 T"
b0 >#
b0 A#
b10000000 @#
b111100 5#
b1001101 9#
b0 E#
b10001 1#
b10001 J#
b0 :#
b0 6#
b0 ~#
b0 #$
b1111111110000000 "$
b10000000 !$
b1111111011011000 u#
b100001000 y#
b0 '$
b1000110000 q#
b1000110000 ,$
b0 z#
b0 v#
13
#500000
03
#550000
0o#
b0 j#
b0 7$
b0 <$
b0 =$
0;$
0n#
b0 i#
b0 @$
b0 E$
b0 F$
0D$
0/#
b0 *#
b0 U#
b0 Z#
b0 [#
0Y#
0.#
b0 )#
b0 ^#
b0 c#
b0 d#
0b#
0M"
b0 H"
b0 s"
b0 x"
b0 y"
0w"
0L"
b0 G"
b0 |"
b0 ##
b0 $#
0"#
0k
b0 f
b0 3"
b0 8"
b0 9"
07"
0j
b0 e
b0 <"
b0 A"
b0 B"
0@"
b10000000 F"
b10000000 h#
b0 :$
b0 8$
b0 9$
b0 C$
b0 A$
b0 B$
b0 X#
b0 V#
b0 W#
b0 a#
b0 _#
b0 `#
b0 v"
b0 t"
b0 u"
b0 !#
b0 }"
b0 ~"
b0 6"
b0 4"
b0 5"
b0 ?"
b0 ="
b0 >"
b10000000000000001000000000000000100000000000000010000000 6
b10000000000000001000000000000000100000000000000010000000 9
b10000000000000001000000000000000100000000000000010000000 J$
1H$
b0 r#
b0 5$
b0 w#
b0 6$
b1111111011011000 v#
b0 s#
b0 >$
b0 {#
b0 ?$
b100001000 z#
b0 $$
b1111111110000000 #$
b10000000 "$
b1111111110000000 !$
b1001010 t#
b100010001 x#
b0 2#
b0 S#
b0 7#
b0 T#
b111100 6#
b0 3#
b0 \#
b0 ;#
b0 ]#
b1001101 :#
b0 B#
b10000000 A#
b1111111110110100 4#
b10000011 8#
b0 P"
b0 q"
b0 U"
b0 r"
b1111111111110100 T"
b0 Q"
b0 z"
b0 Y"
b0 {"
b110000011 X"
b0 `"
b1111111110000000 _"
b10000000 ^"
b1111111110000000 ]"
b111111 R"
b10110111 V"
b0 n
b0 1"
b0 s
b0 2"
b11000001 r
b0 o
b0 :"
b0 w
b0 ;"
b1111111111011101 v
b0 ~
b10000000 }
b1111111101001010 p
b1111111110111010 t
b1 H
b1 M
13
#600000
03
#650000
b1111111110000000 F"
b1111111110000000 h#
b1111111111101111 e
b1111111111101111 <"
b1111111111101111 A"
b10001 B"
1@"
b1100000 f
b1100000 3"
b1100000 8"
b1100000 9"
0L"
b1111111100111111 G"
b1111111100111111 |"
b1111111100111111 ##
b11000001 $#
1"#
b110 H"
b110 s"
b110 x"
b110 y"
b100110 )#
b100110 ^#
b100110 c#
b100110 d#
b11110 *#
b11110 U#
b11110 Z#
b11110 [#
0n#
b1111111101111100 i#
b1111111101111100 @$
b1111111101111100 E$
b10000100 F$
1D$
0o#
b10010100 j#
b10010100 7$
b10010100 <$
b10010100 =$
b1111111100101010 a
b1111111010100011 C"
b10010111 %#
b1001011 e#
b1111111110011100 b
b101 D"
b11000001 &#
b1111111100111001 f#
b10000000111111111000000000000000100000001111111110000000 6
b10000000111111111000000000000000100000001111111110000000 9
b10000000111111111000000000000000100000001111111110000000 J$
0H$
b1110000 +"
b1000110000000 ?"
b10000000 ="
b100011 >"
b110000010000000 6"
b10000000 4"
b11000001 5"
b1111000 k"
b1100000110000000 !#
b10000000 }"
b110000011 ~"
b11000000000 v"
b10000000 t"
b1100 u"
b11001111 M#
b10011010000000 a#
b10000000 _#
b1001101 `#
b1111000000000 X#
b10000000 V#
b111100 W#
b11000111 /$
b1000010000000000 C$
b10000000 A$
b100001000 B$
b1001010000000000 :$
b10000000 8$
b100101000 9$
b1111111100101010111111101010001100000000100101110000000001001011 7
b1111111110011100000000000000010100000000110000011111111100111001 8
b10 G
b10 N
b0 H
b0 M
b1111111101001010 q
b1111111110111010 u
b1110000 m
b1110000 ("
b0 !"
b0 %"
b10000000 o
b10000000 :"
b1111111111011101 w
b1111111111011101 ;"
b0 ""
b0 $"
b10000000 n
b10000000 1"
b11000001 s
b11000001 2"
b10000000 _"
b1111111110000000 ^"
b10000000 ]"
b111111 S"
b10110111 W"
b1111000 O"
b1111000 h"
b0 a"
b0 e"
b1111111110000000 Q"
b1111111110000000 z"
b110000011 Y"
b110000011 {"
b0 b"
b0 d"
b1111111110000000 P"
b1111111110000000 q"
b1111111111110100 U"
b1111111111110100 r"
b1111111110110100 5#
b10000011 9#
b11001111 1#
b11001111 J#
b0 C#
b0 G#
b10000000 3#
b10000000 \#
b1001101 ;#
b1001101 ]#
b0 D#
b0 F#
b10000000 2#
b10000000 S#
b111100 7#
b111100 T#
b10000000 #$
b1111111110000000 "$
b10000000 !$
b1001010 u#
b100010001 y#
b11000111 q#
b11000111 ,$
b0 %$
b0 )$
b1111111110000000 s#
b1111111110000000 >$
b100001000 {#
b100001000 ?$
b0 &$
b0 ($
b1111111110000000 r#
b1111111110000000 5$
b1111111011011000 w#
b1111111011011000 6$
13
#700000
03
#750000
0o#
b1111111101101100 j#
b1111111101101100 7$
b1111111101101100 <$
b10010100 =$
1;$
0n#
b10000100 i#
b10000100 @$
b10000100 E$
b10000100 F$
0D$
b1111111111111010 H"
b1111111111111010 s"
b1111111111111010 x"
b110 y"
1w"
0L"
b11000001 G"
b11000001 |"
b11000001 ##
b11000001 $#
0"#
b10000000 F"
b10000000 h#
b1001010000000000 :$
b10000000 8$
b1000010000000000 C$
b10000000 A$
b11000000000 v"
b10000000 t"
b1100000110000000 !#
b10000000 }"
b10000000000000001000000000000000100000000000000010000000 6
b10000000000000001000000000000000100000000000000010000000 9
b10000000000000001000000000000000100000000000000010000000 J$
1H$
b0 2
b0 K
b0 `
b0 D
b0 [
b0 _
b0 <
b0 \
b0 m#
b0 *$
b10010100 ($
b10000000 r#
b10000000 5$
b1001010 v#
b0 1
b0 J
b0 W
b0 C
b0 R
b0 V
b0 ;
b0 S
b0 l#
b0 +$
b1111111101111100 )$
b10000000 s#
b10000000 >$
b100010001 z#
b1111111110000000 #$
b10000000 "$
b1111111110000000 !$
b1001011 t#
b1111111100111001 x#
b0 >
b0 ]
b0 -#
b0 H#
b11110 F#
b1111111110110100 6#
b0 =
b0 T
b0 ,#
b0 I#
b100110 G#
b10000011 :#
b10010111 4#
b11000001 8#
b0 F
b0 X
b0 ^
b0 @
b0 Y
b0 K"
b0 f"
b110 d"
b10000000 P"
b10000000 q"
b111111 T"
b0 E
b0 O
b0 U
b0 ?
b0 P
b0 J"
b0 g"
b1111111100111111 e"
b10000000 Q"
b10000000 z"
b10110111 X"
b1111111110000000 _"
b10000000 ^"
b1111111110000000 ]"
b1111111010100011 R"
b101 V"
b0 B
b0 Z
b0 i
b0 &"
b1100000 $"
b1111111101001010 r
b0 A
b0 Q
b0 h
b0 '"
b1111111111101111 %"
b1111111110111010 v
b1111111100101010 p
b1111111110011100 t
b1 H
b1 M
13
#800000
03
