SOML_DECODER/tb/tb_cmult.vcd
$date
	Tue Nov  5 11:26:36 2024
$end
$version
	Icarus Verilog
$end
$timescale
	1ps
$end
$scope module tb_cmult $end
$var wire 16 ! pr [15:0] $end
$var wire 16 " pi [15:0] $end
$var reg 16 # ai [15:0] $end
$var reg 16 $ ar [15:0] $end
$var reg 16 % bi [15:0] $end
$var reg 16 & br [15:0] $end
$var reg 1 ' clk $end
$var reg 1 ( rst $end
$scope module c0 $end
$var wire 16 ) ai [15:0] $end
$var wire 16 * ar [15:0] $end
$var wire 16 + bi [15:0] $end
$var wire 16 , br [15:0] $end
$var wire 1 ' clk $end
$var wire 16 - pi [15:0] $end
$var wire 16 . pr [15:0] $end
$var wire 1 ( rst $end
$var wire 1 / ovr_multr $end
$var wire 1 0 ovr_multi $end
$var wire 1 1 ovr_mult0 $end
$var wire 16 2 multr [15:0] $end
$var wire 16 3 multi [15:0] $end
$var wire 16 4 mult0 [15:0] $end
$var reg 16 5 addcommon [15:0] $end
$var reg 16 6 addi [15:0] $end
$var reg 16 7 addr [15:0] $end
$var reg 16 8 ai_d [15:0] $end
$var reg 16 9 ai_dd [15:0] $end
$var reg 16 : ai_ddd [15:0] $end
$var reg 16 ; ai_dddd [15:0] $end
$var reg 16 < ar_d [15:0] $end
$var reg 16 = ar_dd [15:0] $end
$var reg 16 > ar_ddd [15:0] $end
$var reg 16 ? ar_dddd [15:0] $end
$var reg 16 @ bi_d [15:0] $end
$var reg 16 A bi_dd [15:0] $end
$var reg 16 B bi_ddd [15:0] $end
$var reg 16 C br_d [15:0] $end
$var reg 16 D br_dd [15:0] $end
$var reg 16 E br_ddd [15:0] $end
$var reg 16 F common [15:0] $end
$var reg 16 G commonr1 [15:0] $end
$var reg 16 H commonr2 [15:0] $end
$var reg 16 I pi_int [15:0] $end
$var reg 16 J pr_int [15:0] $end
$scope module qmult_common $end
$var wire 16 K i_multiplicand [15:0] $end
$var wire 16 L i_multiplier [15:0] $end
$var wire 16 M o_result [15:0] $end
$var reg 1 N is_signed $end
$var reg 1 1 ovr $end
$var reg 16 O r_RetVal [15:0] $end
$var reg 32 P r_result [31:0] $end
$var reg 16 Q temp_RetVal [15:0] $end
$var reg 16 R temp_meltiplier [15:0] $end
$var reg 16 S temp_multiplicand [15:0] $end
$upscope $end
$scope module qmult_imag $end
$var wire 16 T i_multiplicand [15:0] $end
$var wire 16 U i_multiplier [15:0] $end
$var wire 16 V o_result [15:0] $end
$var reg 1 W is_signed $end
$var reg 1 0 ovr $end
$var reg 16 X r_RetVal [15:0] $end
$var reg 32 Y r_result [31:0] $end
$var reg 16 Z temp_RetVal [15:0] $end
$var reg 16 [ temp_meltiplier [15:0] $end
$var reg 16 \ temp_multiplicand [15:0] $end
$upscope $end
$scope module qmult_real $end
$var wire 16 ] i_multiplicand [15:0] $end
$var wire 16 ^ i_multiplier [15:0] $end
$var wire 16 _ o_result [15:0] $end
$var reg 1 ` is_signed $end
$var reg 1 / ovr $end
$var reg 16 a r_RetVal [15:0] $end
$var reg 32 b r_result [31:0] $end
$var reg 16 c temp_RetVal [15:0] $end
$var reg 16 d temp_meltiplier [15:0] $end
$var reg 16 e temp_multiplicand [15:0] $end
$upscope $end
$upscope $end
$scope task transdata $end
$var reg 64 f colS_i [63:0] $end
$var reg 64 g colS_r [63:0] $end
$var reg 64 h rowH_i [63:0] $end
$var reg 64 i rowH_r [63:0] $end
$upscope $end
$scope task wait4clk $end
$var integer 32 j n [31:0] $end
$upscope $end
$upscope $end
$enddefinitions $end
#0
$dumpvars
b10 j
bx i
bx h
bx g
bx f
bx e
bx d
bx c
bx b
bx a
x`
bx _
bx ^
bx ]
bx \
bx [
bx Z
bx Y
bx X
xW
bx V
bx U
bx T
bx S
bx R
bx Q
bx P
bx O
xN
bx M
bx L
bx K
bx J
bx I
bx H
bx G
bx F
bx E
bx D
bx C
bx B
bx A
bx @
bx ?
bx >
bx =
bx <
bx ;
bx :
bx 9
bx 8
bx 7
bx 6
bx 5
bx 4
bx 3
bx 2
x1
x0
x/
bx .
bx -
bx ,
bx +
bx *
bx )
1(
0'
bx &
bx %
bx $
bx #
bx "
bx !
$end
#5000
b0 @
b0 C
b0 8
b0 <
1'
#10000
0'
#15000
b0 S
b0 %
b0 +
b10000000 &
b10000000 ,
b11000001 #
b11000001 )
b1111111111011101 $
b1111111111011101 *
b0 5
b0 K
b0 f
b10000000111111111000000000000000100000001111111110000000 g
b11000001111111111111010000000000001111001111111011011000 h
b1111111111011101000000011000001100000000010011010000000100001000 i
0(
1'
#20000
0'
#25000
01
b0 4
b0 M
b0 O
b0 Q
0N
b0 P
b0 R
b0 A
b0 L
b0 D
b10000000 C
b0 9
b11000001 8
b0 =
b1111111111011101 <
b1111111110000000 &
b1111111110000000 ,
b1111111111110100 #
b1111111111110100 )
b110000011 $
b110000011 *
1'
#30000
0'
#35000
b11100100 S
b10000000 &
b10000000 ,
b111100 #
b111100 )
b1001101 $
b1001101 *
b0 :
b0 >
b0 F
b1111111100011100 5
b1111111100011100 K
b0 B
b0 E
b10000000 D
b1111111110000000 C
b11000001 9
b1111111111110100 8
b1111111111011101 =
b110000011 <
1'
#40000
0'
#45000
0/
b0 2
b0 _
b0 a
b0 c
0`
00
b0 3
b0 V
b0 X
b0 Z
0W
b110001111 S
b0 b
b0 d
b0 e
b0 Y
b0 [
b0 \
b10000000 E
b1111111110000000 D
b10000000 C
b1111111111110100 9
b111100 8
b110000011 =
b1001101 <
b110001111 5
b110001111 K
b0 ?
b0 ^
b1111111111011101 >
b0 7
b0 ]
b0 G
b0 ;
b0 U
b11000001 :
b0 6
b0 T
b0 H
b1111111110000000 &
b1111111110000000 ,
b1111111011011000 #
b1111111011011000 )
b100001000 $
b100001000 *
1'
#50000
0'
#55000
b1100000 3
b1100000 V
b1100000 X
b1100000 Z
b1111111111101111 2
b1111111111101111 _
b1111111111101111 a
b10001 c
1`
b110000010000000 Y
b11000001 [
b10000000 \
b1000110000000 b
b100011 d
b10000000 e
b10001 S
b0 "
b0 -
b0 I
b10000000 6
b10000000 T
b11000001 ;
b11000001 U
b1111111111110100 :
b0 !
b0 .
b0 J
b10000000 7
b10000000 ]
b1111111111011101 ?
b1111111111011101 ^
b110000011 >
b10001 5
b10001 K
b1111111110000000 E
b10000000 D
b1111111110000000 C
b111100 9
b1111111011011000 8
b1001101 =
b100001000 <
1'
#60000
0'
#65000
b1111111100111111 2
b1111111100111111 _
b1111111100111111 a
b11000001 c
b110 3
b110 V
b110 X
b110 Z
b1000110000 S
b1100000110000000 b
b110000011 d
b11000000000 Y
b1100 [
b10000000 E
b1111111110000000 D
b1111111011011000 9
b100001000 =
b1000110000 5
b1000110000 K
b110000011 ?
b110000011 ^
b1001101 >
b1111111110000000 7
b1111111110000000 ]
b1111111111101111 !
b1111111111101111 .
b1111111111101111 J
b1111111111110100 ;
b1111111111110100 U
b111100 :
b1111111110000000 6
b1111111110000000 T
b1100000 "
b1100000 -
b1100000 I
1'
#70000
0'
#75000
b11110 3
b11110 V
b11110 X
b11110 Z
b100110 2
b100110 _
b100110 a
b100110 c
0`
b1111000000000 Y
b111100 [
b10011010000000 b
b1001101 d
b110 "
b110 -
b110 I
b10000000 6
b10000000 T
b111100 ;
b111100 U
b1111111011011000 :
b1111111100111111 !
b1111111100111111 .
b1111111100111111 J
b10000000 7
b10000000 ]
b1001101 ?
b1001101 ^
b100001000 >
b1111111110000000 E
1'
#80000
0'
#85000
b1111111101111100 2
b1111111101111100 _
b1111111101111100 a
b10000100 c
1`
b10010100 3
b10010100 V
b10010100 X
b10010100 Z
b1000010000000000 b
b100001000 d
b1001010000000000 Y
b100101000 [
b100001000 ?
b100001000 ^
b1111111110000000 7
b1111111110000000 ]
b100110 !
b100110 .
b100110 J
b1111111011011000 ;
b1111111011011000 U
b1111111110000000 6
b1111111110000000 T
b11110 "
b11110 -
b11110 I
1'
#90000
0'
#95000
b10010100 "
b10010100 -
b10010100 I
b1111111101111100 !
b1111111101111100 .
b1111111101111100 J
1'
