SOML_DECODER/tb.vcd
$date
	Sun Nov 17 23:08:08 2024
$end
$version
	Icarus Verilog
$end
$timescale
	1ps
$end
$scope module tb_Hq_Dh_cal $end
$var wire 1 ! done_Dh $end
$var wire 16 " Hq_r [15:0] $end
$var wire 16 # Hq_i [15:0] $end
$var wire 16 $ D_h [15:0] $end
$var reg 1 % clk $end
$var reg 1 & rst $end
$scope module dut $end
$var wire 1 % clk $end
$var wire 1 & rst $end
$var wire 16 ' tmp_pw2 [15:0] $end
$var wire 16 ( tmp_pw1 [15:0] $end
$var wire 1 ) start_cal_Dh $end
$var wire 1 * ovr_pw2 $end
$var wire 1 + ovr_pw1 $end
$var wire 16 , out_add_ri [15:0] $end
$var wire 1 ! done_Dh $end
$var wire 16 - Hq_r [15:0] $end
$var wire 16 . Hq_i [15:0] $end
$var wire 16 / D_h [15:0] $end
$var reg 3 0 counter [2:0] $end
$var reg 1 1 done $end
$var reg 16 2 reg_Hq_i [15:0] $end
$var reg 16 3 reg_Hq_r [15:0] $end
$var reg 16 4 reg_tmp_pw1 [15:0] $end
$var reg 16 5 reg_tmp_pw2 [15:0] $end
$scope module acc $end
$var wire 1 % clk $end
$var wire 1 & rst $end
$var wire 1 6 start $end
$var wire 16 7 sdi [15:0] $end
$var wire 16 8 out [15:0] $end
$var reg 4 9 counter [3:0] $end
$var reg 1 ! finish $end
$var reg 1 : rx_en $end
$var reg 16 ; shift_reg [15:0] $end
$upscope $end
$scope module add_ri $end
$var wire 16 < a [15:0] $end
$var wire 16 = b [15:0] $end
$var wire 16 > c [15:0] $end
$upscope $end
$scope module dut $end
$var wire 1 % clk $end
$var wire 64 ? out_colS_i [63:0] $end
$var wire 64 @ out_colS_r [63:0] $end
$var wire 64 A rowH_i [63:0] $end
$var wire 64 B rowH_r [63:0] $end
$var wire 1 & rst $end
$var wire 64 C temp_colS_r [63:0] $end
$var wire 64 D temp_colS_i [63:0] $end
$var wire 16 E out_reg_c3_r [15:0] $end
$var wire 16 F out_reg_c3_i [15:0] $end
$var wire 16 G out_reg_c2_r [15:0] $end
$var wire 16 H out_reg_c2_i [15:0] $end
$var wire 16 I out_reg_c1_r [15:0] $end
$var wire 16 J out_reg_c1_i [15:0] $end
$var wire 16 K out_reg_c0_r [15:0] $end
$var wire 16 L out_reg_c0_i [15:0] $end
$var wire 16 M out_add1_r [15:0] $end
$var wire 16 N out_add1_i [15:0] $end
$var wire 16 O out_add0_r [15:0] $end
$var wire 16 P out_add0_i [15:0] $end
$var wire 2 Q addr_rowH [1:0] $end
$var wire 2 R addr_colS [1:0] $end
$var wire 4 S addr_Si [3:0] $end
$var wire 16 T Hq_r [15:0] $end
$var wire 16 U Hq_i [15:0] $end
$scope module AddrGen0 $end
$var wire 1 % clk $end
$var wire 1 & rst $end
$var reg 4 V addr_Si [3:0] $end
$var reg 2 W addr_colS [1:0] $end
$var reg 2 X addr_rowH [1:0] $end
$var reg 1 Y done_Si $end
$upscope $end
$scope module add0 $end
$var wire 16 Z c [15:0] $end
$var wire 16 [ b [15:0] $end
$var wire 16 \ a [15:0] $end
$upscope $end
$scope module add1 $end
$var wire 16 ] c [15:0] $end
$var wire 16 ^ b [15:0] $end
$var wire 16 _ a [15:0] $end
$upscope $end
$scope module add2 $end
$var wire 16 ` a [15:0] $end
$var wire 16 a b [15:0] $end
$var wire 16 b c [15:0] $end
$upscope $end
$scope module add3 $end
$var wire 16 c c [15:0] $end
$var wire 16 d b [15:0] $end
$var wire 16 e a [15:0] $end
$upscope $end
$scope module add4 $end
$var wire 16 f c [15:0] $end
$var wire 16 g b [15:0] $end
$var wire 16 h a [15:0] $end
$upscope $end
$scope module add5 $end
$var wire 16 i a [15:0] $end
$var wire 16 j b [15:0] $end
$var wire 16 k c [15:0] $end
$upscope $end
$scope module c0 $end
$var wire 16 l ai [15:0] $end
$var wire 16 m ar [15:0] $end
$var wire 16 n bi [15:0] $end
$var wire 16 o br [15:0] $end
$var wire 1 % clk $end
$var wire 1 & rst $end
$var wire 16 p tmp_multr [15:0] $end
$var wire 16 q tmp_multi [15:0] $end
$var wire 16 r tmp_mult0 [15:0] $end
$var wire 16 s pr [15:0] $end
$var wire 16 t pi [15:0] $end
$var wire 1 u ovr_multr $end
$var wire 1 v ovr_multi $end
$var wire 1 w ovr_mult0 $end
$var reg 16 x addcommon [15:0] $end
$var reg 16 y addi [15:0] $end
$var reg 16 z addr [15:0] $end
$var reg 16 { ai_d [15:0] $end
$var reg 16 | ai_dd [15:0] $end
$var reg 16 } ai_ddd [15:0] $end
$var reg 16 ~ ai_dddd [15:0] $end
$var reg 16 !" ar_d [15:0] $end
$var reg 16 "" ar_dd [15:0] $end
$var reg 16 #" ar_ddd [15:0] $end
$var reg 16 $" ar_dddd [15:0] $end
$var reg 16 %" bi_d [15:0] $end
$var reg 16 &" bi_dd [15:0] $end
$var reg 16 '" bi_ddd [15:0] $end
$var reg 16 (" br_d [15:0] $end
$var reg 16 )" br_dd [15:0] $end
$var reg 16 *" br_ddd [15:0] $end
$var reg 16 +" common [15:0] $end
$var reg 16 ," commonr1 [15:0] $end
$var reg 16 -" commonr2 [15:0] $end
$var reg 16 ." mult0 [15:0] $end
$var reg 16 /" multi [15:0] $end
$var reg 16 0" multr [15:0] $end
$var reg 16 1" pi_int [15:0] $end
$var reg 16 2" pr_int [15:0] $end
$scope module qmult_common $end
$var wire 16 3" i_multiplicand [15:0] $end
$var wire 16 4" i_multiplier [15:0] $end
$var wire 16 5" o_result [15:0] $end
$var wire 16 6" temp_multiplicand [15:0] $end
$var wire 16 7" temp_meltiplier [15:0] $end
$var wire 32 8" r_result [31:0] $end
$var reg 1 9" is_signed $end
$var reg 1 w ovr $end
$var reg 16 :" r_RetVal [15:0] $end
$var reg 16 ;" temp_RetVal [15:0] $end
$upscope $end
$scope module qmult_imag $end
$var wire 16 <" i_multiplicand [15:0] $end
$var wire 16 =" i_multiplier [15:0] $end
$var wire 16 >" o_result [15:0] $end
$var wire 16 ?" temp_multiplicand [15:0] $end
$var wire 16 @" temp_meltiplier [15:0] $end
$var wire 32 A" r_result [31:0] $end
$var reg 1 B" is_signed $end
$var reg 1 v ovr $end
$var reg 16 C" r_RetVal [15:0] $end
$var reg 16 D" temp_RetVal [15:0] $end
$upscope $end
$scope module qmult_real $end
$var wire 16 E" i_multiplicand [15:0] $end
$var wire 16 F" i_multiplier [15:0] $end
$var wire 16 G" o_result [15:0] $end
$var wire 16 H" temp_multiplicand [15:0] $end
$var wire 16 I" temp_meltiplier [15:0] $end
$var wire 32 J" r_result [31:0] $end
$var reg 1 K" is_signed $end
$var reg 1 u ovr $end
$var reg 16 L" r_RetVal [15:0] $end
$var reg 16 M" temp_RetVal [15:0] $end
$upscope $end
$upscope $end
$scope module c1 $end
$var wire 16 N" ai [15:0] $end
$var wire 16 O" ar [15:0] $end
$var wire 16 P" bi [15:0] $end
$var wire 16 Q" br [15:0] $end
$var wire 1 % clk $end
$var wire 1 & rst $end
$var wire 16 R" tmp_multr [15:0] $end
$var wire 16 S" tmp_multi [15:0] $end
$var wire 16 T" tmp_mult0 [15:0] $end
$var wire 16 U" pr [15:0] $end
$var wire 16 V" pi [15:0] $end
$var wire 1 W" ovr_multr $end
$var wire 1 X" ovr_multi $end
$var wire 1 Y" ovr_mult0 $end
$var reg 16 Z" addcommon [15:0] $end
$var reg 16 [" addi [15:0] $end
$var reg 16 \" addr [15:0] $end
$var reg 16 ]" ai_d [15:0] $end
$var reg 16 ^" ai_dd [15:0] $end
$var reg 16 _" ai_ddd [15:0] $end
$var reg 16 `" ai_dddd [15:0] $end
$var reg 16 a" ar_d [15:0] $end
$var reg 16 b" ar_dd [15:0] $end
$var reg 16 c" ar_ddd [15:0] $end
$var reg 16 d" ar_dddd [15:0] $end
$var reg 16 e" bi_d [15:0] $end
$var reg 16 f" bi_dd [15:0] $end
$var reg 16 g" bi_ddd [15:0] $end
$var reg 16 h" br_d [15:0] $end
$var reg 16 i" br_dd [15:0] $end
$var reg 16 j" br_ddd [15:0] $end
$var reg 16 k" common [15:0] $end
$var reg 16 l" commonr1 [15:0] $end
$var reg 16 m" commonr2 [15:0] $end
$var reg 16 n" mult0 [15:0] $end
$var reg 16 o" multi [15:0] $end
$var reg 16 p" multr [15:0] $end
$var reg 16 q" pi_int [15:0] $end
$var reg 16 r" pr_int [15:0] $end
$scope module qmult_common $end
$var wire 16 s" i_multiplicand [15:0] $end
$var wire 16 t" i_multiplier [15:0] $end
$var wire 16 u" o_result [15:0] $end
$var wire 16 v" temp_multiplicand [15:0] $end
$var wire 16 w" temp_meltiplier [15:0] $end
$var wire 32 x" r_result [31:0] $end
$var reg 1 y" is_signed $end
$var reg 1 Y" ovr $end
$var reg 16 z" r_RetVal [15:0] $end
$var reg 16 {" temp_RetVal [15:0] $end
$upscope $end
$scope module qmult_imag $end
$var wire 16 |" i_multiplicand [15:0] $end
$var wire 16 }" i_multiplier [15:0] $end
$var wire 16 ~" o_result [15:0] $end
$var wire 16 !# temp_multiplicand [15:0] $end
$var wire 16 "# temp_meltiplier [15:0] $end
$var wire 32 ## r_result [31:0] $end
$var reg 1 $# is_signed $end
$var reg 1 X" ovr $end
$var reg 16 %# r_RetVal [15:0] $end
$var reg 16 &# temp_RetVal [15:0] $end
$upscope $end
$scope module qmult_real $end
$var wire 16 '# i_multiplicand [15:0] $end
$var wire 16 (# i_multiplier [15:0] $end
$var wire 16 )# o_result [15:0] $end
$var wire 16 *# temp_multiplicand [15:0] $end
$var wire 16 +# temp_meltiplier [15:0] $end
$var wire 32 ,# r_result [31:0] $end
$var reg 1 -# is_signed $end
$var reg 1 W" ovr $end
$var reg 16 .# r_RetVal [15:0] $end
$var reg 16 /# temp_RetVal [15:0] $end
$upscope $end
$upscope $end
$scope module c2 $end
$var wire 16 0# ai [15:0] $end
$var wire 16 1# ar [15:0] $end
$var wire 16 2# bi [15:0] $end
$var wire 16 3# br [15:0] $end
$var wire 1 % clk $end
$var wire 1 & rst $end
$var wire 16 4# tmp_multr [15:0] $end
$var wire 16 5# tmp_multi [15:0] $end
$var wire 16 6# tmp_mult0 [15:0] $end
$var wire 16 7# pr [15:0] $end
$var wire 16 8# pi [15:0] $end
$var wire 1 9# ovr_multr $end
$var wire 1 :# ovr_multi $end
$var wire 1 ;# ovr_mult0 $end
$var reg 16 <# addcommon [15:0] $end
$var reg 16 =# addi [15:0] $end
$var reg 16 ># addr [15:0] $end
$var reg 16 ?# ai_d [15:0] $end
$var reg 16 @# ai_dd [15:0] $end
$var reg 16 A# ai_ddd [15:0] $end
$var reg 16 B# ai_dddd [15:0] $end
$var reg 16 C# ar_d [15:0] $end
$var reg 16 D# ar_dd [15:0] $end
$var reg 16 E# ar_ddd [15:0] $end
$var reg 16 F# ar_dddd [15:0] $end
$var reg 16 G# bi_d [15:0] $end
$var reg 16 H# bi_dd [15:0] $end
$var reg 16 I# bi_ddd [15:0] $end
$var reg 16 J# br_d [15:0] $end
$var reg 16 K# br_dd [15:0] $end
$var reg 16 L# br_ddd [15:0] $end
$var reg 16 M# common [15:0] $end
$var reg 16 N# commonr1 [15:0] $end
$var reg 16 O# commonr2 [15:0] $end
$var reg 16 P# mult0 [15:0] $end
$var reg 16 Q# multi [15:0] $end
$var reg 16 R# multr [15:0] $end
$var reg 16 S# pi_int [15:0] $end
$var reg 16 T# pr_int [15:0] $end
$scope module qmult_common $end
$var wire 16 U# i_multiplicand [15:0] $end
$var wire 16 V# i_multiplier [15:0] $end
$var wire 16 W# o_result [15:0] $end
$var wire 16 X# temp_multiplicand [15:0] $end
$var wire 16 Y# temp_meltiplier [15:0] $end
$var wire 32 Z# r_result [31:0] $end
$var reg 1 [# is_signed $end
$var reg 1 ;# ovr $end
$var reg 16 \# r_RetVal [15:0] $end
$var reg 16 ]# temp_RetVal [15:0] $end
$upscope $end
$scope module qmult_imag $end
$var wire 16 ^# i_multiplicand [15:0] $end
$var wire 16 _# i_multiplier [15:0] $end
$var wire 16 `# o_result [15:0] $end
$var wire 16 a# temp_multiplicand [15:0] $end
$var wire 16 b# temp_meltiplier [15:0] $end
$var wire 32 c# r_result [31:0] $end
$var reg 1 d# is_signed $end
$var reg 1 :# ovr $end
$var reg 16 e# r_RetVal [15:0] $end
$var reg 16 f# temp_RetVal [15:0] $end
$upscope $end
$scope module qmult_real $end
$var wire 16 g# i_multiplicand [15:0] $end
$var wire 16 h# i_multiplier [15:0] $end
$var wire 16 i# o_result [15:0] $end
$var wire 16 j# temp_multiplicand [15:0] $end
$var wire 16 k# temp_meltiplier [15:0] $end
$var wire 32 l# r_result [31:0] $end
$var reg 1 m# is_signed $end
$var reg 1 9# ovr $end
$var reg 16 n# r_RetVal [15:0] $end
$var reg 16 o# temp_RetVal [15:0] $end
$upscope $end
$upscope $end
$scope module c3 $end
$var wire 16 p# ai [15:0] $end
$var wire 16 q# ar [15:0] $end
$var wire 16 r# bi [15:0] $end
$var wire 16 s# br [15:0] $end
$var wire 1 % clk $end
$var wire 1 & rst $end
$var wire 16 t# tmp_multr [15:0] $end
$var wire 16 u# tmp_multi [15:0] $end
$var wire 16 v# tmp_mult0 [15:0] $end
$var wire 16 w# pr [15:0] $end
$var wire 16 x# pi [15:0] $end
$var wire 1 y# ovr_multr $end
$var wire 1 z# ovr_multi $end
$var wire 1 {# ovr_mult0 $end
$var reg 16 |# addcommon [15:0] $end
$var reg 16 }# addi [15:0] $end
$var reg 16 ~# addr [15:0] $end
$var reg 16 !$ ai_d [15:0] $end
$var reg 16 "$ ai_dd [15:0] $end
$var reg 16 #$ ai_ddd [15:0] $end
$var reg 16 $$ ai_dddd [15:0] $end
$var reg 16 %$ ar_d [15:0] $end
$var reg 16 &$ ar_dd [15:0] $end
$var reg 16 '$ ar_ddd [15:0] $end
$var reg 16 ($ ar_dddd [15:0] $end
$var reg 16 )$ bi_d [15:0] $end
$var reg 16 *$ bi_dd [15:0] $end
$var reg 16 +$ bi_ddd [15:0] $end
$var reg 16 ,$ br_d [15:0] $end
$var reg 16 -$ br_dd [15:0] $end
$var reg 16 .$ br_ddd [15:0] $end
$var reg 16 /$ common [15:0] $end
$var reg 16 0$ commonr1 [15:0] $end
$var reg 16 1$ commonr2 [15:0] $end
$var reg 16 2$ mult0 [15:0] $end
$var reg 16 3$ multi [15:0] $end
$var reg 16 4$ multr [15:0] $end
$var reg 16 5$ pi_int [15:0] $end
$var reg 16 6$ pr_int [15:0] $end
$scope module qmult_common $end
$var wire 16 7$ i_multiplicand [15:0] $end
$var wire 16 8$ i_multiplier [15:0] $end
$var wire 16 9$ o_result [15:0] $end
$var wire 16 :$ temp_multiplicand [15:0] $end
$var wire 16 ;$ temp_meltiplier [15:0] $end
$var wire 32 <$ r_result [31:0] $end
$var reg 1 =$ is_signed $end
$var reg 1 {# ovr $end
$var reg 16 >$ r_RetVal [15:0] $end
$var reg 16 ?$ temp_RetVal [15:0] $end
$upscope $end
$scope module qmult_imag $end
$var wire 16 @$ i_multiplicand [15:0] $end
$var wire 16 A$ i_multiplier [15:0] $end
$var wire 16 B$ o_result [15:0] $end
$var wire 16 C$ temp_multiplicand [15:0] $end
$var wire 16 D$ temp_meltiplier [15:0] $end
$var wire 32 E$ r_result [31:0] $end
$var reg 1 F$ is_signed $end
$var reg 1 z# ovr $end
$var reg 16 G$ r_RetVal [15:0] $end
$var reg 16 H$ temp_RetVal [15:0] $end
$upscope $end
$scope module qmult_real $end
$var wire 16 I$ i_multiplicand [15:0] $end
$var wire 16 J$ i_multiplier [15:0] $end
$var wire 16 K$ o_result [15:0] $end
$var wire 16 L$ temp_multiplicand [15:0] $end
$var wire 16 M$ temp_meltiplier [15:0] $end
$var wire 32 N$ r_result [31:0] $end
$var reg 1 O$ is_signed $end
$var reg 1 y# ovr $end
$var reg 16 P$ r_RetVal [15:0] $end
$var reg 16 Q$ temp_RetVal [15:0] $end
$upscope $end
$upscope $end
$scope module romS0 $end
$var wire 4 R$ Si [3:0] $end
$var wire 1 % clk $end
$var wire 2 S$ colS [1:0] $end
$var wire 64 T$ out_colS_i [63:0] $end
$var wire 64 U$ out_colS_r [63:0] $end
$upscope $end
$upscope $end
$scope module pow1 $end
$var wire 16 V$ i_multiplicand [15:0] $end
$var wire 16 W$ i_multiplier [15:0] $end
$var wire 16 X$ o_result [15:0] $end
$var wire 16 Y$ temp_multiplicand [15:0] $end
$var wire 16 Z$ temp_meltiplier [15:0] $end
$var wire 32 [$ r_result [31:0] $end
$var reg 1 \$ is_signed $end
$var reg 1 + ovr $end
$var reg 16 ]$ r_RetVal [15:0] $end
$var reg 16 ^$ temp_RetVal [15:0] $end
$upscope $end
$scope module pow2 $end
$var wire 16 _$ i_multiplicand [15:0] $end
$var wire 16 `$ i_multiplier [15:0] $end
$var wire 16 a$ o_result [15:0] $end
$var wire 16 b$ temp_multiplicand [15:0] $end
$var wire 16 c$ temp_meltiplier [15:0] $end
$var wire 32 d$ r_result [31:0] $end
$var reg 1 e$ is_signed $end
$var reg 1 * ovr $end
$var reg 16 f$ r_RetVal [15:0] $end
$var reg 16 g$ temp_RetVal [15:0] $end
$upscope $end
$upscope $end
$scope task wait4clk $end
$var integer 32 h$ n [31:0] $end
$upscope $end
$upscope $end
$enddefinitions $end
#0
$dumpvars
bx h$
bx g$
bx f$
xe$
bx d$
bx c$
bx b$
bx a$
bx `$
bx _$
bx ^$
bx ]$
x\$
bx [$
bx Z$
bx Y$
bx X$
bx W$
bx V$
bx U$
bx T$
bx S$
bx R$
bx Q$
bx P$
xO$
bx N$
bx M$
bx L$
bx K$
bx J$
bx I$
bx H$
bx G$
xF$
bx E$
bx D$
bx C$
bx B$
bx A$
bx @$
bx ?$
bx >$
x=$
bx <$
bx ;$
bx :$
bx 9$
bx 8$
bx 7$
bx 6$
bx 5$
bx 4$
bx 3$
bx 2$
bx 1$
bx 0$
bx /$
bx .$
bx -$
bx ,$
bx +$
bx *$
bx )$
bx ($
bx '$
bx &$
bx %$
bx $$
bx #$
bx "$
bx !$
bx ~#
bx }#
bx |#
x{#
xz#
xy#
bx x#
bx w#
bx v#
bx u#
bx t#
bx s#
bx r#
bx q#
bx p#
bx o#
bx n#
xm#
bx l#
bx k#
bx j#
bx i#
bx h#
bx g#
bx f#
bx e#
xd#
bx c#
bx b#
bx a#
bx `#
bx _#
bx ^#
bx ]#
bx \#
x[#
bx Z#
bx Y#
bx X#
bx W#
bx V#
bx U#
bx T#
bx S#
bx R#
bx Q#
bx P#
bx O#
bx N#
bx M#
bx L#
bx K#
bx J#
bx I#
bx H#
bx G#
bx F#
bx E#
bx D#
bx C#
bx B#
bx A#
bx @#
bx ?#
bx >#
bx =#
bx <#
x;#
x:#
x9#
bx 8#
bx 7#
bx 6#
bx 5#
bx 4#
bx 3#
bx 2#
bx 1#
bx 0#
bx /#
bx .#
x-#
bx ,#
bx +#
bx *#
bx )#
bx (#
bx '#
bx &#
bx %#
x$#
bx ##
bx "#
bx !#
bx ~"
bx }"
bx |"
bx {"
bx z"
xy"
bx x"
bx w"
bx v"
bx u"
bx t"
bx s"
bx r"
bx q"
bx p"
bx o"
bx n"
bx m"
bx l"
bx k"
bx j"
bx i"
bx h"
bx g"
bx f"
bx e"
bx d"
bx c"
bx b"
bx a"
bx `"
bx _"
bx ^"
bx ]"
bx \"
bx ["
bx Z"
xY"
xX"
xW"
bx V"
bx U"
bx T"
bx S"
bx R"
bx Q"
bx P"
bx O"
bx N"
bx M"
bx L"
xK"
bx J"
bx I"
bx H"
bx G"
bx F"
bx E"
bx D"
bx C"
xB"
bx A"
bx @"
bx ?"
bx >"
bx ="
bx <"
bx ;"
bx :"
x9"
bx 8"
bx 7"
bx 6"
bx 5"
bx 4"
bx 3"
bx 2"
bx 1"
bx 0"
bx /"
bx ."
bx -"
bx ,"
bx +"
bx *"
bx )"
bx ("
bx '"
bx &"
bx %"
bx $"
bx #"
bx ""
bx !"
bx ~
bx }
bx |
bx {
bx z
bx y
bx x
xw
xv
xu
bx t
bx s
bx r
bx q
bx p
bx o
bx n
bx m
bx l
bx k
bx j
bx i
bx h
bx g
bx f
bx e
bx d
bx c
bx b
bx a
bx `
bx _
bx ^
bx ]
bx \
bx [
bx Z
xY
bx X
bx W
bx V
bx U
bx T
bx S
bx R
bx Q
bx P
bx O
bx N
bx M
bx L
bx K
bx J
bx I
bx H
bx G
bx F
bx E
bx D
bx C
bx B
bx A
bx @
bx ?
bx >
bx =
bx <
bx ;
x:
bx 9
bx 8
bx 7
x6
bx 5
bx 4
bx 3
bx 2
x1
bx 0
bx /
bx .
bx -
bx ,
x+
x*
x)
bx (
bx '
0&
0%
bx $
bx #
bx "
x!
$end
#50000
06
0*
b0 '
b0 a$
b0 f$
b0 g$
0e$
0+
b0 (
b0 X$
b0 ]$
b0 ^$
0\$
0)
b10000000 o
b1111111110000000 Q"
b10000000 3#
b1111111110000000 s#
b0 n
b0 P"
b0 2#
b0 r#
b11000001 l
b1111111111110100 N"
b111100 0#
b1111111011011000 p#
b1111111111011101 m
b110000011 O"
b1001101 1#
b100001000 q#
b0 d$
b0 b$
b0 c$
b0 [$
b0 Y$
b0 Z$
0Y
b10000000111111111000000000000000100000001111111110000000 @
b10000000111111111000000000000000100000001111111110000000 C
b10000000111111111000000000000000100000001111111110000000 U$
b0 ?
b0 D
b0 T$
b0 S
b0 V
b0 R$
b11000001111111111111010000000000001111001111111011011000 A
b1111111111011101000000011000001100000000010011010000000100001000 B
b0 Q
b0 X
b0 R
b0 W
b0 S$
b0 %"
b0 ("
b0 {
b0 !"
b0 e"
b0 h"
b0 ]"
b0 a"
b0 G#
b0 J#
b0 ?#
b0 C#
b0 )$
b0 ,$
b0 !$
b0 %$
0:
b0 9
0!
b0 ;
b0 2
b0 _$
b0 `$
b0 3
b0 V$
b0 W$
b0 ,
b0 7
b0 >
b0 5
b0 =
b0 4
b0 <
01
b0 0
b10 h$
1&
1%
#100000
0%
#150000
b0 :$
b0 X#
b0 v"
b0 6"
b0 |#
b0 7$
b0 <#
b0 U#
b0 Z"
b0 s"
b0 x
b0 3"
1%
#200000
0%
#250000
b1 h$
0&
1%
#300000
0%
#350000
x*
bx '
bx a$
bx f$
b0xxxxxxxxxxxxxxx g$
xe$
x+
bx (
bx X$
bx ]$
b0xxxxxxxxxxxxxxx ^$
x\$
0{#
b0 v#
b0 9$
b0 >$
b0 ?$
0=$
0;#
b0 6#
b0 W#
b0 \#
b0 ]#
0[#
0Y"
b0 T"
b0 u"
b0 z"
b0 {"
0y"
0w
b0 r
b0 5"
b0 :"
b0 ;"
09"
bx b$
bx d$
bx c$
bx Y$
bx [$
bx Z$
b0 <$
b0 ;$
b0 Z#
b0 Y#
b0 x"
b0 w"
b0 8"
b0 7"
b10000000 Q"
b10000000 s#
b1 0
bx 2
bx _$
bx `$
bx 3
bx V$
bx W$
b0 *$
b0 8$
b0 -$
b1111111110000000 ,$
b0 "$
b1111111011011000 !$
b0 &$
b100001000 %$
b0 H#
b0 V#
b0 K#
b10000000 J#
b0 @#
b111100 ?#
b0 D#
b1001101 C#
b0 f"
b0 t"
b0 i"
b1111111110000000 h"
b0 ^"
b1111111111110100 ]"
b0 b"
b110000011 a"
b0 &"
b0 4"
b0 )"
b10000000 ("
b0 |
b11000001 {
b0 ""
b1111111111011101 !"
b10000000000000001000000000000000100000000000000010000000 @
b10000000000000001000000000000000100000000000000010000000 C
b10000000000000001000000000000000100000000000000010000000 U$
b1 R
b1 W
b1 S$
b11001000 h$
1%
#400000
0%
#450000
b1111111101001010 l
b111111 N"
b1111111110110100 0#
b1001010 p#
b1111111110111010 m
b10110111 O"
b10000011 1#
b100010001 q#
b1111111110000000 Q"
b1111111110000000 s#
b11100100 6"
b110001111 v"
b10001 X#
b1000110000 :$
b1111111101001010000000000011111111111111101101000000000001001010 A
b1111111110111010000000001011011100000000100000110000000100010001 B
b1 Q
b1 X
b10000000111111111000000000000000100000001111111110000000 @
b10000000111111111000000000000000100000001111111110000000 C
b10000000111111111000000000000000100000001111111110000000 U$
b0 R
b0 W
b0 S$
b0 '"
b0 *"
b10000000 )"
b11000001 |
b1111111111011101 ""
b0 ."
b1111111100011100 x
b1111111100011100 3"
b0 #"
b0 }
b0 g"
b0 j"
b1111111110000000 i"
b10000000 h"
b1111111111110100 ^"
b110000011 b"
b0 n"
b110001111 Z"
b110001111 s"
b0 c"
b0 _"
b0 I#
b0 L#
b10000000 K#
b111100 @#
b1001101 D#
b0 P#
b10001 <#
b10001 U#
b0 E#
b0 A#
b0 +$
b0 .$
b1111111110000000 -$
b10000000 ,$
b1111111011011000 "$
b100001000 &$
b0 2$
b1000110000 |#
b1000110000 7$
b0 '$
b0 #$
bx 5
bx =
bx ,
bx 7
bx >
bx 4
bx <
b10 0
1%
#500000
0%
#550000
0z#
b0 u#
b0 B$
b0 G$
b0 H$
0F$
0y#
b0 t#
b0 K$
b0 P$
b0 Q$
0O$
0:#
b0 5#
b0 `#
b0 e#
b0 f#
0d#
09#
b0 4#
b0 i#
b0 n#
b0 o#
0m#
0X"
b0 S"
b0 ~"
b0 %#
b0 &#
0$#
0W"
b0 R"
b0 )#
b0 .#
b0 /#
0-#
0v
b0 q
b0 >"
b0 C"
b0 D"
0B"
0u
b0 p
b0 G"
b0 L"
b0 M"
0K"
b0 E$
b0 C$
b0 D$
b0 N$
b0 L$
b0 M$
b0 c#
b0 a#
b0 b#
b0 l#
b0 j#
b0 k#
b0 ##
b0 !#
b0 "#
b0 ,#
b0 *#
b0 +#
b0 A"
b0 ?"
b0 @"
b0 J"
b0 H"
b0 I"
b10000000 Q"
b10000000 s#
b11 0
b0 }#
b0 @$
b0 $$
b0 A$
b1111111011011000 #$
b0 ~#
b0 I$
b0 ($
b0 J$
b100001000 '$
b0 /$
b1111111110000000 .$
b10000000 -$
b1111111110000000 ,$
b1001010 !$
b100010001 %$
b0 =#
b0 ^#
b0 B#
b0 _#
b111100 A#
b0 >#
b0 g#
b0 F#
b0 h#
b1001101 E#
b0 M#
b10000000 L#
b1111111110110100 ?#
b10000011 C#
b0 ["
b0 |"
b0 `"
b0 }"
b1111111111110100 _"
b0 \"
b0 '#
b0 d"
b0 (#
b110000011 c"
b0 k"
b1111111110000000 j"
b10000000 i"
b1111111110000000 h"
b111111 ]"
b10110111 a"
b0 y
b0 <"
b0 ~
b0 ="
b11000001 }
b0 z
b0 E"
b0 $"
b0 F"
b1111111111011101 #"
b0 +"
b10000000 *"
b1111111101001010 {
b1111111110111010 !"
b10000000000000001000000000000000100000000000000010000000 @
b10000000000000001000000000000000100000000000000010000000 C
b10000000000000001000000000000000100000000000000010000000 U$
b1 R
b1 W
b1 S$
1%
#600000
0%
#650000
b1111111111101111 p
b1111111111101111 G"
b1111111111101111 L"
b10001 M"
1K"
b1100000 q
b1100000 >"
b1100000 C"
b1100000 D"
0W"
b1111111100111111 R"
b1111111100111111 )#
b1111111100111111 .#
b11000001 /#
1-#
b110 S"
b110 ~"
b110 %#
b110 &#
b100110 4#
b100110 i#
b100110 n#
b100110 o#
b11110 5#
b11110 `#
b11110 e#
b11110 f#
0y#
b1111111101111100 t#
b1111111101111100 K$
b1111111101111100 P$
b10000100 Q$
1O$
0z#
b10010100 u#
b10010100 B$
b10010100 G$
b10010100 H$
b1111111100101010 l
b1111111010100011 N"
b10010111 0#
b1001011 p#
b1111111110011100 m
b101 O"
b11000001 1#
b1111111100111001 q#
b1111111110000000 Q"
b1111111110000000 s#
b1110000 6"
b1000110000000 J"
b10000000 H"
b100011 I"
b110000010000000 A"
b10000000 ?"
b11000001 @"
b1111000 v"
b1100000110000000 ,#
b10000000 *#
b110000011 +#
b11000000000 ##
b10000000 !#
b1100 "#
b11001111 X#
b10011010000000 l#
b10000000 j#
b1001101 k#
b1111000000000 c#
b10000000 a#
b111100 b#
b11000111 :$
b1000010000000000 N$
b10000000 L$
b100001000 M$
b1001010000000000 E$
b10000000 C$
b100101000 D$
b1111111100101010111111101010001100000000100101110000000001001011 A
b1111111110011100000000000000010100000000110000011111111100111001 B
b10 Q
b10 X
b10000000111111111000000000000000100000001111111110000000 @
b10000000111111111000000000000000100000001111111110000000 C
b10000000111111111000000000000000100000001111111110000000 U$
b0 R
b0 W
b0 S$
b1111111101001010 |
b1111111110111010 ""
b1110000 x
b1110000 3"
b0 ,"
b0 0"
b10000000 z
b10000000 E"
b1111111111011101 $"
b1111111111011101 F"
b0 -"
b0 /"
b10000000 y
b10000000 <"
b11000001 ~
b11000001 ="
b10000000 j"
b1111111110000000 i"
b10000000 h"
b111111 ^"
b10110111 b"
b1111000 Z"
b1111000 s"
b0 l"
b0 p"
b1111111110000000 \"
b1111111110000000 '#
b110000011 d"
b110000011 (#
b0 m"
b0 o"
b1111111110000000 ["
b1111111110000000 |"
b1111111111110100 `"
b1111111111110100 }"
b1111111110110100 @#
b10000011 D#
b11001111 <#
b11001111 U#
b0 N#
b0 R#
b10000000 >#
b10000000 g#
b1001101 F#
b1001101 h#
b0 O#
b0 Q#
b10000000 =#
b10000000 ^#
b111100 B#
b111100 _#
b10000000 .$
b1111111110000000 -$
b10000000 ,$
b1001010 "$
b100010001 &$
b11000111 |#
b11000111 7$
b0 0$
b0 4$
b1111111110000000 ~#
b1111111110000000 I$
b100001000 ($
b100001000 J$
b0 1$
b0 3$
b1111111110000000 }#
b1111111110000000 @$
b1111111011011000 $$
b1111111011011000 A$
b100 0
1%
#700000
0%
