SOML_DECODER/tbHqA1.vcd
$date
	Mon Nov 18 01:14:18 2024
$end
$version
	Icarus Verilog
$end
$timescale
	1ps
$end
$scope module tb_HqA1_cal $end
$var wire 1 ! ready $end
$var wire 64 " outcol1_r [63:0] $end
$var wire 64 # outcol1_i [63:0] $end
$var wire 64 $ outcol0_r [63:0] $end
$var wire 64 % outcol0_i [63:0] $end
$var reg 1 & clk $end
$var reg 1 ' rst $end
$scope module dut $end
$var wire 1 & clk $end
$var wire 32 ( out_colA1_i [31:0] $end
$var wire 32 ) out_colA1_r [31:0] $end
$var wire 32 * rowH_i [31:0] $end
$var wire 32 + rowH_r [31:0] $end
$var wire 1 ' rst $end
$var wire 1 , start_cal $end
$var wire 1 ! ready $end
$var wire 64 - outcol1_r [63:0] $end
$var wire 64 . outcol1_i [63:0] $end
$var wire 64 / outcol0_r [63:0] $end
$var wire 64 0 outcol0_i [63:0] $end
$var wire 16 1 out_reg_c3_r [15:0] $end
$var wire 16 2 out_reg_c3_i [15:0] $end
$var wire 16 3 out_reg_c2_r [15:0] $end
$var wire 16 4 out_reg_c2_i [15:0] $end
$var wire 16 5 out_r [15:0] $end
$var wire 16 6 out_i [15:0] $end
$var wire 2 7 addr_rowH [1:0] $end
$var wire 2 8 addr_colA1 [1:0] $end
$var reg 3 9 counter [2:0] $end
$var reg 1 : done $end
$scope module AddrGen0 $end
$var wire 1 & clk $end
$var wire 1 ' rst $end
$var reg 4 ; addr_Si [3:0] $end
$var reg 2 < addr_colS [1:0] $end
$var reg 2 = addr_rowH [1:0] $end
$var reg 1 > done_Si $end
$upscope $end
$scope module add1 $end
$var wire 16 ? c [15:0] $end
$var wire 16 @ b [15:0] $end
$var wire 16 A a [15:0] $end
$upscope $end
$scope module add4 $end
$var wire 16 B c [15:0] $end
$var wire 16 C b [15:0] $end
$var wire 16 D a [15:0] $end
$upscope $end
$scope module c2 $end
$var wire 16 E ai [15:0] $end
$var wire 16 F ar [15:0] $end
$var wire 16 G bi [15:0] $end
$var wire 16 H br [15:0] $end
$var wire 1 & clk $end
$var wire 1 ' rst $end
$var wire 16 I tmp_multr [15:0] $end
$var wire 16 J tmp_multi [15:0] $end
$var wire 16 K tmp_mult0 [15:0] $end
$var wire 16 L pr [15:0] $end
$var wire 16 M pi [15:0] $end
$var wire 1 N ovr_multr $end
$var wire 1 O ovr_multi $end
$var wire 1 P ovr_mult0 $end
$var reg 16 Q addcommon [15:0] $end
$var reg 16 R addi [15:0] $end
$var reg 16 S addr [15:0] $end
$var reg 16 T ai_d [15:0] $end
$var reg 16 U ai_dd [15:0] $end
$var reg 16 V ai_ddd [15:0] $end
$var reg 16 W ai_dddd [15:0] $end
$var reg 16 X ar_d [15:0] $end
$var reg 16 Y ar_dd [15:0] $end
$var reg 16 Z ar_ddd [15:0] $end
$var reg 16 [ ar_dddd [15:0] $end
$var reg 16 \ bi_d [15:0] $end
$var reg 16 ] bi_dd [15:0] $end
$var reg 16 ^ bi_ddd [15:0] $end
$var reg 16 _ br_d [15:0] $end
$var reg 16 ` br_dd [15:0] $end
$var reg 16 a br_ddd [15:0] $end
$var reg 16 b common [15:0] $end
$var reg 16 c commonr1 [15:0] $end
$var reg 16 d commonr2 [15:0] $end
$var reg 16 e mult0 [15:0] $end
$var reg 16 f multi [15:0] $end
$var reg 16 g multr [15:0] $end
$var reg 16 h pi_int [15:0] $end
$var reg 16 i pr_int [15:0] $end
$scope module qmult_common $end
$var wire 16 j i_multiplicand [15:0] $end
$var wire 16 k i_multiplier [15:0] $end
$var wire 16 l o_result [15:0] $end
$var wire 16 m temp_multiplicand [15:0] $end
$var wire 16 n temp_meltiplier [15:0] $end
$var wire 32 o r_result [31:0] $end
$var reg 1 p is_signed $end
$var reg 1 P ovr $end
$var reg 16 q r_RetVal [15:0] $end
$var reg 16 r temp_RetVal [15:0] $end
$upscope $end
$scope module qmult_imag $end
$var wire 16 s i_multiplicand [15:0] $end
$var wire 16 t i_multiplier [15:0] $end
$var wire 16 u o_result [15:0] $end
$var wire 16 v temp_multiplicand [15:0] $end
$var wire 16 w temp_meltiplier [15:0] $end
$var wire 32 x r_result [31:0] $end
$var reg 1 y is_signed $end
$var reg 1 O ovr $end
$var reg 16 z r_RetVal [15:0] $end
$var reg 16 { temp_RetVal [15:0] $end
$upscope $end
$scope module qmult_real $end
$var wire 16 | i_multiplicand [15:0] $end
$var wire 16 } i_multiplier [15:0] $end
$var wire 16 ~ o_result [15:0] $end
$var wire 16 !" temp_multiplicand [15:0] $end
$var wire 16 "" temp_meltiplier [15:0] $end
$var wire 32 #" r_result [31:0] $end
$var reg 1 $" is_signed $end
$var reg 1 N ovr $end
$var reg 16 %" r_RetVal [15:0] $end
$var reg 16 &" temp_RetVal [15:0] $end
$upscope $end
$upscope $end
$scope module c3 $end
$var wire 16 '" ai [15:0] $end
$var wire 16 (" ar [15:0] $end
$var wire 16 )" bi [15:0] $end
$var wire 16 *" br [15:0] $end
$var wire 1 & clk $end
$var wire 1 ' rst $end
$var wire 16 +" tmp_multr [15:0] $end
$var wire 16 ," tmp_multi [15:0] $end
$var wire 16 -" tmp_mult0 [15:0] $end
$var wire 16 ." pr [15:0] $end
$var wire 16 /" pi [15:0] $end
$var wire 1 0" ovr_multr $end
$var wire 1 1" ovr_multi $end
$var wire 1 2" ovr_mult0 $end
$var reg 16 3" addcommon [15:0] $end
$var reg 16 4" addi [15:0] $end
$var reg 16 5" addr [15:0] $end
$var reg 16 6" ai_d [15:0] $end
$var reg 16 7" ai_dd [15:0] $end
$var reg 16 8" ai_ddd [15:0] $end
$var reg 16 9" ai_dddd [15:0] $end
$var reg 16 :" ar_d [15:0] $end
$var reg 16 ;" ar_dd [15:0] $end
$var reg 16 <" ar_ddd [15:0] $end
$var reg 16 =" ar_dddd [15:0] $end
$var reg 16 >" bi_d [15:0] $end
$var reg 16 ?" bi_dd [15:0] $end
$var reg 16 @" bi_ddd [15:0] $end
$var reg 16 A" br_d [15:0] $end
$var reg 16 B" br_dd [15:0] $end
$var reg 16 C" br_ddd [15:0] $end
$var reg 16 D" common [15:0] $end
$var reg 16 E" commonr1 [15:0] $end
$var reg 16 F" commonr2 [15:0] $end
$var reg 16 G" mult0 [15:0] $end
$var reg 16 H" multi [15:0] $end
$var reg 16 I" multr [15:0] $end
$var reg 16 J" pi_int [15:0] $end
$var reg 16 K" pr_int [15:0] $end
$scope module qmult_common $end
$var wire 16 L" i_multiplicand [15:0] $end
$var wire 16 M" i_multiplier [15:0] $end
$var wire 16 N" o_result [15:0] $end
$var wire 16 O" temp_multiplicand [15:0] $end
$var wire 16 P" temp_meltiplier [15:0] $end
$var wire 32 Q" r_result [31:0] $end
$var reg 1 R" is_signed $end
$var reg 1 2" ovr $end
$var reg 16 S" r_RetVal [15:0] $end
$var reg 16 T" temp_RetVal [15:0] $end
$upscope $end
$scope module qmult_imag $end
$var wire 16 U" i_multiplicand [15:0] $end
$var wire 16 V" i_multiplier [15:0] $end
$var wire 16 W" o_result [15:0] $end
$var wire 16 X" temp_multiplicand [15:0] $end
$var wire 16 Y" temp_meltiplier [15:0] $end
$var wire 32 Z" r_result [31:0] $end
$var reg 1 [" is_signed $end
$var reg 1 1" ovr $end
$var reg 16 \" r_RetVal [15:0] $end
$var reg 16 ]" temp_RetVal [15:0] $end
$upscope $end
$scope module qmult_real $end
$var wire 16 ^" i_multiplicand [15:0] $end
$var wire 16 _" i_multiplier [15:0] $end
$var wire 16 `" o_result [15:0] $end
$var wire 16 a" temp_multiplicand [15:0] $end
$var wire 16 b" temp_meltiplier [15:0] $end
$var wire 32 c" r_result [31:0] $end
$var reg 1 d" is_signed $end
$var reg 1 0" ovr $end
$var reg 16 e" r_RetVal [15:0] $end
$var reg 16 f" temp_RetVal [15:0] $end
$upscope $end
$upscope $end
$scope module gencol0 $end
$var wire 1 & clk $end
$var wire 1 ' rst $end
$var wire 16 g" sdi [15:0] $end
$var wire 16 h" sdr [15:0] $end
$var wire 1 , start $end
$var wire 64 i" col1_r [63:0] $end
$var wire 64 j" col1_i [63:0] $end
$var wire 64 k" col0_r [63:0] $end
$var wire 64 l" col0_i [63:0] $end
$var reg 3 m" counter [2:0] $end
$var reg 1 ! finish $end
$var reg 1 n" rx_en $end
$var reg 64 o" shift_reg_col0_i [63:0] $end
$var reg 64 p" shift_reg_col0_r [63:0] $end
$var reg 64 q" shift_reg_col1_i [63:0] $end
$var reg 64 r" shift_reg_col1_r [63:0] $end
$upscope $end
$upscope $end
$scope task wait4clk $end
$var integer 32 s" n [31:0] $end
$upscope $end
$upscope $end
$enddefinitions $end
#0
$dumpvars
bx s"
bx r"
bx q"
bx p"
bx o"
xn"
bx m"
bx l"
bx k"
bx j"
bx i"
bx h"
bx g"
bx f"
bx e"
xd"
bx c"
bx b"
bx a"
bx `"
bx _"
bx ^"
bx ]"
bx \"
x["
bx Z"
bx Y"
bx X"
bx W"
bx V"
bx U"
bx T"
bx S"
xR"
bx Q"
bx P"
bx O"
bx N"
bx M"
bx L"
bx K"
bx J"
bx I"
bx H"
bx G"
bx F"
bx E"
bx D"
bx C"
bx B"
bx A"
bx @"
bx ?"
bx >"
bx ="
bx <"
bx ;"
bx :"
bx 9"
bx 8"
bx 7"
bx 6"
bx 5"
bx 4"
bx 3"
x2"
x1"
x0"
bx /"
bx ."
bx -"
bx ,"
bx +"
bx *"
bx )"
bx ("
bx '"
bx &"
bx %"
x$"
bx #"
bx ""
bx !"
bx ~
bx }
bx |
bx {
bx z
xy
bx x
bx w
bx v
bx u
bx t
bx s
bx r
bx q
xp
bx o
bx n
bx m
bx l
bx k
bx j
bx i
bx h
bx g
bx f
bx e
bx d
bx c
bx b
bx a
bx `
bx _
bx ^
bx ]
bx \
bx [
bx Z
bx Y
bx X
bx W
bx V
bx U
bx T
bx S
bx R
bx Q
xP
xO
xN
bx M
bx L
bx K
bx J
bx I
bx H
bx G
bx F
bx E
bx D
bx C
bx B
bx A
bx @
bx ?
x>
bx =
bx <
bx ;
x:
bx 9
bx 8
bx 7
bx 6
bx 5
bx 4
bx 3
bx 2
bx 1
bx 0
bx /
bx .
bx -
x,
bx +
bx *
bx )
bx (
0'
0&
bx %
bx $
bx #
bx "
x!
$end
#50000
0,
b11000001 E
b1111111111110100 '"
b1111111111011101 F
b110000011 ("
b0 G
b0 )"
b100000000 H
b0 *"
0>
b0 ;
b110000011111111111110100 *
b11111111110111010000000110000011 +
b0 7
b0 =
b0 (
b1000000000000000000000000 )
b0 8
b0 <
b0 \
b0 _
b0 T
b0 X
b0 >"
b0 A"
b0 6"
b0 :"
0n"
b0 m"
0!
b0 q"
b0 o"
b0 r"
b0 p"
0:
b0 9
b10 s"
1'
1&
#100000
0&
#150000
b0 O"
b0 m
b0 3"
b0 L"
b0 Q
b0 j
1&
#200000
0&
#250000
b1 s"
0'
1&
#300000
0&
#350000
02"
b0 -"
b0 N"
b0 S"
b0 T"
0R"
0P
b0 K
b0 l
b0 q
b0 r
0p
b0 Q"
b0 P"
b0 o
b0 n
b0 H
b100000000 *"
b1 9
b0 ?"
b0 M"
b0 B"
b0 7"
b1111111111110100 6"
b0 ;"
b110000011 :"
b0 ]
b0 k
b0 `
b100000000 _
b0 U
b11000001 T
b0 Y
b1111111111011101 X
b100000000 )
b1 8
b1 <
b11001000 s"
1&
#400000
0&
#450000
b1111111101001010 E
b111111 '"
b1111111110111010 F
b10110111 ("
b100000000 H
b0 *"
b11100100 m
b110001111 O"
b11111111010010100000000000111111 *
b11111111101110100000000010110111 +
b1 7
b1 =
b1000000000000000000000000 )
b0 8
b0 <
b0 ^
b0 a
b100000000 `
b0 _
b11000001 U
b1111111111011101 Y
b0 e
b1111111100011100 Q
b1111111100011100 j
b0 Z
b0 V
b0 @"
b0 C"
b100000000 A"
b1111111111110100 7"
b110000011 ;"
b0 G"
b110001111 3"
b110001111 L"
b0 <"
b0 8"
b10 9
1&
#500000
0&
#550000
01"
b0 ,"
b0 W"
b0 \"
b0 ]"
0["
00"
b0 +"
b0 `"
b0 e"
b0 f"
0d"
0O
b0 J
b0 u
b0 z
b0 {
0y
0N
b0 I
b0 ~
b0 %"
b0 &"
0$"
b0 Z"
b0 X"
b0 Y"
b0 c"
b0 a"
b0 b"
b0 x
b0 v
b0 w
b0 #"
b0 !"
b0 ""
b0 H
b100000000 *"
b11 9
b0 4"
b0 U"
b0 9"
b0 V"
b1111111111110100 8"
b0 5"
b0 ^"
b0 ="
b0 _"
b110000011 <"
b0 D"
b100000000 B"
b0 A"
b111111 6"
b10110111 :"
b0 R
b0 s
b0 W
b0 t
b11000001 V
b0 S
b0 |
b0 [
b0 }
b1111111111011101 Z
b0 b
b100000000 a
b0 `
b100000000 _
b1111111101001010 T
b1111111110111010 X
b100000000 )
b1 8
b1 <
1&
#600000
0&
#650000
b1111111111011101 I
b1111111111011101 ~
b1111111111011101 %"
b100011 &"
1$"
b11000001 J
b11000001 u
b11000001 z
b11000001 {
b1111111100101010 E
b1111111010100011 '"
b1111111110011100 F
b101 ("
b100000000 H
b0 *"
b1110000 m
b10001100000000 #"
b100000000 !"
b100011 ""
b1100000100000000 x
b100000000 v
b11000001 w
b1111000 O"
b110000011 b"
b1100 Y"
b11111111001010101111111010100011 *
b11111111100111000000000000000101 +
b10 7
b10 =
b1000000000000000000000000 )
b0 8
b0 <
b0 a
b100000000 `
b0 _
b1111111101001010 U
b1111111110111010 Y
b1110000 Q
b1110000 j
b0 c
b0 g
b100000000 S
b100000000 |
b1111111111011101 [
b1111111111011101 }
b0 d
b0 f
b100000000 R
b100000000 s
b11000001 W
b11000001 t
b100000000 C"
b0 B"
b100000000 A"
b111111 7"
b10110111 ;"
b1111000 3"
b1111000 L"
b0 E"
b0 I"
b110000011 ="
b110000011 _"
b0 F"
b0 H"
b1111111111110100 9"
b1111111111110100 V"
b100 9
1&
#700000
0&
#750000
1,
b1111111111110100 ,"
b1111111111110100 W"
b1111111111110100 \"
b1100 ]"
1["
b110000011 +"
b110000011 `"
b110000011 e"
b110000011 f"
b0 J
b0 u
b0 z
b0 {
b0 I
b0 ~
b0 %"
b0 &"
b110000000000 Z"
b100000000 X"
b11000001100000000 c"
b100000000 a"
b0 x
b0 v
b0 #"
b0 !"
b0 H
b100000000 *"
b101 9
b0 6
b0 B
b0 g"
b0 2
b0 C
b0 /"
b0 J"
b100000000 4"
b100000000 U"
b111111 8"
b0 5
b0 ?
b0 h"
b0 1
b0 @
b0 ."
b0 K"
b100000000 5"
b100000000 ^"
b10110111 <"
b0 C"
b100000000 B"
b0 A"
b1111111010100011 6"
b101 :"
b0 4
b0 D
b0 M
b0 h
b11000001 f
b0 R
b0 s
b1111111101001010 V
b0 3
b0 A
b0 L
b0 i
b1111111111011101 g
b0 S
b0 |
b1111111110111010 Z
b100000000 a
b0 `
b100000000 _
b1111111100101010 T
b1111111110011100 X
b100000000 )
b1 8
b1 <
1&
#800000
0&
#850000
b1111111110111010 I
b1111111110111010 ~
b1111111110111010 %"
b1000110 &"
b1111111101001010 J
b1111111101001010 u
b1111111101001010 z
b10110110 {
1y
b0 +"
b0 `"
b0 e"
b0 f"
b0 ,"
b0 W"
b0 \"
b0 ]"
0["
0,
b1100 E
b1111111111101010 '"
b11011011 F
b1111111110101101 ("
b100000000 H
b0 *"
b1110010 m
b100011000000000 #"
b100000000 !"
b1000110 ""
b1011011000000000 x
b100000000 v
b10110110 w
b101100010 O"
b0 a"
b0 c"
b10110111 b"
b0 X"
b0 Z"
b111111 Y"
b11001111111111101010 *
b110110111111111110101101 +
b11 7
b11 =
b1000000000000000000000000 )
b0 8
b0 <
b0 a
b100000000 `
b0 _
b1111111100101010 U
b1111111110011100 Y
b1110010 Q
b1110010 j
b1111111111011101 5
b1111111111011101 ?
b1111111111011101 h"
b1111111111011101 3
b1111111111011101 A
b1111111111011101 L
b1111111111011101 i
b0 g
b100000000 S
b100000000 |
b1111111110111010 [
b1111111110111010 }
b11000001 6
b11000001 B
b11000001 g"
b11000001 4
b11000001 D
b11000001 M
b11000001 h
b0 f
b100000000 R
b100000000 s
b1111111101001010 W
b1111111101001010 t
b100000000 C"
b0 B"
b100000000 A"
b1111111010100011 7"
b101 ;"
b101100010 3"
b101100010 L"
b110000011 I"
b0 5"
b0 ^"
b10110111 ="
b10110111 _"
b1111111111110100 H"
b0 4"
b0 U"
b111111 9"
b111111 V"
1n"
1:
b0 9
1&
#900000
0&
#950000
b111111 ,"
b111111 W"
b111111 \"
b111111 ]"
b10110111 +"
b10110111 `"
b10110111 e"
b10110111 f"
b0 J
b0 u
b0 z
b0 {
b0 I
b0 ~
b0 %"
b0 &"
b11111100000000 Z"
b100000000 X"
b1011011100000000 c"
b100000000 a"
b0 x
b0 v
b0 #"
b0 !"
b0 H
b100000000 *"
b11000001 o"
b1111111111011101 p"
b1 m"
b1111111111110100 2
b1111111111110100 C
b1111111111110100 /"
b1111111111110100 J"
b0 H"
b100000000 4"
b100000000 U"
b1111111010100011 8"
b110000011 1
b110000011 @
b110000011 ."
b110000011 K"
b0 I"
b100000000 5"
b100000000 ^"
b101 <"
b0 C"
b100000000 B"
b0 A"
b1111111111101010 6"
b1111111110101101 :"
b1111111111110100 6
b1111111111110100 B
b1111111111110100 g"
b0 4
b0 D
b0 M
b0 h
b1111111101001010 f
b0 R
b0 s
b1111111100101010 V
b110000011 5
b110000011 ?
b110000011 h"
b0 3
b0 A
b0 L
b0 i
b1111111110111010 g
b0 S
b0 |
b1111111110011100 Z
b100000000 a
b0 `
b100000000 _
b1100 T
b11011011 X
b100000000 )
b1 8
b1 <
1&
#1000000
0&
#1050000
b1111111110011100 I
b1111111110011100 ~
b1111111110011100 %"
b1100100 &"
b1111111100101010 J
b1111111100101010 u
b1111111100101010 z
b11010110 {
b0 +"
b0 `"
b0 e"
b0 f"
b0 ,"
b0 W"
b0 \"
b0 ]"
1["
b11000001 E
b1111111111110100 '"
b1111111111011101 F
b110000011 ("
b100000000 H
b0 *"
b11001111 m
b110010000000000 #"
b100000000 !"
b1100100 ""
b1101011000000000 x
b100000000 v
b11010110 w
b111101 O"
b0 a"
b0 c"
b101 b"
b0 X"
b0 Z"
b101011101 Y"
b1 ;
b110000011111111111110100 *
b11111111110111010000000110000011 +
b0 7
b0 =
b1000000000000000000000000 )
b0 8
b0 <
b0 a
b100000000 `
b0 _
b1100 U
b11011011 Y
b11001111 Q
b11001111 j
b1111111110111010 3
b1111111110111010 A
b1111111110111010 L
b1111111110111010 i
b0 g
b100000000 S
b100000000 |
b1111111110011100 [
b1111111110011100 }
b1111111101001010 4
b1111111101001010 D
b1111111101001010 M
b1111111101001010 h
b0 f
b100000000 R
b100000000 s
b1111111100101010 W
b1111111100101010 t
b100000000 C"
b0 B"
b100000000 A"
b1111111111101010 7"
b1111111110101101 ;"
b1111111111000011 3"
b1111111111000011 L"
b1111111110111010 5
b1111111110111010 ?
b1111111110111010 h"
b0 1
b0 @
b0 ."
b0 K"
b10110111 I"
b0 5"
b0 ^"
b101 ="
b101 _"
b1111111101001010 6
b1111111101001010 B
b1111111101001010 g"
b0 2
b0 C
b0 /"
b0 J"
b111111 H"
b0 4"
b0 U"
b1111111010100011 9"
b1111111010100011 V"
b10 m"
b1111111111110100 q"
b110000011 r"
1&
#1100000
0&
#1150000
b1111111010100011 ,"
b1111111010100011 W"
b1111111010100011 \"
b101011101 ]"
b101 +"
b101 `"
b101 e"
b101 f"
b0 J
b0 u
b0 z
b0 {
b0 I
b0 ~
b0 %"
b0 &"
b10101110100000000 Z"
b100000000 X"
b10100000000 c"
b100000000 a"
b0 x
b0 v
b0 #"
b0 !"
b0 H
b100000000 *"
b110000011111111101001010 o"
b11111111110111011111111110111010 p"
b11 m"
b111111 2
b111111 C
b111111 /"
b111111 J"
b0 H"
b100000000 4"
b100000000 U"
b1111111111101010 8"
b10110111 1
b10110111 @
b10110111 ."
b10110111 K"
b0 I"
b100000000 5"
b100000000 ^"
b1111111110101101 <"
b0 C"
b100000000 B"
b0 A"
b1111111111110100 6"
b110000011 :"
b111111 6
b111111 B
b111111 g"
b0 4
b0 D
b0 M
b0 h
b1111111100101010 f
b0 R
b0 s
b1100 V
b10110111 5
b10110111 ?
b10110111 h"
b0 3
b0 A
b0 L
b0 i
b1111111110011100 g
b0 S
b0 |
b11011011 Z
b100000000 a
b0 `
b100000000 _
b11000001 T
b1111111111011101 X
b100000000 )
b1 8
b1 <
1&
#1200000
0&
#1250000
b11011011 I
b11011011 ~
b11011011 %"
b11011011 &"
0$"
b1100 J
b1100 u
b1100 z
b1100 {
0y
b0 +"
b0 `"
b0 e"
b0 f"
1d"
b0 ,"
b0 W"
b0 \"
b0 ]"
b1111111101001010 E
b111111 '"
b1111111110111010 F
b10110111 ("
b100000000 H
b0 *"
b11100100 m
b1101101100000000 #"
b100000000 !"
b11011011 ""
b110000000000 x
b100000000 v
b1100 w
b110001111 O"
b0 a"
b0 c"
b1010011 b"
b0 X"
b0 Z"
b10110 Y"
b11111111010010100000000000111111 *
b11111111101110100000000010110111 +
b1 7
b1 =
b1000000000000000000000000 )
b0 8
b0 <
b0 a
b100000000 `
b0 _
b11000001 U
b1111111111011101 Y
b1111111100011100 Q
b1111111100011100 j
b1111111110011100 3
b1111111110011100 A
b1111111110011100 L
b1111111110011100 i
b0 g
b100000000 S
b100000000 |
b11011011 [
b11011011 }
b1111111100101010 4
b1111111100101010 D
b1111111100101010 M
b1111111100101010 h
b0 f
b100000000 R
b100000000 s
b1100 W
b1100 t
b100000000 C"
b0 B"
b100000000 A"
b1111111111110100 7"
b110000011 ;"
b110001111 3"
b110001111 L"
b1111111110011100 5
b1111111110011100 ?
b1111111110011100 h"
b0 1
b0 @
b0 ."
b0 K"
b101 I"
b0 5"
b0 ^"
b1111111110101101 ="
b1111111110101101 _"
b1111111100101010 6
b1111111100101010 B
b1111111100101010 g"
b0 2
b0 C
b0 /"
b0 J"
b1111111010100011 H"
b0 4"
b0 U"
b1111111111101010 9"
b1111111111101010 V"
b100 m"
b11111111111101000000000000111111 q"
b1100000110000000010110111 r"
1&
#1300000
0&
#1350000
b1111111111101010 ,"
b1111111111101010 W"
b1111111111101010 \"
b10110 ]"
b1111111110101101 +"
b1111111110101101 `"
b1111111110101101 e"
b1010011 f"
b0 J
b0 u
b0 z
b0 {
b0 I
b0 ~
b0 %"
b0 &"
b1011000000000 Z"
b100000000 X"
b101001100000000 c"
b100000000 a"
b0 x
b0 v
b0 #"
b0 !"
b0 H
b100000000 *"
b1100000111111111010010101111111100101010 o"
b111111111101110111111111101110101111111110011100 p"
b101 m"
b1111111010100011 2
b1111111010100011 C
b1111111010100011 /"
b1111111010100011 J"
b0 H"
b100000000 4"
b100000000 U"
b1111111111110100 8"
b101 1
b101 @
b101 ."
b101 K"
b0 I"
b100000000 5"
b100000000 ^"
b110000011 <"
b0 C"
b100000000 B"
b0 A"
b111111 6"
b10110111 :"
b1111111010100011 6
b1111111010100011 B
b1111111010100011 g"
b0 4
b0 D
b0 M
b0 h
b1100 f
b0 R
b0 s
b11000001 V
b101 5
b101 ?
b101 h"
b0 3
b0 A
b0 L
b0 i
b11011011 g
b0 S
b0 |
b1111111111011101 Z
b100000000 a
b0 `
b100000000 _
b1111111101001010 T
b1111111110111010 X
b100000000 )
b1 8
b1 <
1&
#1400000
0&
#1450000
b1111111111011101 I
b1111111111011101 ~
b1111111111011101 %"
b100011 &"
1$"
b11000001 J
b11000001 u
b11000001 z
b11000001 {
b0 +"
b0 `"
b0 e"
b0 f"
0d"
b0 ,"
b0 W"
b0 \"
b0 ]"
b1111111100101010 E
b1111111010100011 '"
b1111111110011100 F
b101 ("
b100000000 H
b0 *"
b1110000 m
b10001100000000 #"
b100000000 !"
b100011 ""
b1100000100000000 x
b100000000 v
b11000001 w
b1111000 O"
b0 a"
b0 c"
b110000011 b"
b0 X"
b0 Z"
b1100 Y"
b11111111001010101111111010100011 *
b11111111100111000000000000000101 +
b10 7
b10 =
b1000000000000000000000000 )
b0 8
b0 <
b0 a
b100000000 `
b0 _
b1111111101001010 U
b1111111110111010 Y
b1110000 Q
b1110000 j
b11011011 3
b11011011 A
b11011011 L
b11011011 i
b0 g
b100000000 S
b100000000 |
b1111111111011101 [
b1111111111011101 }
b1100 4
b1100 D
b1100 M
b1100 h
b0 f
b100000000 R
b100000000 s
b11000001 W
b11000001 t
b100000000 C"
b0 B"
b100000000 A"
b111111 7"
b10110111 ;"
b1111000 3"
b1111000 L"
b11011011 5
b11011011 ?
b11011011 h"
b0 1
b0 @
b0 ."
b0 K"
b1111111110101101 I"
b0 5"
b0 ^"
b110000011 ="
b110000011 _"
b1100 6
b1100 B
b1100 g"
b0 2
b0 C
b0 /"
b0 J"
b1111111111101010 H"
b0 4"
b0 U"
b1111111111110100 9"
b1111111111110100 V"
b110 m"
b111111111111010000000000001111111111111010100011 q"
b11000001100000000101101110000000000000101 r"
1&
#1500000
0&
#1550000
b1111111111110100 ,"
b1111111111110100 W"
b1111111111110100 \"
b1100 ]"
b110000011 +"
b110000011 `"
b110000011 e"
b110000011 f"
b0 J
b0 u
b0 z
b0 {
b0 I
b0 ~
b0 %"
b0 &"
b110000000000 Z"
b100000000 X"
b11000001100000000 c"
b100000000 a"
b0 x
b0 v
b0 #"
b0 !"
b0 H
b100000000 *"
b11000001111111110100101011111111001010100000000000001100 o"
b1111111111011101111111111011101011111111100111000000000011011011 p"
b111 m"
b1111111111101010 2
b1111111111101010 C
b1111111111101010 /"
b1111111111101010 J"
b0 H"
b100000000 4"
b100000000 U"
b111111 8"
b1111111110101101 1
b1111111110101101 @
b1111111110101101 ."
b1111111110101101 K"
b0 I"
b100000000 5"
b100000000 ^"
b10110111 <"
b0 C"
b100000000 B"
b0 A"
b1111111010100011 6"
b101 :"
b1111111111101010 6
b1111111111101010 B
b1111111111101010 g"
b0 4
b0 D
b0 M
b0 h
b11000001 f
b0 R
b0 s
b1111111101001010 V
b1111111110101101 5
b1111111110101101 ?
b1111111110101101 h"
b0 3
b0 A
b0 L
b0 i
b1111111111011101 g
b0 S
b0 |
b1111111110111010 Z
b100000000 a
b0 `
b100000000 _
b1111111100101010 T
b1111111110011100 X
b100000000 )
b1 8
b1 <
1&
#1600000
0&
#1650000
b1111111110111010 I
b1111111110111010 ~
b1111111110111010 %"
b1000110 &"
b1111111101001010 J
b1111111101001010 u
b1111111101001010 z
b10110110 {
1y
b0 +"
b0 `"
b0 e"
b0 f"
b0 ,"
b0 W"
b0 \"
b0 ]"
0["
b1100 E
b1111111111101010 '"
b11011011 F
b1111111110101101 ("
b100000000 H
b0 *"
b1110010 m
b100011000000000 #"
b100000000 !"
b1000110 ""
b1011011000000000 x
b100000000 v
b10110110 w
b101100010 O"
b0 a"
b0 c"
b10110111 b"
b0 X"
b0 Z"
b111111 Y"
b1111111111011101111111111011101011111111100111000000000011011011 $
b1111111111011101111111111011101011111111100111000000000011011011 /
b1111111111011101111111111011101011111111100111000000000011011011 k"
b110000011000000001011011100000000000001011111111110101101 "
b110000011000000001011011100000000000001011111111110101101 -
b110000011000000001011011100000000000001011111111110101101 i"
b11000001111111110100101011111111001010100000000000001100 %
b11000001111111110100101011111111001010100000000000001100 0
b11000001111111110100101011111111001010100000000000001100 l"
b1111111111110100000000000011111111111110101000111111111111101010 #
b1111111111110100000000000011111111111110101000111111111111101010 .
b1111111111110100000000000011111111111110101000111111111111101010 j"
b11001111111111101010 *
b110110111111111110101101 +
b11 7
b11 =
b1000000000000000000000000 )
b0 8
b0 <
b0 a
b100000000 `
b0 _
b1111111100101010 U
b1111111110011100 Y
b1110010 Q
b1110010 j
b1111111111011101 3
b1111111111011101 A
b1111111111011101 L
b1111111111011101 i
b0 g
b100000000 S
b100000000 |
b1111111110111010 [
b1111111110111010 }
b11000001 4
b11000001 D
b11000001 M
b11000001 h
b0 f
b100000000 R
b100000000 s
b1111111101001010 W
b1111111101001010 t
b100000000 C"
b0 B"
b100000000 A"
b1111111010100011 7"
b101 ;"
b101100010 3"
b101100010 L"
b1111111111011101 5
b1111111111011101 ?
b1111111111011101 h"
b0 1
b0 @
b0 ."
b0 K"
b110000011 I"
b0 5"
b0 ^"
b10110111 ="
b10110111 _"
b11000001 6
b11000001 B
b11000001 g"
b0 2
b0 C
b0 /"
b0 J"
b1111111111110100 H"
b0 4"
b0 U"
b111111 9"
b111111 V"
0n"
b0 m"
1!
b1111111111110100000000000011111111111110101000111111111111101010 q"
b110000011000000001011011100000000000001011111111110101101 r"
1&
#1700000
0&
#1750000
b111111 ,"
b111111 W"
b111111 \"
b111111 ]"
b10110111 +"
b10110111 `"
b10110111 e"
b10110111 f"
b0 J
b0 u
b0 z
b0 {
b0 I
b0 ~
b0 %"
b0 &"
b11111100000000 Z"
b100000000 X"
b1011011100000000 c"
b100000000 a"
b0 x
b0 v
b0 #"
b0 !"
b0 H
b100000000 *"
0!
b1111111111110100 2
b1111111111110100 C
b1111111111110100 /"
b1111111111110100 J"
b0 H"
b100000000 4"
b100000000 U"
b1111111010100011 8"
b110000011 1
b110000011 @
b110000011 ."
b110000011 K"
b0 I"
b100000000 5"
b100000000 ^"
b101 <"
b0 C"
b100000000 B"
b0 A"
b1111111111101010 6"
b1111111110101101 :"
b1111111111110100 6
b1111111111110100 B
b1111111111110100 g"
b0 4
b0 D
b0 M
b0 h
b1111111101001010 f
b0 R
b0 s
b1111111100101010 V
b110000011 5
b110000011 ?
b110000011 h"
b0 3
b0 A
b0 L
b0 i
b1111111110111010 g
b0 S
b0 |
b1111111110011100 Z
b100000000 a
b0 `
b100000000 _
b1100 T
b11011011 X
b100000000 )
b1 8
b1 <
1&
#1800000
0&
