SOML_DECODER/tbHqA1.vcd
$date
	Mon Nov 18 20:51:24 2024
$end
$version
	Icarus Verilog
$end
$timescale
	1ps
$end
$scope module tb_HqA1_cal $end
$var wire 1 ! ready $end
$var wire 64 " outcol1_r [63:0] $end
$var wire 64 # outcol1_i [63:0] $end
$var wire 64 $ outcol0_r [63:0] $end
$var wire 64 % outcol0_i [63:0] $end
$var reg 1 & clk $end
$var reg 1 ' rst $end
$scope module dut $end
$var wire 1 & clk $end
$var wire 32 ( in_Hqi0 [31:0] $end
$var wire 32 ) in_Hqi1 [31:0] $end
$var wire 32 * in_Hqi2 [31:0] $end
$var wire 32 + in_Hqi3 [31:0] $end
$var wire 32 , in_Hqr0 [31:0] $end
$var wire 32 - in_Hqr1 [31:0] $end
$var wire 32 . in_Hqr2 [31:0] $end
$var wire 32 / in_Hqr3 [31:0] $end
$var wire 32 0 out_colA1_i [31:0] $end
$var wire 32 1 out_colA1_r [31:0] $end
$var wire 32 2 rowH_i [31:0] $end
$var wire 32 3 rowH_r [31:0] $end
$var wire 1 ' rst $end
$var wire 1 4 start_cal $end
$var wire 1 ! ready $end
$var wire 64 5 outcol1_r [63:0] $end
$var wire 64 6 outcol1_i [63:0] $end
$var wire 64 7 outcol0_r [63:0] $end
$var wire 64 8 outcol0_i [63:0] $end
$var wire 16 9 out_reg_c3_r [15:0] $end
$var wire 16 : out_reg_c3_i [15:0] $end
$var wire 16 ; out_reg_c2_r [15:0] $end
$var wire 16 < out_reg_c2_i [15:0] $end
$var wire 16 = out_r [15:0] $end
$var wire 16 > out_i [15:0] $end
$var wire 2 ? addr_rowH [1:0] $end
$var wire 2 @ addr_colA1 [1:0] $end
$var reg 3 A counter [2:0] $end
$var reg 1 B done $end
$scope module AddrGen0 $end
$var wire 1 & clk $end
$var wire 1 ' rst $end
$var reg 4 C addr_Si [3:0] $end
$var reg 2 D addr_colS [1:0] $end
$var reg 2 E addr_rowH [1:0] $end
$var reg 1 F done_Si $end
$upscope $end
$scope module add1 $end
$var wire 16 G c [15:0] $end
$var wire 16 H b [15:0] $end
$var wire 16 I a [15:0] $end
$upscope $end
$scope module add4 $end
$var wire 16 J c [15:0] $end
$var wire 16 K b [15:0] $end
$var wire 16 L a [15:0] $end
$upscope $end
$scope module c2 $end
$var wire 16 M ai [15:0] $end
$var wire 16 N ar [15:0] $end
$var wire 16 O bi [15:0] $end
$var wire 16 P br [15:0] $end
$var wire 1 & clk $end
$var wire 1 ' rst $end
$var wire 16 Q tmp_multr [15:0] $end
$var wire 16 R tmp_multi [15:0] $end
$var wire 16 S tmp_mult0 [15:0] $end
$var wire 16 T pr [15:0] $end
$var wire 16 U pi [15:0] $end
$var wire 1 V ovr_multr $end
$var wire 1 W ovr_multi $end
$var wire 1 X ovr_mult0 $end
$var reg 16 Y addcommon [15:0] $end
$var reg 16 Z addi [15:0] $end
$var reg 16 [ addr [15:0] $end
$var reg 16 \ ai_d [15:0] $end
$var reg 16 ] ai_dd [15:0] $end
$var reg 16 ^ ai_ddd [15:0] $end
$var reg 16 _ ai_dddd [15:0] $end
$var reg 16 ` ar_d [15:0] $end
$var reg 16 a ar_dd [15:0] $end
$var reg 16 b ar_ddd [15:0] $end
$var reg 16 c ar_dddd [15:0] $end
$var reg 16 d bi_d [15:0] $end
$var reg 16 e bi_dd [15:0] $end
$var reg 16 f bi_ddd [15:0] $end
$var reg 16 g br_d [15:0] $end
$var reg 16 h br_dd [15:0] $end
$var reg 16 i br_ddd [15:0] $end
$var reg 16 j common [15:0] $end
$var reg 16 k commonr1 [15:0] $end
$var reg 16 l commonr2 [15:0] $end
$var reg 16 m mult0 [15:0] $end
$var reg 16 n multi [15:0] $end
$var reg 16 o multr [15:0] $end
$var reg 16 p pi_int [15:0] $end
$var reg 16 q pr_int [15:0] $end
$scope module qmult_common $end
$var wire 16 r i_multiplicand [15:0] $end
$var wire 16 s i_multiplier [15:0] $end
$var wire 16 t o_result [15:0] $end
$var wire 16 u temp_multiplicand [15:0] $end
$var wire 16 v temp_meltiplier [15:0] $end
$var wire 32 w r_result [31:0] $end
$var reg 1 x is_signed $end
$var reg 1 X ovr $end
$var reg 16 y r_RetVal [15:0] $end
$var reg 16 z temp_RetVal [15:0] $end
$upscope $end
$scope module qmult_imag $end
$var wire 16 { i_multiplicand [15:0] $end
$var wire 16 | i_multiplier [15:0] $end
$var wire 16 } o_result [15:0] $end
$var wire 16 ~ temp_multiplicand [15:0] $end
$var wire 16 !" temp_meltiplier [15:0] $end
$var wire 32 "" r_result [31:0] $end
$var reg 1 #" is_signed $end
$var reg 1 W ovr $end
$var reg 16 $" r_RetVal [15:0] $end
$var reg 16 %" temp_RetVal [15:0] $end
$upscope $end
$scope module qmult_real $end
$var wire 16 &" i_multiplicand [15:0] $end
$var wire 16 '" i_multiplier [15:0] $end
$var wire 16 (" o_result [15:0] $end
$var wire 16 )" temp_multiplicand [15:0] $end
$var wire 16 *" temp_meltiplier [15:0] $end
$var wire 32 +" r_result [31:0] $end
$var reg 1 ," is_signed $end
$var reg 1 V ovr $end
$var reg 16 -" r_RetVal [15:0] $end
$var reg 16 ." temp_RetVal [15:0] $end
$upscope $end
$upscope $end
$scope module c3 $end
$var wire 16 /" ai [15:0] $end
$var wire 16 0" ar [15:0] $end
$var wire 16 1" bi [15:0] $end
$var wire 16 2" br [15:0] $end
$var wire 1 & clk $end
$var wire 1 ' rst $end
$var wire 16 3" tmp_multr [15:0] $end
$var wire 16 4" tmp_multi [15:0] $end
$var wire 16 5" tmp_mult0 [15:0] $end
$var wire 16 6" pr [15:0] $end
$var wire 16 7" pi [15:0] $end
$var wire 1 8" ovr_multr $end
$var wire 1 9" ovr_multi $end
$var wire 1 :" ovr_mult0 $end
$var reg 16 ;" addcommon [15:0] $end
$var reg 16 <" addi [15:0] $end
$var reg 16 =" addr [15:0] $end
$var reg 16 >" ai_d [15:0] $end
$var reg 16 ?" ai_dd [15:0] $end
$var reg 16 @" ai_ddd [15:0] $end
$var reg 16 A" ai_dddd [15:0] $end
$var reg 16 B" ar_d [15:0] $end
$var reg 16 C" ar_dd [15:0] $end
$var reg 16 D" ar_ddd [15:0] $end
$var reg 16 E" ar_dddd [15:0] $end
$var reg 16 F" bi_d [15:0] $end
$var reg 16 G" bi_dd [15:0] $end
$var reg 16 H" bi_ddd [15:0] $end
$var reg 16 I" br_d [15:0] $end
$var reg 16 J" br_dd [15:0] $end
$var reg 16 K" br_ddd [15:0] $end
$var reg 16 L" common [15:0] $end
$var reg 16 M" commonr1 [15:0] $end
$var reg 16 N" commonr2 [15:0] $end
$var reg 16 O" mult0 [15:0] $end
$var reg 16 P" multi [15:0] $end
$var reg 16 Q" multr [15:0] $end
$var reg 16 R" pi_int [15:0] $end
$var reg 16 S" pr_int [15:0] $end
$scope module qmult_common $end
$var wire 16 T" i_multiplicand [15:0] $end
$var wire 16 U" i_multiplier [15:0] $end
$var wire 16 V" o_result [15:0] $end
$var wire 16 W" temp_multiplicand [15:0] $end
$var wire 16 X" temp_meltiplier [15:0] $end
$var wire 32 Y" r_result [31:0] $end
$var reg 1 Z" is_signed $end
$var reg 1 :" ovr $end
$var reg 16 [" r_RetVal [15:0] $end
$var reg 16 \" temp_RetVal [15:0] $end
$upscope $end
$scope module qmult_imag $end
$var wire 16 ]" i_multiplicand [15:0] $end
$var wire 16 ^" i_multiplier [15:0] $end
$var wire 16 _" o_result [15:0] $end
$var wire 16 `" temp_multiplicand [15:0] $end
$var wire 16 a" temp_meltiplier [15:0] $end
$var wire 32 b" r_result [31:0] $end
$var reg 1 c" is_signed $end
$var reg 1 9" ovr $end
$var reg 16 d" r_RetVal [15:0] $end
$var reg 16 e" temp_RetVal [15:0] $end
$upscope $end
$scope module qmult_real $end
$var wire 16 f" i_multiplicand [15:0] $end
$var wire 16 g" i_multiplier [15:0] $end
$var wire 16 h" o_result [15:0] $end
$var wire 16 i" temp_multiplicand [15:0] $end
$var wire 16 j" temp_meltiplier [15:0] $end
$var wire 32 k" r_result [31:0] $end
$var reg 1 l" is_signed $end
$var reg 1 8" ovr $end
$var reg 16 m" r_RetVal [15:0] $end
$var reg 16 n" temp_RetVal [15:0] $end
$upscope $end
$upscope $end
$scope module gencol0 $end
$var wire 1 & clk $end
$var wire 1 ' rst $end
$var wire 16 o" sdi [15:0] $end
$var wire 16 p" sdr [15:0] $end
$var wire 1 q" start $end
$var wire 64 r" col1_r [63:0] $end
$var wire 64 s" col1_i [63:0] $end
$var wire 64 t" col0_r [63:0] $end
$var wire 64 u" col0_i [63:0] $end
$var reg 3 v" counter [2:0] $end
$var reg 1 ! finish $end
$var reg 1 w" rx_en $end
$var reg 64 x" shift_reg_col0_i [63:0] $end
$var reg 64 y" shift_reg_col0_r [63:0] $end
$var reg 64 z" shift_reg_col1_i [63:0] $end
$var reg 64 {" shift_reg_col1_r [63:0] $end
$upscope $end
$upscope $end
$scope task wait4clk $end
$var integer 32 |" n [31:0] $end
$upscope $end
$upscope $end
$enddefinitions $end
#0
$dumpvars
bx |"
bx {"
bx z"
bx y"
bx x"
xw"
bx v"
bx u"
bx t"
bx s"
bx r"
xq"
bx p"
bx o"
bx n"
bx m"
xl"
bx k"
bx j"
bx i"
bx h"
bx g"
bx f"
bx e"
bx d"
xc"
bx b"
bx a"
bx `"
bx _"
bx ^"
bx ]"
bx \"
bx ["
xZ"
bx Y"
bx X"
bx W"
bx V"
bx U"
bx T"
bx S"
bx R"
bx Q"
bx P"
bx O"
bx N"
bx M"
bx L"
bx K"
bx J"
bx I"
bx H"
bx G"
bx F"
bx E"
bx D"
bx C"
bx B"
bx A"
bx @"
bx ?"
bx >"
bx ="
bx <"
bx ;"
x:"
x9"
x8"
bx 7"
bx 6"
bx 5"
bx 4"
bx 3"
bx 2"
bx 1"
bx 0"
bx /"
bx ."
bx -"
x,"
bx +"
bx *"
bx )"
bx ("
bx '"
bx &"
bx %"
bx $"
x#"
bx ""
bx !"
bx ~
bx }
bx |
bx {
bx z
bx y
xx
bx w
bx v
bx u
bx t
bx s
bx r
bx q
bx p
bx o
bx n
bx m
bx l
bx k
bx j
bx i
bx h
bx g
bx f
bx e
bx d
bx c
bx b
bx a
bx `
bx _
bx ^
bx ]
bx \
bx [
bx Z
bx Y
xX
xW
xV
bx U
bx T
bx S
bx R
bx Q
bx P
bx O
bx N
bx M
bx L
bx K
bx J
bx I
bx H
bx G
xF
bx E
bx D
bx C
xB
bx A
bx @
bx ?
bx >
bx =
bx <
bx ;
bx :
bx 9
bx 8
bx 7
bx 6
bx 5
x4
bx 3
bx 2
bx 1
bx 0
bz /
bz .
bz -
bz ,
bz +
bz *
bz )
bz (
0'
0&
bx %
bx $
bx #
bx "
x!
$end
#50000
0q"
04
bz M
bz /"
bz N
bz 0"
b0 O
b0 1"
b100000000 P
b0 2"
0F
b0 C
bz 2
bz 3
b0 ?
b0 E
b0 0
b1000000000000000000000000 1
b0 @
b0 D
b0 d
b0 g
b0 \
b0 `
b0 F"
b0 I"
b0 >"
b0 B"
0w"
b0 v"
0!
b0 z"
b0 x"
b0 {"
b0 y"
0B
b0 A
b10 |"
1'
1&
#100000
0&
#150000
b0 W"
b0 u
b0 ;"
b0 T"
b0 Y
b0 r
1&
#200000
0&
#250000
b1 |"
0'
1&
#300000
0&
#350000
0:"
b0 5"
b0 V"
b0 ["
b0 \"
0Z"
0X
b0 S
b0 t
b0 y
b0 z
0x
b0 Y"
b0 X"
b0 w
b0 v
b0 P
b100000000 2"
b1 A
b0 G"
b0 U"
b0 J"
b0 ?"
bz >"
b0 C"
bz B"
b0 e
b0 s
b0 h
b100000000 g
b0 ]
bz \
b0 a
bz `
b100000000 1
b1 @
b1 D
b11001000 |"
1&
#400000
0&
#450000
xX
bx S
bx t
bx y
b0xxxxxxxxxxxxxxx z
xx
x:"
bx 5"
bx V"
bx ["
b0xxxxxxxxxxxxxxx \"
xZ"
b100000000 P
b0 2"
bx w
bx u
bx Y"
bx W"
b1 ?
b1 E
b1000000000000000000000000 1
b0 @
b0 D
b0 f
b0 i
b100000000 h
b0 g
bz ]
bz a
b0 m
bx Y
bx r
b0 b
b0 ^
b0 H"
b0 K"
b100000000 I"
bz ?"
bz C"
b0 O"
bx ;"
bx T"
b0 D"
b0 @"
b10 A
1&
#500000
0&
#550000
09"
b0 4"
b0 _"
b0 d"
b0 e"
0c"
08"
b0 3"
b0 h"
b0 m"
b0 n"
0l"
0W
b0 R
b0 }
b0 $"
b0 %"
0#"
0V
b0 Q
b0 ("
b0 -"
b0 ."
0,"
b0 b"
b0 `"
b0 a"
b0 k"
b0 i"
b0 j"
b0 ""
b0 ~
b0 !"
b0 +"
b0 )"
b0 *"
b0 P
b100000000 2"
b11 A
b0 <"
b0 ]"
b0 A"
b0 ^"
bz @"
b0 ="
b0 f"
b0 E"
b0 g"
bz D"
b0 L"
bx O"
b100000000 J"
b0 I"
b0 Z
b0 {
b0 _
b0 |
bz ^
b0 [
b0 &"
b0 c
b0 '"
bz b
b0 j
bx m
b100000000 i
b0 h
b100000000 g
b100000000 1
b1 @
b1 D
1&
#600000
0&
#650000
xV
bx Q
bx ("
bx -"
b0xxxxxxxxxxxxxxx ."
x,"
xW
bx R
bx }
bx $"
b0xxxxxxxxxxxxxxx %"
x#"
x8"
bx 3"
bx h"
bx m"
b0xxxxxxxxxxxxxxx n"
xl"
x9"
bx 4"
bx _"
bx d"
b0xxxxxxxxxxxxxxx e"
xc"
b100000000 P
b0 2"
b100000000 )"
bx +"
bx *"
b100000000 ~
bx ""
bx !"
bx k"
bx j"
bx b"
bx a"
b10 ?
b10 E
b1000000000000000000000000 1
b0 @
b0 D
b0 i
b100000000 h
b0 g
bx j
b0 k
b0 o
b100000000 [
b100000000 &"
bz c
bz '"
b0 l
b0 n
b100000000 Z
b100000000 {
bz _
bz |
b100000000 K"
b0 J"
b100000000 I"
bx L"
b0 M"
b0 Q"
bz E"
bz g"
b0 N"
b0 P"
bz A"
bz ^"
b100 A
1&
#700000
0&
#750000
1q"
14
b100000000 `"
b100000000 i"
b0 ~
b0 )"
b0 P
b100000000 2"
b101 A
b0 >
b0 J
b0 o"
b0 :
b0 K
b0 7"
b0 R"
bx N"
bx P"
b100000000 <"
b100000000 ]"
b0 =
b0 G
b0 p"
b0 9
b0 H
b0 6"
b0 S"
bx M"
bx Q"
b100000000 ="
b100000000 f"
b0 K"
b100000000 J"
b0 I"
b0 <
b0 L
b0 U
b0 p
bx l
bx n
b0 Z
b0 {
b0 ;
b0 I
b0 T
b0 q
bx k
bx o
b0 [
b0 &"
b100000000 i
b0 h
b100000000 g
b100000000 1
b1 @
b1 D
1&
#800000
0&
#850000
0q"
04
b100000000 P
b0 2"
b100000000 )"
b100000000 ~
b0 i"
b0 `"
b11 ?
b11 E
b1000000000000000000000000 1
b0 @
b0 D
b0 i
b100000000 h
b0 g
bx ;
bx I
bx T
bx q
b100000000 [
b100000000 &"
bx <
bx L
bx U
bx p
b100000000 Z
b100000000 {
b100000000 K"
b0 J"
b100000000 I"
bx =
bx G
bx p"
bx 9
bx H
bx 6"
bx S"
b0 ="
b0 f"
bx >
bx J
bx o"
bx :
bx K
bx 7"
bx R"
b0 <"
b0 ]"
1w"
1B
b0 A
1&
#900000
0&
#950000
b100000000 `"
b100000000 i"
b0 ~
b0 )"
b0 P
b100000000 2"
b0xxxxxxxxxxxxxxxx x"
b0xxxxxxxxxxxxxxxx y"
b1 v"
b100000000 <"
b100000000 ]"
b100000000 ="
b100000000 f"
b0 K"
b100000000 J"
b0 I"
b0 Z
b0 {
b0 [
b0 &"
b100000000 i
b0 h
b100000000 g
b100000000 1
b1 @
b1 D
1&
#1000000
0&
#1050000
b100000000 P
b0 2"
b100000000 )"
b100000000 ~
b0 i"
b0 `"
b1 C
b0 ?
b0 E
b1000000000000000000000000 1
b0 @
b0 D
b0 i
b100000000 h
b0 g
b100000000 [
b100000000 &"
b100000000 Z
b100000000 {
b100000000 K"
b0 J"
b100000000 I"
b0 ="
b0 f"
b0 <"
b0 ]"
b10 v"
b0xxxxxxxxxxxxxxxx z"
b0xxxxxxxxxxxxxxxx {"
1&
#1100000
0&
#1150000
b100000000 `"
b100000000 i"
b0 ~
b0 )"
b0 P
b100000000 2"
b0xxxxxxxxxxxxxxxxxxxxxxxxxxxxxxxx x"
b0xxxxxxxxxxxxxxxxxxxxxxxxxxxxxxxx y"
b11 v"
b100000000 <"
b100000000 ]"
b100000000 ="
b100000000 f"
b0 K"
b100000000 J"
b0 I"
b0 Z
b0 {
b0 [
b0 &"
b100000000 i
b0 h
b100000000 g
b100000000 1
b1 @
b1 D
1&
#1200000
0&
#1250000
b100000000 P
b0 2"
b100000000 )"
b100000000 ~
b0 i"
b0 `"
b1 ?
b1 E
b1000000000000000000000000 1
b0 @
b0 D
b0 i
b100000000 h
b0 g
b100000000 [
b100000000 &"
b100000000 Z
b100000000 {
b100000000 K"
b0 J"
b100000000 I"
b0 ="
b0 f"
b0 <"
b0 ]"
b100 v"
b0xxxxxxxxxxxxxxxxxxxxxxxxxxxxxxxx z"
b0xxxxxxxxxxxxxxxxxxxxxxxxxxxxxxxx {"
1&
#1300000
0&
#1350000
b100000000 `"
b100000000 i"
b0 ~
b0 )"
b0 P
b100000000 2"
b0xxxxxxxxxxxxxxxxxxxxxxxxxxxxxxxxxxxxxxxxxxxxxxxx x"
b0xxxxxxxxxxxxxxxxxxxxxxxxxxxxxxxxxxxxxxxxxxxxxxxx y"
b101 v"
b100000000 <"
b100000000 ]"
b100000000 ="
b100000000 f"
b0 K"
b100000000 J"
b0 I"
b0 Z
b0 {
b0 [
b0 &"
b100000000 i
b0 h
b100000000 g
b100000000 1
b1 @
b1 D
1&
#1400000
0&
#1450000
b100000000 P
b0 2"
b100000000 )"
b100000000 ~
b0 i"
b0 `"
b10 ?
b10 E
b1000000000000000000000000 1
b0 @
b0 D
b0 i
b100000000 h
b0 g
b100000000 [
b100000000 &"
b100000000 Z
b100000000 {
b100000000 K"
b0 J"
b100000000 I"
b0 ="
b0 f"
b0 <"
b0 ]"
b110 v"
b0xxxxxxxxxxxxxxxxxxxxxxxxxxxxxxxxxxxxxxxxxxxxxxxx z"
b0xxxxxxxxxxxxxxxxxxxxxxxxxxxxxxxxxxxxxxxxxxxxxxxx {"
1&
#1500000
0&
#1550000
b0xxxxxxxxxxxxxxxxxxxxxxxxxxxxxxxxxxxxxxxxxxxxxxxx "
b0xxxxxxxxxxxxxxxxxxxxxxxxxxxxxxxxxxxxxxxxxxxxxxxx 5
b0xxxxxxxxxxxxxxxxxxxxxxxxxxxxxxxxxxxxxxxxxxxxxxxx r"
b0xxxxxxxxxxxxxxxxxxxxxxxxxxxxxxxxxxxxxxxxxxxxxxxx #
b0xxxxxxxxxxxxxxxxxxxxxxxxxxxxxxxxxxxxxxxxxxxxxxxx 6
b0xxxxxxxxxxxxxxxxxxxxxxxxxxxxxxxxxxxxxxxxxxxxxxxx s"
1q"
b100000000 `"
b100000000 i"
b0 ~
b0 )"
b0 P
b100000000 2"
bx x"
bx y"
1!
b111 v"
b100000000 <"
b100000000 ]"
b100000000 ="
b100000000 f"
b0 K"
b100000000 J"
b0 I"
b0 Z
b0 {
b0 [
b0 &"
b100000000 i
b0 h
b100000000 g
b100000000 1
b1 @
b1 D
1&
#1600000
0&
#1650000
b100000000 P
b0 2"
b100000000 )"
b100000000 ~
b0 i"
b0 `"
0q"
b11 ?
b11 E
b1000000000000000000000000 1
b0 @
b0 D
b0 i
b100000000 h
b0 g
b100000000 [
b100000000 &"
b100000000 Z
b100000000 {
b100000000 K"
b0 J"
b100000000 I"
b0 ="
b0 f"
b0 <"
b0 ]"
b0 v"
0!
b0xxxxxxxxxxxxxxxx z"
b0xxxxxxxxxxxxxxxx {"
1&
#1700000
0&
#1750000
b100000000 `"
b100000000 i"
b0 ~
b0 )"
b0 P
b100000000 2"
b1 v"
b100000000 <"
b100000000 ]"
b100000000 ="
b100000000 f"
b0 K"
b100000000 J"
b0 I"
b0 Z
b0 {
b0 [
b0 &"
b100000000 i
b0 h
b100000000 g
b100000000 1
b1 @
b1 D
1&
#1800000
0&
#1850000
b100000000 P
b0 2"
b100000000 )"
b100000000 ~
b0 i"
b0 `"
b10 C
b0 ?
b0 E
b1000000000000000000000000 1
b0 @
b0 D
b0 i
b100000000 h
b0 g
b100000000 [
b100000000 &"
b100000000 Z
b100000000 {
b100000000 K"
b0 J"
b100000000 I"
b0 ="
b0 f"
b0 <"
b0 ]"
b10 v"
b0xxxxxxxxxxxxxxxxxxxxxxxxxxxxxxxx z"
b0xxxxxxxxxxxxxxxxxxxxxxxxxxxxxxxx {"
1&
#1900000
0&
#1950000
b100000000 `"
b100000000 i"
b0 ~
b0 )"
b0 P
b100000000 2"
b11 v"
b100000000 <"
b100000000 ]"
b100000000 ="
b100000000 f"
b0 K"
b100000000 J"
b0 I"
b0 Z
b0 {
b0 [
b0 &"
b100000000 i
b0 h
b100000000 g
b100000000 1
b1 @
b1 D
1&
#2000000
0&
#2050000
b100000000 P
b0 2"
b100000000 )"
b100000000 ~
b0 i"
b0 `"
b1 ?
b1 E
b1000000000000000000000000 1
b0 @
b0 D
b0 i
b100000000 h
b0 g
b100000000 [
b100000000 &"
b100000000 Z
b100000000 {
b100000000 K"
b0 J"
b100000000 I"
b0 ="
b0 f"
b0 <"
b0 ]"
b100 v"
b0xxxxxxxxxxxxxxxxxxxxxxxxxxxxxxxxxxxxxxxxxxxxxxxx z"
b0xxxxxxxxxxxxxxxxxxxxxxxxxxxxxxxxxxxxxxxxxxxxxxxx {"
1&
#2100000
0&
#2150000
b100000000 `"
b100000000 i"
b0 ~
b0 )"
b0 P
b100000000 2"
b101 v"
b100000000 <"
b100000000 ]"
b100000000 ="
b100000000 f"
b0 K"
b100000000 J"
b0 I"
b0 Z
b0 {
b0 [
b0 &"
b100000000 i
b0 h
b100000000 g
b100000000 1
b1 @
b1 D
1&
#2200000
0&
#2250000
b100000000 P
b0 2"
b100000000 )"
b100000000 ~
b0 i"
b0 `"
b10 ?
b10 E
b1000000000000000000000000 1
b0 @
b0 D
b0 i
b100000000 h
b0 g
b100000000 [
b100000000 &"
b100000000 Z
b100000000 {
b100000000 K"
b0 J"
b100000000 I"
b0 ="
b0 f"
b0 <"
b0 ]"
b110 v"
bx z"
bx {"
1&
#2300000
0&
#2350000
bx "
bx 5
bx r"
bx #
bx 6
bx s"
1q"
b100000000 `"
b100000000 i"
b0 ~
b0 )"
b0 P
b100000000 2"
1!
b111 v"
b100000000 <"
b100000000 ]"
b100000000 ="
b100000000 f"
b0 K"
b100000000 J"
b0 I"
b0 Z
b0 {
b0 [
b0 &"
b100000000 i
b0 h
b100000000 g
b100000000 1
b1 @
b1 D
1&
#2400000
0&
#2450000
b100000000 P
b0 2"
b100000000 )"
b100000000 ~
b0 i"
b0 `"
0q"
b11 ?
b11 E
b1000000000000000000000000 1
b0 @
b0 D
b0 i
b100000000 h
b0 g
b100000000 [
b100000000 &"
b100000000 Z
b100000000 {
b100000000 K"
b0 J"
b100000000 I"
b0 ="
b0 f"
b0 <"
b0 ]"
b0 v"
0!
b0xxxxxxxxxxxxxxxx z"
b0xxxxxxxxxxxxxxxx {"
1&
#2500000
0&
#2550000
b100000000 `"
b100000000 i"
b0 ~
b0 )"
b0 P
b100000000 2"
b1 v"
b100000000 <"
b100000000 ]"
b100000000 ="
b100000000 f"
b0 K"
b100000000 J"
b0 I"
b0 Z
b0 {
b0 [
b0 &"
b100000000 i
b0 h
b100000000 g
b100000000 1
b1 @
b1 D
1&
#2600000
0&
#2650000
b100000000 P
b0 2"
b100000000 )"
b100000000 ~
b0 i"
b0 `"
b11 C
b0 ?
b0 E
b1000000000000000000000000 1
b0 @
b0 D
b0 i
b100000000 h
b0 g
b100000000 [
b100000000 &"
b100000000 Z
b100000000 {
b100000000 K"
b0 J"
b100000000 I"
b0 ="
b0 f"
b0 <"
b0 ]"
b10 v"
b0xxxxxxxxxxxxxxxxxxxxxxxxxxxxxxxx z"
b0xxxxxxxxxxxxxxxxxxxxxxxxxxxxxxxx {"
1&
#2700000
0&
#2750000
b100000000 `"
b100000000 i"
b0 ~
b0 )"
b0 P
b100000000 2"
b11 v"
b100000000 <"
b100000000 ]"
b100000000 ="
b100000000 f"
b0 K"
b100000000 J"
b0 I"
b0 Z
b0 {
b0 [
b0 &"
b100000000 i
b0 h
b100000000 g
b100000000 1
b1 @
b1 D
1&
#2800000
0&
#2850000
b100000000 P
b0 2"
b100000000 )"
b100000000 ~
b0 i"
b0 `"
b1 ?
b1 E
b1000000000000000000000000 1
b0 @
b0 D
b0 i
b100000000 h
b0 g
b100000000 [
b100000000 &"
b100000000 Z
b100000000 {
b100000000 K"
b0 J"
b100000000 I"
b0 ="
b0 f"
b0 <"
b0 ]"
b100 v"
b0xxxxxxxxxxxxxxxxxxxxxxxxxxxxxxxxxxxxxxxxxxxxxxxx z"
b0xxxxxxxxxxxxxxxxxxxxxxxxxxxxxxxxxxxxxxxxxxxxxxxx {"
1&
#2900000
0&
#2950000
b100000000 `"
b100000000 i"
b0 ~
b0 )"
b0 P
b100000000 2"
b101 v"
b100000000 <"
b100000000 ]"
b100000000 ="
b100000000 f"
b0 K"
b100000000 J"
b0 I"
b0 Z
b0 {
b0 [
b0 &"
b100000000 i
b0 h
b100000000 g
b100000000 1
b1 @
b1 D
1&
#3000000
0&
#3050000
b100000000 P
b0 2"
b100000000 )"
b100000000 ~
b0 i"
b0 `"
b10 ?
b10 E
b1000000000000000000000000 1
b0 @
b0 D
b0 i
b100000000 h
b0 g
b100000000 [
b100000000 &"
b100000000 Z
b100000000 {
b100000000 K"
b0 J"
b100000000 I"
b0 ="
b0 f"
b0 <"
b0 ]"
b110 v"
bx z"
bx {"
1&
#3100000
0&
#3150000
1q"
b100000000 `"
b100000000 i"
b0 ~
b0 )"
b0 P
b100000000 2"
1!
b111 v"
b100000000 <"
b100000000 ]"
b100000000 ="
b100000000 f"
b0 K"
b100000000 J"
b0 I"
b0 Z
b0 {
b0 [
b0 &"
b100000000 i
b0 h
b100000000 g
b100000000 1
b1 @
b1 D
1&
#3200000
0&
#3250000
b100000000 P
b0 2"
b100000000 )"
b100000000 ~
b0 i"
b0 `"
0q"
b11 ?
b11 E
b1000000000000000000000000 1
b0 @
b0 D
b0 i
b100000000 h
b0 g
b100000000 [
b100000000 &"
b100000000 Z
b100000000 {
b100000000 K"
b0 J"
b100000000 I"
b0 ="
b0 f"
b0 <"
b0 ]"
b0 v"
0!
b0xxxxxxxxxxxxxxxx z"
b0xxxxxxxxxxxxxxxx {"
1&
#3300000
0&
#3350000
b100000000 `"
b100000000 i"
b0 ~
b0 )"
b0 P
b100000000 2"
b1 v"
b100000000 <"
b100000000 ]"
b100000000 ="
b100000000 f"
b0 K"
b100000000 J"
b0 I"
b0 Z
b0 {
b0 [
b0 &"
b100000000 i
b0 h
b100000000 g
b100000000 1
b1 @
b1 D
1&
#3400000
0&
#3450000
b100000000 P
b0 2"
b100000000 )"
b100000000 ~
b0 i"
b0 `"
b100 C
b0 ?
b0 E
b1000000000000000000000000 1
b0 @
b0 D
b0 i
b100000000 h
b0 g
b100000000 [
b100000000 &"
b100000000 Z
b100000000 {
b100000000 K"
b0 J"
b100000000 I"
b0 ="
b0 f"
b0 <"
b0 ]"
b10 v"
b0xxxxxxxxxxxxxxxxxxxxxxxxxxxxxxxx z"
b0xxxxxxxxxxxxxxxxxxxxxxxxxxxxxxxx {"
1&
#3500000
0&
#3550000
b100000000 `"
b100000000 i"
b0 ~
b0 )"
b0 P
b100000000 2"
b11 v"
b100000000 <"
b100000000 ]"
b100000000 ="
b100000000 f"
b0 K"
b100000000 J"
b0 I"
b0 Z
b0 {
b0 [
b0 &"
b100000000 i
b0 h
b100000000 g
b100000000 1
b1 @
b1 D
1&
#3600000
0&
#3650000
b100000000 P
b0 2"
b100000000 )"
b100000000 ~
b0 i"
b0 `"
b1 ?
b1 E
b1000000000000000000000000 1
b0 @
b0 D
b0 i
b100000000 h
b0 g
b100000000 [
b100000000 &"
b100000000 Z
b100000000 {
b100000000 K"
b0 J"
b100000000 I"
b0 ="
b0 f"
b0 <"
b0 ]"
b100 v"
b0xxxxxxxxxxxxxxxxxxxxxxxxxxxxxxxxxxxxxxxxxxxxxxxx z"
b0xxxxxxxxxxxxxxxxxxxxxxxxxxxxxxxxxxxxxxxxxxxxxxxx {"
1&
#3700000
0&
#3750000
b100000000 `"
b100000000 i"
b0 ~
b0 )"
b0 P
b100000000 2"
b101 v"
b100000000 <"
b100000000 ]"
b100000000 ="
b100000000 f"
b0 K"
b100000000 J"
b0 I"
b0 Z
b0 {
b0 [
b0 &"
b100000000 i
b0 h
b100000000 g
b100000000 1
b1 @
b1 D
1&
#3800000
0&
#3850000
b100000000 P
b0 2"
b100000000 )"
b100000000 ~
b0 i"
b0 `"
b10 ?
b10 E
b1000000000000000000000000 1
b0 @
b0 D
b0 i
b100000000 h
b0 g
b100000000 [
b100000000 &"
b100000000 Z
b100000000 {
b100000000 K"
b0 J"
b100000000 I"
b0 ="
b0 f"
b0 <"
b0 ]"
b110 v"
bx z"
bx {"
1&
#3900000
0&
#3950000
1q"
b100000000 `"
b100000000 i"
b0 ~
b0 )"
b0 P
b100000000 2"
1!
b111 v"
b100000000 <"
b100000000 ]"
b100000000 ="
b100000000 f"
b0 K"
b100000000 J"
b0 I"
b0 Z
b0 {
b0 [
b0 &"
b100000000 i
b0 h
b100000000 g
b100000000 1
b1 @
b1 D
1&
#4000000
0&
