SOML_DECODER/tbxIxQ.vcd
$date
	Mon Nov 18 03:58:26 2024
$end
$version
	Icarus Verilog
$end
$timescale
	1ps
$end
$scope module tb_YGA1_cal $end
$var wire 16 ! xI1 [15:0] $end
$var reg 1 " clk $end
$var reg 1 # rst $end
$scope module dut $end
$var wire 1 " clk $end
$var wire 1 # rst $end
$var wire 16 $ xI2 [15:0] $end
$var wire 16 % xQ1 [15:0] $end
$var wire 16 & xQ2 [15:0] $end
$var wire 16 ' xI1 [15:0] $end
$var wire 16 ( trace_result [15:0] $end
$var wire 1 ) start $end
$var wire 1 * ovf $end
$var wire 16 + out_r [15:0] $end
$var wire 1 , done_trace $end
$var wire 1 - done_div $end
$var reg 3 . counter [2:0] $end
$var reg 1 / done $end
$scope module Yga1cal0 $end
$var wire 1 " clk $end
$var wire 64 0 col_i [63:0] $end
$var wire 64 1 col_r [63:0] $end
$var wire 64 2 rowY_i [63:0] $end
$var wire 64 3 rowY_r [63:0] $end
$var wire 1 # rst $end
$var wire 16 4 out_reg_c3_r [15:0] $end
$var wire 16 5 out_reg_c3_i [15:0] $end
$var wire 16 6 out_reg_c2_r [15:0] $end
$var wire 16 7 out_reg_c2_i [15:0] $end
$var wire 16 8 out_reg_c1_r [15:0] $end
$var wire 16 9 out_reg_c1_i [15:0] $end
$var wire 16 : out_reg_c0_r [15:0] $end
$var wire 16 ; out_reg_c0_i [15:0] $end
$var wire 16 < out_r [15:0] $end
$var wire 16 = out_add1_r [15:0] $end
$var wire 16 > out_add0_r [15:0] $end
$var wire 2 ? addr_rowY [1:0] $end
$var wire 2 @ addr_col [1:0] $end
$scope module AddrGen0 $end
$var wire 1 " clk $end
$var wire 1 # rst $end
$var reg 2 A addr_colS [1:0] $end
$var reg 2 B addr_rowH [1:0] $end
$upscope $end
$scope module add0 $end
$var wire 16 C c [15:0] $end
$var wire 16 D b [15:0] $end
$var wire 16 E a [15:0] $end
$upscope $end
$scope module add1 $end
$var wire 16 F c [15:0] $end
$var wire 16 G b [15:0] $end
$var wire 16 H a [15:0] $end
$upscope $end
$scope module add2 $end
$var wire 16 I a [15:0] $end
$var wire 16 J b [15:0] $end
$var wire 16 K c [15:0] $end
$upscope $end
$scope module c0 $end
$var wire 16 L ai [15:0] $end
$var wire 16 M ar [15:0] $end
$var wire 16 N bi [15:0] $end
$var wire 16 O br [15:0] $end
$var wire 1 " clk $end
$var wire 16 P pi [15:0] $end
$var wire 1 # rst $end
$var wire 16 Q tmp_multr [15:0] $end
$var wire 16 R tmp_multi [15:0] $end
$var wire 16 S tmp_mult0 [15:0] $end
$var wire 16 T pr [15:0] $end
$var wire 1 U ovr_multr $end
$var wire 1 V ovr_multi $end
$var wire 1 W ovr_mult0 $end
$var reg 16 X addcommon [15:0] $end
$var reg 16 Y addi [15:0] $end
$var reg 16 Z addr [15:0] $end
$var reg 16 [ ai_d [15:0] $end
$var reg 16 \ ai_dd [15:0] $end
$var reg 16 ] ai_ddd [15:0] $end
$var reg 16 ^ ai_dddd [15:0] $end
$var reg 16 _ ar_d [15:0] $end
$var reg 16 ` ar_dd [15:0] $end
$var reg 16 a ar_ddd [15:0] $end
$var reg 16 b ar_dddd [15:0] $end
$var reg 16 c bi_d [15:0] $end
$var reg 16 d bi_dd [15:0] $end
$var reg 16 e bi_ddd [15:0] $end
$var reg 16 f br_d [15:0] $end
$var reg 16 g br_dd [15:0] $end
$var reg 16 h br_ddd [15:0] $end
$var reg 16 i common [15:0] $end
$var reg 16 j commonr1 [15:0] $end
$var reg 16 k commonr2 [15:0] $end
$var reg 16 l mult0 [15:0] $end
$var reg 16 m multi [15:0] $end
$var reg 16 n multr [15:0] $end
$var reg 16 o pi_int [15:0] $end
$var reg 16 p pr_int [15:0] $end
$scope module qmult_common $end
$var wire 16 q i_multiplicand [15:0] $end
$var wire 16 r i_multiplier [15:0] $end
$var wire 16 s o_result [15:0] $end
$var wire 16 t temp_multiplicand [15:0] $end
$var wire 16 u temp_meltiplier [15:0] $end
$var wire 32 v r_result [31:0] $end
$var reg 1 w is_signed $end
$var reg 1 W ovr $end
$var reg 16 x r_RetVal [15:0] $end
$var reg 16 y temp_RetVal [15:0] $end
$upscope $end
$scope module qmult_imag $end
$var wire 16 z i_multiplicand [15:0] $end
$var wire 16 { i_multiplier [15:0] $end
$var wire 16 | o_result [15:0] $end
$var wire 16 } temp_multiplicand [15:0] $end
$var wire 16 ~ temp_meltiplier [15:0] $end
$var wire 32 !" r_result [31:0] $end
$var reg 1 "" is_signed $end
$var reg 1 V ovr $end
$var reg 16 #" r_RetVal [15:0] $end
$var reg 16 $" temp_RetVal [15:0] $end
$upscope $end
$scope module qmult_real $end
$var wire 16 %" i_multiplicand [15:0] $end
$var wire 16 &" i_multiplier [15:0] $end
$var wire 16 '" o_result [15:0] $end
$var wire 16 (" temp_multiplicand [15:0] $end
$var wire 16 )" temp_meltiplier [15:0] $end
$var wire 32 *" r_result [31:0] $end
$var reg 1 +" is_signed $end
$var reg 1 U ovr $end
$var reg 16 ," r_RetVal [15:0] $end
$var reg 16 -" temp_RetVal [15:0] $end
$upscope $end
$upscope $end
$scope module c1 $end
$var wire 16 ." ai [15:0] $end
$var wire 16 /" ar [15:0] $end
$var wire 16 0" bi [15:0] $end
$var wire 16 1" br [15:0] $end
$var wire 1 " clk $end
$var wire 16 2" pi [15:0] $end
$var wire 1 # rst $end
$var wire 16 3" tmp_multr [15:0] $end
$var wire 16 4" tmp_multi [15:0] $end
$var wire 16 5" tmp_mult0 [15:0] $end
$var wire 16 6" pr [15:0] $end
$var wire 1 7" ovr_multr $end
$var wire 1 8" ovr_multi $end
$var wire 1 9" ovr_mult0 $end
$var reg 16 :" addcommon [15:0] $end
$var reg 16 ;" addi [15:0] $end
$var reg 16 <" addr [15:0] $end
$var reg 16 =" ai_d [15:0] $end
$var reg 16 >" ai_dd [15:0] $end
$var reg 16 ?" ai_ddd [15:0] $end
$var reg 16 @" ai_dddd [15:0] $end
$var reg 16 A" ar_d [15:0] $end
$var reg 16 B" ar_dd [15:0] $end
$var reg 16 C" ar_ddd [15:0] $end
$var reg 16 D" ar_dddd [15:0] $end
$var reg 16 E" bi_d [15:0] $end
$var reg 16 F" bi_dd [15:0] $end
$var reg 16 G" bi_ddd [15:0] $end
$var reg 16 H" br_d [15:0] $end
$var reg 16 I" br_dd [15:0] $end
$var reg 16 J" br_ddd [15:0] $end
$var reg 16 K" common [15:0] $end
$var reg 16 L" commonr1 [15:0] $end
$var reg 16 M" commonr2 [15:0] $end
$var reg 16 N" mult0 [15:0] $end
$var reg 16 O" multi [15:0] $end
$var reg 16 P" multr [15:0] $end
$var reg 16 Q" pi_int [15:0] $end
$var reg 16 R" pr_int [15:0] $end
$scope module qmult_common $end
$var wire 16 S" i_multiplicand [15:0] $end
$var wire 16 T" i_multiplier [15:0] $end
$var wire 16 U" o_result [15:0] $end
$var wire 16 V" temp_multiplicand [15:0] $end
$var wire 16 W" temp_meltiplier [15:0] $end
$var wire 32 X" r_result [31:0] $end
$var reg 1 Y" is_signed $end
$var reg 1 9" ovr $end
$var reg 16 Z" r_RetVal [15:0] $end
$var reg 16 [" temp_RetVal [15:0] $end
$upscope $end
$scope module qmult_imag $end
$var wire 16 \" i_multiplicand [15:0] $end
$var wire 16 ]" i_multiplier [15:0] $end
$var wire 16 ^" o_result [15:0] $end
$var wire 16 _" temp_multiplicand [15:0] $end
$var wire 16 `" temp_meltiplier [15:0] $end
$var wire 32 a" r_result [31:0] $end
$var reg 1 b" is_signed $end
$var reg 1 8" ovr $end
$var reg 16 c" r_RetVal [15:0] $end
$var reg 16 d" temp_RetVal [15:0] $end
$upscope $end
$scope module qmult_real $end
$var wire 16 e" i_multiplicand [15:0] $end
$var wire 16 f" i_multiplier [15:0] $end
$var wire 16 g" o_result [15:0] $end
$var wire 16 h" temp_multiplicand [15:0] $end
$var wire 16 i" temp_meltiplier [15:0] $end
$var wire 32 j" r_result [31:0] $end
$var reg 1 k" is_signed $end
$var reg 1 7" ovr $end
$var reg 16 l" r_RetVal [15:0] $end
$var reg 16 m" temp_RetVal [15:0] $end
$upscope $end
$upscope $end
$scope module c2 $end
$var wire 16 n" ai [15:0] $end
$var wire 16 o" ar [15:0] $end
$var wire 16 p" bi [15:0] $end
$var wire 16 q" br [15:0] $end
$var wire 1 " clk $end
$var wire 16 r" pi [15:0] $end
$var wire 1 # rst $end
$var wire 16 s" tmp_multr [15:0] $end
$var wire 16 t" tmp_multi [15:0] $end
$var wire 16 u" tmp_mult0 [15:0] $end
$var wire 16 v" pr [15:0] $end
$var wire 1 w" ovr_multr $end
$var wire 1 x" ovr_multi $end
$var wire 1 y" ovr_mult0 $end
$var reg 16 z" addcommon [15:0] $end
$var reg 16 {" addi [15:0] $end
$var reg 16 |" addr [15:0] $end
$var reg 16 }" ai_d [15:0] $end
$var reg 16 ~" ai_dd [15:0] $end
$var reg 16 !# ai_ddd [15:0] $end
$var reg 16 "# ai_dddd [15:0] $end
$var reg 16 ## ar_d [15:0] $end
$var reg 16 $# ar_dd [15:0] $end
$var reg 16 %# ar_ddd [15:0] $end
$var reg 16 &# ar_dddd [15:0] $end
$var reg 16 '# bi_d [15:0] $end
$var reg 16 (# bi_dd [15:0] $end
$var reg 16 )# bi_ddd [15:0] $end
$var reg 16 *# br_d [15:0] $end
$var reg 16 +# br_dd [15:0] $end
$var reg 16 ,# br_ddd [15:0] $end
$var reg 16 -# common [15:0] $end
$var reg 16 .# commonr1 [15:0] $end
$var reg 16 /# commonr2 [15:0] $end
$var reg 16 0# mult0 [15:0] $end
$var reg 16 1# multi [15:0] $end
$var reg 16 2# multr [15:0] $end
$var reg 16 3# pi_int [15:0] $end
$var reg 16 4# pr_int [15:0] $end
$scope module qmult_common $end
$var wire 16 5# i_multiplicand [15:0] $end
$var wire 16 6# i_multiplier [15:0] $end
$var wire 16 7# o_result [15:0] $end
$var wire 16 8# temp_multiplicand [15:0] $end
$var wire 16 9# temp_meltiplier [15:0] $end
$var wire 32 :# r_result [31:0] $end
$var reg 1 ;# is_signed $end
$var reg 1 y" ovr $end
$var reg 16 <# r_RetVal [15:0] $end
$var reg 16 =# temp_RetVal [15:0] $end
$upscope $end
$scope module qmult_imag $end
$var wire 16 ># i_multiplicand [15:0] $end
$var wire 16 ?# i_multiplier [15:0] $end
$var wire 16 @# o_result [15:0] $end
$var wire 16 A# temp_multiplicand [15:0] $end
$var wire 16 B# temp_meltiplier [15:0] $end
$var wire 32 C# r_result [31:0] $end
$var reg 1 D# is_signed $end
$var reg 1 x" ovr $end
$var reg 16 E# r_RetVal [15:0] $end
$var reg 16 F# temp_RetVal [15:0] $end
$upscope $end
$scope module qmult_real $end
$var wire 16 G# i_multiplicand [15:0] $end
$var wire 16 H# i_multiplier [15:0] $end
$var wire 16 I# o_result [15:0] $end
$var wire 16 J# temp_multiplicand [15:0] $end
$var wire 16 K# temp_meltiplier [15:0] $end
$var wire 32 L# r_result [31:0] $end
$var reg 1 M# is_signed $end
$var reg 1 w" ovr $end
$var reg 16 N# r_RetVal [15:0] $end
$var reg 16 O# temp_RetVal [15:0] $end
$upscope $end
$upscope $end
$scope module c3 $end
$var wire 16 P# ai [15:0] $end
$var wire 16 Q# ar [15:0] $end
$var wire 16 R# bi [15:0] $end
$var wire 16 S# br [15:0] $end
$var wire 1 " clk $end
$var wire 16 T# pi [15:0] $end
$var wire 1 # rst $end
$var wire 16 U# tmp_multr [15:0] $end
$var wire 16 V# tmp_multi [15:0] $end
$var wire 16 W# tmp_mult0 [15:0] $end
$var wire 16 X# pr [15:0] $end
$var wire 1 Y# ovr_multr $end
$var wire 1 Z# ovr_multi $end
$var wire 1 [# ovr_mult0 $end
$var reg 16 \# addcommon [15:0] $end
$var reg 16 ]# addi [15:0] $end
$var reg 16 ^# addr [15:0] $end
$var reg 16 _# ai_d [15:0] $end
$var reg 16 `# ai_dd [15:0] $end
$var reg 16 a# ai_ddd [15:0] $end
$var reg 16 b# ai_dddd [15:0] $end
$var reg 16 c# ar_d [15:0] $end
$var reg 16 d# ar_dd [15:0] $end
$var reg 16 e# ar_ddd [15:0] $end
$var reg 16 f# ar_dddd [15:0] $end
$var reg 16 g# bi_d [15:0] $end
$var reg 16 h# bi_dd [15:0] $end
$var reg 16 i# bi_ddd [15:0] $end
$var reg 16 j# br_d [15:0] $end
$var reg 16 k# br_dd [15:0] $end
$var reg 16 l# br_ddd [15:0] $end
$var reg 16 m# common [15:0] $end
$var reg 16 n# commonr1 [15:0] $end
$var reg 16 o# commonr2 [15:0] $end
$var reg 16 p# mult0 [15:0] $end
$var reg 16 q# multi [15:0] $end
$var reg 16 r# multr [15:0] $end
$var reg 16 s# pi_int [15:0] $end
$var reg 16 t# pr_int [15:0] $end
$scope module qmult_common $end
$var wire 16 u# i_multiplicand [15:0] $end
$var wire 16 v# i_multiplier [15:0] $end
$var wire 16 w# o_result [15:0] $end
$var wire 16 x# temp_multiplicand [15:0] $end
$var wire 16 y# temp_meltiplier [15:0] $end
$var wire 32 z# r_result [31:0] $end
$var reg 1 {# is_signed $end
$var reg 1 [# ovr $end
$var reg 16 |# r_RetVal [15:0] $end
$var reg 16 }# temp_RetVal [15:0] $end
$upscope $end
$scope module qmult_imag $end
$var wire 16 ~# i_multiplicand [15:0] $end
$var wire 16 !$ i_multiplier [15:0] $end
$var wire 16 "$ o_result [15:0] $end
$var wire 16 #$ temp_multiplicand [15:0] $end
$var wire 16 $$ temp_meltiplier [15:0] $end
$var wire 32 %$ r_result [31:0] $end
$var reg 1 &$ is_signed $end
$var reg 1 Z# ovr $end
$var reg 16 '$ r_RetVal [15:0] $end
$var reg 16 ($ temp_RetVal [15:0] $end
$upscope $end
$scope module qmult_real $end
$var wire 16 )$ i_multiplicand [15:0] $end
$var wire 16 *$ i_multiplier [15:0] $end
$var wire 16 +$ o_result [15:0] $end
$var wire 16 ,$ temp_multiplicand [15:0] $end
$var wire 16 -$ temp_meltiplier [15:0] $end
$var wire 32 .$ r_result [31:0] $end
$var reg 1 /$ is_signed $end
$var reg 1 Y# ovr $end
$var reg 16 0$ r_RetVal [15:0] $end
$var reg 16 1$ temp_RetVal [15:0] $end
$upscope $end
$upscope $end
$upscope $end
$scope module div0 $end
$var wire 1 " i_clk $end
$var wire 1 - o_complete $end
$var wire 1 * o_overflow $end
$var wire 16 2$ o_quotient_out [15:0] $end
$var wire 1 , i_start $end
$var wire 16 3$ i_divisor [15:0] $end
$var wire 16 4$ i_dividend [15:0] $end
$var reg 16 5$ reg_count [15:0] $end
$var reg 1 6$ reg_done $end
$var reg 1 7$ reg_overflow $end
$var reg 16 8$ reg_quotient [15:0] $end
$var reg 1 9$ reg_sign $end
$var reg 23 :$ reg_working_dividend [22:0] $end
$var reg 38 ;$ reg_working_divisor [37:0] $end
$var reg 38 <$ reg_working_quotient [37:0] $end
$upscope $end
$scope module trace0 $end
$var wire 1 " clk $end
$var wire 1 # rst $end
$var wire 16 =$ sdi [15:0] $end
$var wire 1 ) start $end
$var wire 16 >$ out [15:0] $end
$var reg 2 ?$ counter [1:0] $end
$var reg 1 , finish $end
$var reg 1 @$ rx_en $end
$var reg 16 A$ shift_reg [15:0] $end
$upscope $end
$upscope $end
$scope task wait4clk $end
$var integer 32 B$ n [31:0] $end
$upscope $end
$upscope $end
$enddefinitions $end
#0
$dumpvars
bx B$
bx A$
x@$
bx ?$
bx >$
bx =$
b0 <$
b0 ;$
b0 :$
09$
b0 8$
07$
16$
b0 5$
bx 4$
bx 3$
b0 2$
bx 1$
bx 0$
x/$
bx .$
bx -$
bx ,$
bx +$
bx *$
bx )$
bx ($
bx '$
x&$
bx %$
bx $$
bx #$
bx "$
bx !$
bx ~#
bx }#
bx |#
x{#
bx z#
bx y#
bx x#
bx w#
bx v#
bx u#
bx t#
bx s#
bx r#
bx q#
bx p#
bx o#
bx n#
bx m#
bx l#
bx k#
bx j#
bx i#
bx h#
bx g#
bx f#
bx e#
bx d#
bx c#
bx b#
bx a#
bx `#
bx _#
bx ^#
bx ]#
bx \#
x[#
xZ#
xY#
bx X#
bx W#
bx V#
bx U#
bx T#
bx S#
bx R#
bx Q#
bx P#
bx O#
bx N#
xM#
bx L#
bx K#
bx J#
bx I#
bx H#
bx G#
bx F#
bx E#
xD#
bx C#
bx B#
bx A#
bx @#
bx ?#
bx >#
bx =#
bx <#
x;#
bx :#
bx 9#
bx 8#
bx 7#
bx 6#
bx 5#
bx 4#
bx 3#
bx 2#
bx 1#
bx 0#
bx /#
bx .#
bx -#
bx ,#
bx +#
bx *#
bx )#
bx (#
bx '#
bx &#
bx %#
bx $#
bx ##
bx "#
bx !#
bx ~"
bx }"
bx |"
bx {"
bx z"
xy"
xx"
xw"
bx v"
bx u"
bx t"
bx s"
bx r"
bx q"
bx p"
bx o"
bx n"
bx m"
bx l"
xk"
bx j"
bx i"
bx h"
bx g"
bx f"
bx e"
bx d"
bx c"
xb"
bx a"
bx `"
bx _"
bx ^"
bx ]"
bx \"
bx ["
bx Z"
xY"
bx X"
bx W"
bx V"
bx U"
bx T"
bx S"
bx R"
bx Q"
bx P"
bx O"
bx N"
bx M"
bx L"
bx K"
bx J"
bx I"
bx H"
bx G"
bx F"
bx E"
bx D"
bx C"
bx B"
bx A"
bx @"
bx ?"
bx >"
bx ="
bx <"
bx ;"
bx :"
x9"
x8"
x7"
bx 6"
bx 5"
bx 4"
bx 3"
bx 2"
bx 1"
bx 0"
bx /"
bx ."
bx -"
bx ,"
x+"
bx *"
bx )"
bx ("
bx '"
bx &"
bx %"
bx $"
bx #"
x""
bx !"
bx ~
bx }
bx |
bx {
bx z
bx y
bx x
xw
bx v
bx u
bx t
bx s
bx r
bx q
bx p
bx o
bx n
bx m
bx l
bx k
bx j
bx i
bx h
bx g
bx f
bx e
bx d
bx c
bx b
bx a
bx `
bx _
bx ^
bx ]
bx \
bx [
bx Z
bx Y
bx X
xW
xV
xU
bx T
bx S
bx R
bx Q
bx P
bx O
bx N
bx M
bx L
bx K
bx J
bx I
bx H
bx G
bx F
bx E
bx D
bx C
bx B
bx A
bx @
bx ?
bx >
bx =
bx <
bx ;
bx :
bx 9
bx 8
bx 7
bx 6
bx 5
bx 4
bx 3
bx 2
bx 1
bx 0
x/
bx .
1-
x,
bx +
0*
x)
bx (
b0 '
bz &
bz %
bz $
0#
0"
b0 !
$end
#50000
0)
b11000001 L
b1111111111110100 ."
b111100 n"
b1111111011011000 P#
b1111111111011101 M
b110000011 /"
b1001101 o"
b100001000 Q#
b0 N
b0 0"
b0 p"
b0 R#
b10000000 O
b1111111110000000 1"
b10000000 q"
b1111111110000000 S#
b11000001111111111111010000000000001111001111111011011000 2
b1111111111011101000000011000001100000000010011010000000100001000 3
b0 ?
b0 B
b0 0
b10000000111111111000000000000000100000001111111110000000 1
b0 @
b0 A
b0 c
b0 f
b0 [
b0 _
b0 E"
b0 H"
b0 ="
b0 A"
b0 '#
b0 *#
b0 }"
b0 ##
b0 g#
b0 j#
b0 _#
b0 c#
0@$
b0 ?$
0,
b0 A$
0/
b0 .
b10 B$
1#
1"
#100000
0"
#150000
b0 x#
b0 8#
b0 V"
b0 t
b0 \#
b0 u#
b0 z"
b0 5#
b0 :"
b0 S"
b0 X
b0 q
1"
#200000
0"
#250000
b1 B$
0#
1"
#300000
0"
#350000
0[#
b0 W#
b0 w#
b0 |#
b0 }#
0{#
0y"
b0 u"
b0 7#
b0 <#
b0 =#
0;#
09"
b0 5"
b0 U"
b0 Z"
b0 ["
0Y"
0W
b0 S
b0 s
b0 x
b0 y
0w
b0 z#
b0 y#
b0 :#
b0 9#
b0 X"
b0 W"
b0 v
b0 u
b10000000 1"
b10000000 S#
b1 .
b0 h#
b0 v#
b0 k#
b1111111110000000 j#
b0 `#
b1111111011011000 _#
b0 d#
b100001000 c#
b0 (#
b0 6#
b0 +#
b10000000 *#
b0 ~"
b111100 }"
b0 $#
b1001101 ##
b0 F"
b0 T"
b0 I"
b1111111110000000 H"
b0 >"
b1111111111110100 ="
b0 B"
b110000011 A"
b0 d
b0 r
b0 g
b10000000 f
b0 \
b11000001 [
b0 `
b1111111111011101 _
b10000000000000001000000000000000100000000000000010000000 1
b1 @
b1 A
b11001000 B$
1"
#400000
0"
#450000
b1111111101001010 L
b111111 ."
b1111111110110100 n"
b1001010 P#
b1111111110111010 M
b10110111 /"
b10000011 o"
b100010001 Q#
b1111111110000000 1"
b1111111110000000 S#
b11100100 t
b110001111 V"
b10001 8#
b1000110000 x#
b1111111101001010000000000011111111111111101101000000000001001010 2
b1111111110111010000000001011011100000000100000110000000100010001 3
b1 ?
b1 B
b10000000111111111000000000000000100000001111111110000000 1
b0 @
b0 A
b0 e
b0 h
b10000000 g
b11000001 \
b1111111111011101 `
b0 l
b1111111100011100 X
b1111111100011100 q
b0 a
b0 ]
b0 G"
b0 J"
b1111111110000000 I"
b10000000 H"
b1111111111110100 >"
b110000011 B"
b0 N"
b110001111 :"
b110001111 S"
b0 C"
b0 ?"
b0 )#
b0 ,#
b10000000 +#
b111100 ~"
b1001101 $#
b0 0#
b10001 z"
b10001 5#
b0 %#
b0 !#
b0 i#
b0 l#
b1111111110000000 k#
b10000000 j#
b1111111011011000 `#
b100001000 d#
b0 p#
b1000110000 \#
b1000110000 u#
b0 e#
b0 a#
b10 .
1"
#500000
0"
#550000
0Z#
b0 V#
b0 "$
b0 '$
b0 ($
0&$
0Y#
b0 U#
b0 +$
b0 0$
b0 1$
0/$
0x"
b0 t"
b0 @#
b0 E#
b0 F#
0D#
0w"
b0 s"
b0 I#
b0 N#
b0 O#
0M#
08"
b0 4"
b0 ^"
b0 c"
b0 d"
0b"
07"
b0 3"
b0 g"
b0 l"
b0 m"
0k"
0V
b0 R
b0 |
b0 #"
b0 $"
0""
0U
b0 Q
b0 '"
b0 ,"
b0 -"
0+"
b0 %$
b0 #$
b0 $$
b0 .$
b0 ,$
b0 -$
b0 C#
b0 A#
b0 B#
b0 L#
b0 J#
b0 K#
b0 a"
b0 _"
b0 `"
b0 j"
b0 h"
b0 i"
b0 !"
b0 }
b0 ~
b0 *"
b0 ("
b0 )"
b10000000 1"
b10000000 S#
b11 .
b0 ]#
b0 ~#
b0 b#
b0 !$
b1111111011011000 a#
b0 ^#
b0 )$
b0 f#
b0 *$
b100001000 e#
b0 m#
b1111111110000000 l#
b10000000 k#
b1111111110000000 j#
b1001010 _#
b100010001 c#
b0 {"
b0 >#
b0 "#
b0 ?#
b111100 !#
b0 |"
b0 G#
b0 &#
b0 H#
b1001101 %#
b0 -#
b10000000 ,#
b1111111110110100 }"
b10000011 ##
b0 ;"
b0 \"
b0 @"
b0 ]"
b1111111111110100 ?"
b0 <"
b0 e"
b0 D"
b0 f"
b110000011 C"
b0 K"
b1111111110000000 J"
b10000000 I"
b1111111110000000 H"
b111111 ="
b10110111 A"
b0 Y
b0 z
b0 ^
b0 {
b11000001 ]
b0 Z
b0 %"
b0 b
b0 &"
b1111111111011101 a
b0 i
b10000000 h
b1111111101001010 [
b1111111110111010 _
b10000000000000001000000000000000100000000000000010000000 1
b1 @
b1 A
1"
#600000
0"
#650000
b1111111111101111 Q
b1111111111101111 '"
b1111111111101111 ,"
b10001 -"
1+"
b1100000 R
b1100000 |
b1100000 #"
b1100000 $"
07"
b1111111100111111 3"
b1111111100111111 g"
b1111111100111111 l"
b11000001 m"
1k"
b110 4"
b110 ^"
b110 c"
b110 d"
b100110 s"
b100110 I#
b100110 N#
b100110 O#
b11110 t"
b11110 @#
b11110 E#
b11110 F#
0Y#
b1111111101111100 U#
b1111111101111100 +$
b1111111101111100 0$
b10000100 1$
1/$
0Z#
b10010100 V#
b10010100 "$
b10010100 '$
b10010100 ($
b11000001 L
b1111111111110100 ."
b111100 n"
b1111111011011000 P#
b1111111111011101 M
b110000011 /"
b1001101 o"
b100001000 Q#
b1111111110000000 1"
b1111111110000000 S#
b1110000 t
b1000110000000 *"
b10000000 ("
b100011 )"
b110000010000000 !"
b10000000 }
b11000001 ~
b1111000 V"
b1100000110000000 j"
b10000000 h"
b110000011 i"
b11000000000 a"
b10000000 _"
b1100 `"
b11001111 8#
b10011010000000 L#
b10000000 J#
b1001101 K#
b1111000000000 C#
b10000000 A#
b111100 B#
b11000111 x#
b1000010000000000 .$
b10000000 ,$
b100001000 -$
b1001010000000000 %$
b10000000 #$
b100101000 $$
b11000001111111111111010000000000001111001111111011011000 2
b1111111111011101000000011000001100000000010011010000000100001000 3
b0 ?
b0 B
b10000000111111111000000000000000100000001111111110000000 1
b0 @
b0 A
b1111111101001010 \
b1111111110111010 `
b1110000 X
b1110000 q
b0 j
b0 n
b10000000 Z
b10000000 %"
b1111111111011101 b
b1111111111011101 &"
b0 k
b0 m
b10000000 Y
b10000000 z
b11000001 ^
b11000001 {
b10000000 J"
b1111111110000000 I"
b10000000 H"
b111111 >"
b10110111 B"
b1111000 :"
b1111000 S"
b0 L"
b0 P"
b1111111110000000 <"
b1111111110000000 e"
b110000011 D"
b110000011 f"
b0 M"
b0 O"
b1111111110000000 ;"
b1111111110000000 \"
b1111111111110100 @"
b1111111111110100 ]"
b1111111110110100 ~"
b10000011 $#
b11001111 z"
b11001111 5#
b0 .#
b0 2#
b10000000 |"
b10000000 G#
b1001101 &#
b1001101 H#
b0 /#
b0 1#
b10000000 {"
b10000000 >#
b111100 "#
b111100 ?#
b10000000 l#
b1111111110000000 k#
b10000000 j#
b1001010 `#
b100010001 d#
b11000111 \#
b11000111 u#
b0 n#
b0 r#
b1111111110000000 ^#
b1111111110000000 )$
b100001000 f#
b100001000 *$
b0 o#
b0 q#
b1111111110000000 ]#
b1111111110000000 ~#
b1111111011011000 b#
b1111111011011000 !$
b100 .
1"
#700000
0"
#750000
1)
0Z#
b1111111101101100 V#
b1111111101101100 "$
b1111111101101100 '$
b10010100 ($
1&$
0Y#
b10000100 U#
b10000100 +$
b10000100 0$
b10000100 1$
0/$
b1111111111111010 4"
b1111111111111010 ^"
b1111111111111010 c"
b110 d"
1b"
07"
b11000001 3"
b11000001 g"
b11000001 l"
b11000001 m"
0k"
b1001010000000000 %$
b10000000 #$
b1000010000000000 .$
b10000000 ,$
b11000000000 a"
b10000000 _"
b1100000110000000 j"
b10000000 h"
b10000000 1"
b10000000 S#
b101 .
b0 5
b0 T#
b0 s#
b10010100 q#
b10000000 ]#
b10000000 ~#
b1001010 a#
b0 +
b0 <
b0 K
b0 =$
b0 =
b0 F
b0 J
b0 4
b0 G
b0 X#
b0 t#
b1111111101111100 r#
b10000000 ^#
b10000000 )$
b100010001 e#
b1111111110000000 l#
b10000000 k#
b1111111110000000 j#
b1111111011011000 _#
b100001000 c#
b0 7
b0 r"
b0 3#
b11110 1#
b1111111110110100 !#
b0 6
b0 H
b0 v"
b0 4#
b100110 2#
b10000011 %#
b111100 }"
b1001101 ##
b0 9
b0 2"
b0 Q"
b110 O"
b10000000 ;"
b10000000 \"
b111111 ?"
b0 >
b0 C
b0 I
b0 8
b0 D
b0 6"
b0 R"
b1111111100111111 P"
b10000000 <"
b10000000 e"
b10110111 C"
b1111111110000000 J"
b10000000 I"
b1111111110000000 H"
b1111111111110100 ="
b110000011 A"
b0 ;
b0 P
b0 o
b1100000 m
b1111111101001010 ]
b0 :
b0 E
b0 T
b0 p
b1111111111101111 n
b1111111110111010 a
b11000001 [
b1111111111011101 _
b10000000000000001000000000000000100000000000000010000000 1
b1 @
b1 A
1"
#800000
0"
