SOML_DECODER/tbYGA1.vcd
$date
	Mon Nov 18 01:56:56 2024
$end
$version
	Icarus Verilog
$end
$timescale
	1ps
$end
$scope module tb_YGA1_cal $end
$var wire 16 ! out_r [15:0] $end
$var wire 16 " out_i [15:0] $end
$var reg 1 # clk $end
$var reg 1 $ rst $end
$scope module dut $end
$var wire 1 # clk $end
$var wire 64 % col_i [63:0] $end
$var wire 64 & col_r [63:0] $end
$var wire 64 ' rowY_i [63:0] $end
$var wire 64 ( rowY_r [63:0] $end
$var wire 1 $ rst $end
$var wire 16 ) out_reg_c3_r [15:0] $end
$var wire 16 * out_reg_c3_i [15:0] $end
$var wire 16 + out_reg_c2_r [15:0] $end
$var wire 16 , out_reg_c2_i [15:0] $end
$var wire 16 - out_reg_c1_r [15:0] $end
$var wire 16 . out_reg_c1_i [15:0] $end
$var wire 16 / out_reg_c0_r [15:0] $end
$var wire 16 0 out_reg_c0_i [15:0] $end
$var wire 16 1 out_r [15:0] $end
$var wire 16 2 out_i [15:0] $end
$var wire 16 3 out_add1_r [15:0] $end
$var wire 16 4 out_add1_i [15:0] $end
$var wire 16 5 out_add0_r [15:0] $end
$var wire 16 6 out_add0_i [15:0] $end
$var wire 2 7 addr_rowY [1:0] $end
$var wire 2 8 addr_col [1:0] $end
$scope module AddrGen0 $end
$var wire 1 # clk $end
$var wire 1 $ rst $end
$var reg 2 9 addr_colS [1:0] $end
$var reg 2 : addr_rowH [1:0] $end
$upscope $end
$scope module add0 $end
$var wire 16 ; c [15:0] $end
$var wire 16 < b [15:0] $end
$var wire 16 = a [15:0] $end
$upscope $end
$scope module add1 $end
$var wire 16 > c [15:0] $end
$var wire 16 ? b [15:0] $end
$var wire 16 @ a [15:0] $end
$upscope $end
$scope module add2 $end
$var wire 16 A a [15:0] $end
$var wire 16 B b [15:0] $end
$var wire 16 C c [15:0] $end
$upscope $end
$scope module add3 $end
$var wire 16 D c [15:0] $end
$var wire 16 E b [15:0] $end
$var wire 16 F a [15:0] $end
$upscope $end
$scope module add4 $end
$var wire 16 G c [15:0] $end
$var wire 16 H b [15:0] $end
$var wire 16 I a [15:0] $end
$upscope $end
$scope module add5 $end
$var wire 16 J a [15:0] $end
$var wire 16 K b [15:0] $end
$var wire 16 L c [15:0] $end
$upscope $end
$scope module c0 $end
$var wire 16 M ai [15:0] $end
$var wire 16 N ar [15:0] $end
$var wire 16 O bi [15:0] $end
$var wire 16 P br [15:0] $end
$var wire 1 # clk $end
$var wire 1 $ rst $end
$var wire 16 Q tmp_multr [15:0] $end
$var wire 16 R tmp_multi [15:0] $end
$var wire 16 S tmp_mult0 [15:0] $end
$var wire 16 T pr [15:0] $end
$var wire 16 U pi [15:0] $end
$var wire 1 V ovr_multr $end
$var wire 1 W ovr_multi $end
$var wire 1 X ovr_mult0 $end
$var reg 16 Y addcommon [15:0] $end
$var reg 16 Z addi [15:0] $end
$var reg 16 [ addr [15:0] $end
$var reg 16 \ ai_d [15:0] $end
$var reg 16 ] ai_dd [15:0] $end
$var reg 16 ^ ai_ddd [15:0] $end
$var reg 16 _ ai_dddd [15:0] $end
$var reg 16 ` ar_d [15:0] $end
$var reg 16 a ar_dd [15:0] $end
$var reg 16 b ar_ddd [15:0] $end
$var reg 16 c ar_dddd [15:0] $end
$var reg 16 d bi_d [15:0] $end
$var reg 16 e bi_dd [15:0] $end
$var reg 16 f bi_ddd [15:0] $end
$var reg 16 g br_d [15:0] $end
$var reg 16 h br_dd [15:0] $end
$var reg 16 i br_ddd [15:0] $end
$var reg 16 j common [15:0] $end
$var reg 16 k commonr1 [15:0] $end
$var reg 16 l commonr2 [15:0] $end
$var reg 16 m mult0 [15:0] $end
$var reg 16 n multi [15:0] $end
$var reg 16 o multr [15:0] $end
$var reg 16 p pi_int [15:0] $end
$var reg 16 q pr_int [15:0] $end
$scope module qmult_common $end
$var wire 16 r i_multiplicand [15:0] $end
$var wire 16 s i_multiplier [15:0] $end
$var wire 16 t o_result [15:0] $end
$var wire 16 u temp_multiplicand [15:0] $end
$var wire 16 v temp_meltiplier [15:0] $end
$var wire 32 w r_result [31:0] $end
$var reg 1 x is_signed $end
$var reg 1 X ovr $end
$var reg 16 y r_RetVal [15:0] $end
$var reg 16 z temp_RetVal [15:0] $end
$upscope $end
$scope module qmult_imag $end
$var wire 16 { i_multiplicand [15:0] $end
$var wire 16 | i_multiplier [15:0] $end
$var wire 16 } o_result [15:0] $end
$var wire 16 ~ temp_multiplicand [15:0] $end
$var wire 16 !" temp_meltiplier [15:0] $end
$var wire 32 "" r_result [31:0] $end
$var reg 1 #" is_signed $end
$var reg 1 W ovr $end
$var reg 16 $" r_RetVal [15:0] $end
$var reg 16 %" temp_RetVal [15:0] $end
$upscope $end
$scope module qmult_real $end
$var wire 16 &" i_multiplicand [15:0] $end
$var wire 16 '" i_multiplier [15:0] $end
$var wire 16 (" o_result [15:0] $end
$var wire 16 )" temp_multiplicand [15:0] $end
$var wire 16 *" temp_meltiplier [15:0] $end
$var wire 32 +" r_result [31:0] $end
$var reg 1 ," is_signed $end
$var reg 1 V ovr $end
$var reg 16 -" r_RetVal [15:0] $end
$var reg 16 ." temp_RetVal [15:0] $end
$upscope $end
$upscope $end
$scope module c1 $end
$var wire 16 /" ai [15:0] $end
$var wire 16 0" ar [15:0] $end
$var wire 16 1" bi [15:0] $end
$var wire 16 2" br [15:0] $end
$var wire 1 # clk $end
$var wire 1 $ rst $end
$var wire 16 3" tmp_multr [15:0] $end
$var wire 16 4" tmp_multi [15:0] $end
$var wire 16 5" tmp_mult0 [15:0] $end
$var wire 16 6" pr [15:0] $end
$var wire 16 7" pi [15:0] $end
$var wire 1 8" ovr_multr $end
$var wire 1 9" ovr_multi $end
$var wire 1 :" ovr_mult0 $end
$var reg 16 ;" addcommon [15:0] $end
$var reg 16 <" addi [15:0] $end
$var reg 16 =" addr [15:0] $end
$var reg 16 >" ai_d [15:0] $end
$var reg 16 ?" ai_dd [15:0] $end
$var reg 16 @" ai_ddd [15:0] $end
$var reg 16 A" ai_dddd [15:0] $end
$var reg 16 B" ar_d [15:0] $end
$var reg 16 C" ar_dd [15:0] $end
$var reg 16 D" ar_ddd [15:0] $end
$var reg 16 E" ar_dddd [15:0] $end
$var reg 16 F" bi_d [15:0] $end
$var reg 16 G" bi_dd [15:0] $end
$var reg 16 H" bi_ddd [15:0] $end
$var reg 16 I" br_d [15:0] $end
$var reg 16 J" br_dd [15:0] $end
$var reg 16 K" br_ddd [15:0] $end
$var reg 16 L" common [15:0] $end
$var reg 16 M" commonr1 [15:0] $end
$var reg 16 N" commonr2 [15:0] $end
$var reg 16 O" mult0 [15:0] $end
$var reg 16 P" multi [15:0] $end
$var reg 16 Q" multr [15:0] $end
$var reg 16 R" pi_int [15:0] $end
$var reg 16 S" pr_int [15:0] $end
$scope module qmult_common $end
$var wire 16 T" i_multiplicand [15:0] $end
$var wire 16 U" i_multiplier [15:0] $end
$var wire 16 V" o_result [15:0] $end
$var wire 16 W" temp_multiplicand [15:0] $end
$var wire 16 X" temp_meltiplier [15:0] $end
$var wire 32 Y" r_result [31:0] $end
$var reg 1 Z" is_signed $end
$var reg 1 :" ovr $end
$var reg 16 [" r_RetVal [15:0] $end
$var reg 16 \" temp_RetVal [15:0] $end
$upscope $end
$scope module qmult_imag $end
$var wire 16 ]" i_multiplicand [15:0] $end
$var wire 16 ^" i_multiplier [15:0] $end
$var wire 16 _" o_result [15:0] $end
$var wire 16 `" temp_multiplicand [15:0] $end
$var wire 16 a" temp_meltiplier [15:0] $end
$var wire 32 b" r_result [31:0] $end
$var reg 1 c" is_signed $end
$var reg 1 9" ovr $end
$var reg 16 d" r_RetVal [15:0] $end
$var reg 16 e" temp_RetVal [15:0] $end
$upscope $end
$scope module qmult_real $end
$var wire 16 f" i_multiplicand [15:0] $end
$var wire 16 g" i_multiplier [15:0] $end
$var wire 16 h" o_result [15:0] $end
$var wire 16 i" temp_multiplicand [15:0] $end
$var wire 16 j" temp_meltiplier [15:0] $end
$var wire 32 k" r_result [31:0] $end
$var reg 1 l" is_signed $end
$var reg 1 8" ovr $end
$var reg 16 m" r_RetVal [15:0] $end
$var reg 16 n" temp_RetVal [15:0] $end
$upscope $end
$upscope $end
$scope module c2 $end
$var wire 16 o" ai [15:0] $end
$var wire 16 p" ar [15:0] $end
$var wire 16 q" bi [15:0] $end
$var wire 16 r" br [15:0] $end
$var wire 1 # clk $end
$var wire 1 $ rst $end
$var wire 16 s" tmp_multr [15:0] $end
$var wire 16 t" tmp_multi [15:0] $end
$var wire 16 u" tmp_mult0 [15:0] $end
$var wire 16 v" pr [15:0] $end
$var wire 16 w" pi [15:0] $end
$var wire 1 x" ovr_multr $end
$var wire 1 y" ovr_multi $end
$var wire 1 z" ovr_mult0 $end
$var reg 16 {" addcommon [15:0] $end
$var reg 16 |" addi [15:0] $end
$var reg 16 }" addr [15:0] $end
$var reg 16 ~" ai_d [15:0] $end
$var reg 16 !# ai_dd [15:0] $end
$var reg 16 "# ai_ddd [15:0] $end
$var reg 16 ## ai_dddd [15:0] $end
$var reg 16 $# ar_d [15:0] $end
$var reg 16 %# ar_dd [15:0] $end
$var reg 16 &# ar_ddd [15:0] $end
$var reg 16 '# ar_dddd [15:0] $end
$var reg 16 (# bi_d [15:0] $end
$var reg 16 )# bi_dd [15:0] $end
$var reg 16 *# bi_ddd [15:0] $end
$var reg 16 +# br_d [15:0] $end
$var reg 16 ,# br_dd [15:0] $end
$var reg 16 -# br_ddd [15:0] $end
$var reg 16 .# common [15:0] $end
$var reg 16 /# commonr1 [15:0] $end
$var reg 16 0# commonr2 [15:0] $end
$var reg 16 1# mult0 [15:0] $end
$var reg 16 2# multi [15:0] $end
$var reg 16 3# multr [15:0] $end
$var reg 16 4# pi_int [15:0] $end
$var reg 16 5# pr_int [15:0] $end
$scope module qmult_common $end
$var wire 16 6# i_multiplicand [15:0] $end
$var wire 16 7# i_multiplier [15:0] $end
$var wire 16 8# o_result [15:0] $end
$var wire 16 9# temp_multiplicand [15:0] $end
$var wire 16 :# temp_meltiplier [15:0] $end
$var wire 32 ;# r_result [31:0] $end
$var reg 1 <# is_signed $end
$var reg 1 z" ovr $end
$var reg 16 =# r_RetVal [15:0] $end
$var reg 16 ># temp_RetVal [15:0] $end
$upscope $end
$scope module qmult_imag $end
$var wire 16 ?# i_multiplicand [15:0] $end
$var wire 16 @# i_multiplier [15:0] $end
$var wire 16 A# o_result [15:0] $end
$var wire 16 B# temp_multiplicand [15:0] $end
$var wire 16 C# temp_meltiplier [15:0] $end
$var wire 32 D# r_result [31:0] $end
$var reg 1 E# is_signed $end
$var reg 1 y" ovr $end
$var reg 16 F# r_RetVal [15:0] $end
$var reg 16 G# temp_RetVal [15:0] $end
$upscope $end
$scope module qmult_real $end
$var wire 16 H# i_multiplicand [15:0] $end
$var wire 16 I# i_multiplier [15:0] $end
$var wire 16 J# o_result [15:0] $end
$var wire 16 K# temp_multiplicand [15:0] $end
$var wire 16 L# temp_meltiplier [15:0] $end
$var wire 32 M# r_result [31:0] $end
$var reg 1 N# is_signed $end
$var reg 1 x" ovr $end
$var reg 16 O# r_RetVal [15:0] $end
$var reg 16 P# temp_RetVal [15:0] $end
$upscope $end
$upscope $end
$scope module c3 $end
$var wire 16 Q# ai [15:0] $end
$var wire 16 R# ar [15:0] $end
$var wire 16 S# bi [15:0] $end
$var wire 16 T# br [15:0] $end
$var wire 1 # clk $end
$var wire 1 $ rst $end
$var wire 16 U# tmp_multr [15:0] $end
$var wire 16 V# tmp_multi [15:0] $end
$var wire 16 W# tmp_mult0 [15:0] $end
$var wire 16 X# pr [15:0] $end
$var wire 16 Y# pi [15:0] $end
$var wire 1 Z# ovr_multr $end
$var wire 1 [# ovr_multi $end
$var wire 1 \# ovr_mult0 $end
$var reg 16 ]# addcommon [15:0] $end
$var reg 16 ^# addi [15:0] $end
$var reg 16 _# addr [15:0] $end
$var reg 16 `# ai_d [15:0] $end
$var reg 16 a# ai_dd [15:0] $end
$var reg 16 b# ai_ddd [15:0] $end
$var reg 16 c# ai_dddd [15:0] $end
$var reg 16 d# ar_d [15:0] $end
$var reg 16 e# ar_dd [15:0] $end
$var reg 16 f# ar_ddd [15:0] $end
$var reg 16 g# ar_dddd [15:0] $end
$var reg 16 h# bi_d [15:0] $end
$var reg 16 i# bi_dd [15:0] $end
$var reg 16 j# bi_ddd [15:0] $end
$var reg 16 k# br_d [15:0] $end
$var reg 16 l# br_dd [15:0] $end
$var reg 16 m# br_ddd [15:0] $end
$var reg 16 n# common [15:0] $end
$var reg 16 o# commonr1 [15:0] $end
$var reg 16 p# commonr2 [15:0] $end
$var reg 16 q# mult0 [15:0] $end
$var reg 16 r# multi [15:0] $end
$var reg 16 s# multr [15:0] $end
$var reg 16 t# pi_int [15:0] $end
$var reg 16 u# pr_int [15:0] $end
$scope module qmult_common $end
$var wire 16 v# i_multiplicand [15:0] $end
$var wire 16 w# i_multiplier [15:0] $end
$var wire 16 x# o_result [15:0] $end
$var wire 16 y# temp_multiplicand [15:0] $end
$var wire 16 z# temp_meltiplier [15:0] $end
$var wire 32 {# r_result [31:0] $end
$var reg 1 |# is_signed $end
$var reg 1 \# ovr $end
$var reg 16 }# r_RetVal [15:0] $end
$var reg 16 ~# temp_RetVal [15:0] $end
$upscope $end
$scope module qmult_imag $end
$var wire 16 !$ i_multiplicand [15:0] $end
$var wire 16 "$ i_multiplier [15:0] $end
$var wire 16 #$ o_result [15:0] $end
$var wire 16 $$ temp_multiplicand [15:0] $end
$var wire 16 %$ temp_meltiplier [15:0] $end
$var wire 32 &$ r_result [31:0] $end
$var reg 1 '$ is_signed $end
$var reg 1 [# ovr $end
$var reg 16 ($ r_RetVal [15:0] $end
$var reg 16 )$ temp_RetVal [15:0] $end
$upscope $end
$scope module qmult_real $end
$var wire 16 *$ i_multiplicand [15:0] $end
$var wire 16 +$ i_multiplier [15:0] $end
$var wire 16 ,$ o_result [15:0] $end
$var wire 16 -$ temp_multiplicand [15:0] $end
$var wire 16 .$ temp_meltiplier [15:0] $end
$var wire 32 /$ r_result [31:0] $end
$var reg 1 0$ is_signed $end
$var reg 1 Z# ovr $end
$var reg 16 1$ r_RetVal [15:0] $end
$var reg 16 2$ temp_RetVal [15:0] $end
$upscope $end
$upscope $end
$upscope $end
$scope task wait4clk $end
$var integer 32 3$ n [31:0] $end
$upscope $end
$upscope $end
$enddefinitions $end
#0
$dumpvars
bx 3$
bx 2$
bx 1$
x0$
bx /$
bx .$
bx -$
bx ,$
bx +$
bx *$
bx )$
bx ($
x'$
bx &$
bx %$
bx $$
bx #$
bx "$
bx !$
bx ~#
bx }#
x|#
bx {#
bx z#
bx y#
bx x#
bx w#
bx v#
bx u#
bx t#
bx s#
bx r#
bx q#
bx p#
bx o#
bx n#
bx m#
bx l#
bx k#
bx j#
bx i#
bx h#
bx g#
bx f#
bx e#
bx d#
bx c#
bx b#
bx a#
bx `#
bx _#
bx ^#
bx ]#
x\#
x[#
xZ#
bx Y#
bx X#
bx W#
bx V#
bx U#
bx T#
bx S#
bx R#
bx Q#
bx P#
bx O#
xN#
bx M#
bx L#
bx K#
bx J#
bx I#
bx H#
bx G#
bx F#
xE#
bx D#
bx C#
bx B#
bx A#
bx @#
bx ?#
bx >#
bx =#
x<#
bx ;#
bx :#
bx 9#
bx 8#
bx 7#
bx 6#
bx 5#
bx 4#
bx 3#
bx 2#
bx 1#
bx 0#
bx /#
bx .#
bx -#
bx ,#
bx +#
bx *#
bx )#
bx (#
bx '#
bx &#
bx %#
bx $#
bx ##
bx "#
bx !#
bx ~"
bx }"
bx |"
bx {"
xz"
xy"
xx"
bx w"
bx v"
bx u"
bx t"
bx s"
bx r"
bx q"
bx p"
bx o"
bx n"
bx m"
xl"
bx k"
bx j"
bx i"
bx h"
bx g"
bx f"
bx e"
bx d"
xc"
bx b"
bx a"
bx `"
bx _"
bx ^"
bx ]"
bx \"
bx ["
xZ"
bx Y"
bx X"
bx W"
bx V"
bx U"
bx T"
bx S"
bx R"
bx Q"
bx P"
bx O"
bx N"
bx M"
bx L"
bx K"
bx J"
bx I"
bx H"
bx G"
bx F"
bx E"
bx D"
bx C"
bx B"
bx A"
bx @"
bx ?"
bx >"
bx ="
bx <"
bx ;"
x:"
x9"
x8"
bx 7"
bx 6"
bx 5"
bx 4"
bx 3"
bx 2"
bx 1"
bx 0"
bx /"
bx ."
bx -"
x,"
bx +"
bx *"
bx )"
bx ("
bx '"
bx &"
bx %"
bx $"
x#"
bx ""
bx !"
bx ~
bx }
bx |
bx {
bx z
bx y
xx
bx w
bx v
bx u
bx t
bx s
bx r
bx q
bx p
bx o
bx n
bx m
bx l
bx k
bx j
bx i
bx h
bx g
bx f
bx e
bx d
bx c
bx b
bx a
bx `
bx _
bx ^
bx ]
bx \
bx [
bx Z
bx Y
xX
xW
xV
bx U
bx T
bx S
bx R
bx Q
bx P
bx O
bx N
bx M
bx L
bx K
bx J
bx I
bx H
bx G
bx F
bx E
bx D
bx C
bx B
bx A
bx @
bx ?
bx >
bx =
bx <
bx ;
bx :
bx 9
bx 8
bx 7
bx 6
bx 5
bx 4
bx 3
bx 2
bx 1
bx 0
bx /
bx .
bx -
bx ,
bx +
bx *
bx )
bx (
bx '
bx &
bx %
0$
0#
bx "
bx !
$end
#50000
b11000001 M
b1111111111110100 /"
b111100 o"
b1111111011011000 Q#
b1111111111011101 N
b110000011 0"
b1001101 p"
b100001000 R#
b0 O
b0 1"
b0 q"
b0 S#
b10000000 P
b1111111110000000 2"
b10000000 r"
b1111111110000000 T#
b11000001111111111111010000000000001111001111111011011000 '
b1111111111011101000000011000001100000000010011010000000100001000 (
b0 7
b0 :
b0 %
b10000000111111111000000000000000100000001111111110000000 &
b0 8
b0 9
b0 d
b0 g
b0 \
b0 `
b0 F"
b0 I"
b0 >"
b0 B"
b0 (#
b0 +#
b0 ~"
b0 $#
b0 h#
b0 k#
b0 `#
b0 d#
b10 3$
1$
1#
#100000
0#
#150000
b0 y#
b0 9#
b0 W"
b0 u
b0 ]#
b0 v#
b0 {"
b0 6#
b0 ;"
b0 T"
b0 Y
b0 r
1#
#200000
0#
#250000
b1 3$
0$
1#
#300000
0#
#350000
0\#
b0 W#
b0 x#
b0 }#
b0 ~#
0|#
0z"
b0 u"
b0 8#
b0 =#
b0 >#
0<#
0:"
b0 5"
b0 V"
b0 ["
b0 \"
0Z"
0X
b0 S
b0 t
b0 y
b0 z
0x
b0 {#
b0 z#
b0 ;#
b0 :#
b0 Y"
b0 X"
b0 w
b0 v
b10000000 2"
b10000000 T#
b0 i#
b0 w#
b0 l#
b1111111110000000 k#
b0 a#
b1111111011011000 `#
b0 e#
b100001000 d#
b0 )#
b0 7#
b0 ,#
b10000000 +#
b0 !#
b111100 ~"
b0 %#
b1001101 $#
b0 G"
b0 U"
b0 J"
b1111111110000000 I"
b0 ?"
b1111111111110100 >"
b0 C"
b110000011 B"
b0 e
b0 s
b0 h
b10000000 g
b0 ]
b11000001 \
b0 a
b1111111111011101 `
b10000000000000001000000000000000100000000000000010000000 &
b1 8
b1 9
b11001000 3$
1#
#400000
0#
#450000
b1111111101001010 M
b111111 /"
b1111111110110100 o"
b1001010 Q#
b1111111110111010 N
b10110111 0"
b10000011 p"
b100010001 R#
b1111111110000000 2"
b1111111110000000 T#
b11100100 u
b110001111 W"
b10001 9#
b1000110000 y#
b1111111101001010000000000011111111111111101101000000000001001010 '
b1111111110111010000000001011011100000000100000110000000100010001 (
b1 7
b1 :
b10000000111111111000000000000000100000001111111110000000 &
b0 8
b0 9
b0 f
b0 i
b10000000 h
b11000001 ]
b1111111111011101 a
b0 m
b1111111100011100 Y
b1111111100011100 r
b0 b
b0 ^
b0 H"
b0 K"
b1111111110000000 J"
b10000000 I"
b1111111111110100 ?"
b110000011 C"
b0 O"
b110001111 ;"
b110001111 T"
b0 D"
b0 @"
b0 *#
b0 -#
b10000000 ,#
b111100 !#
b1001101 %#
b0 1#
b10001 {"
b10001 6#
b0 &#
b0 "#
b0 j#
b0 m#
b1111111110000000 l#
b10000000 k#
b1111111011011000 a#
b100001000 e#
b0 q#
b1000110000 ]#
b1000110000 v#
b0 f#
b0 b#
1#
#500000
0#
#550000
0[#
b0 V#
b0 #$
b0 ($
b0 )$
0'$
0Z#
b0 U#
b0 ,$
b0 1$
b0 2$
00$
0y"
b0 t"
b0 A#
b0 F#
b0 G#
0E#
0x"
b0 s"
b0 J#
b0 O#
b0 P#
0N#
09"
b0 4"
b0 _"
b0 d"
b0 e"
0c"
08"
b0 3"
b0 h"
b0 m"
b0 n"
0l"
0W
b0 R
b0 }
b0 $"
b0 %"
0#"
0V
b0 Q
b0 ("
b0 -"
b0 ."
0,"
b0 &$
b0 $$
b0 %$
b0 /$
b0 -$
b0 .$
b0 D#
b0 B#
b0 C#
b0 M#
b0 K#
b0 L#
b0 b"
b0 `"
b0 a"
b0 k"
b0 i"
b0 j"
b0 ""
b0 ~
b0 !"
b0 +"
b0 )"
b0 *"
b10000000 2"
b10000000 T#
b0 ^#
b0 !$
b0 c#
b0 "$
b1111111011011000 b#
b0 _#
b0 *$
b0 g#
b0 +$
b100001000 f#
b0 n#
b1111111110000000 m#
b10000000 l#
b1111111110000000 k#
b1001010 `#
b100010001 d#
b0 |"
b0 ?#
b0 ##
b0 @#
b111100 "#
b0 }"
b0 H#
b0 '#
b0 I#
b1001101 &#
b0 .#
b10000000 -#
b1111111110110100 ~"
b10000011 $#
b0 <"
b0 ]"
b0 A"
b0 ^"
b1111111111110100 @"
b0 ="
b0 f"
b0 E"
b0 g"
b110000011 D"
b0 L"
b1111111110000000 K"
b10000000 J"
b1111111110000000 I"
b111111 >"
b10110111 B"
b0 Z
b0 {
b0 _
b0 |
b11000001 ^
b0 [
b0 &"
b0 c
b0 '"
b1111111111011101 b
b0 j
b10000000 i
b1111111101001010 \
b1111111110111010 `
b10000000000000001000000000000000100000000000000010000000 &
b1 8
b1 9
1#
#600000
0#
#650000
b1111111111101111 Q
b1111111111101111 ("
b1111111111101111 -"
b10001 ."
1,"
b1100000 R
b1100000 }
b1100000 $"
b1100000 %"
08"
b1111111100111111 3"
b1111111100111111 h"
b1111111100111111 m"
b11000001 n"
1l"
b110 4"
b110 _"
b110 d"
b110 e"
b100110 s"
b100110 J#
b100110 O#
b100110 P#
b11110 t"
b11110 A#
b11110 F#
b11110 G#
0Z#
b1111111101111100 U#
b1111111101111100 ,$
b1111111101111100 1$
b10000100 2$
10$
0[#
b10010100 V#
b10010100 #$
b10010100 ($
b10010100 )$
b11000001 M
b1111111111110100 /"
b111100 o"
b1111111011011000 Q#
b1111111111011101 N
b110000011 0"
b1001101 p"
b100001000 R#
b1111111110000000 2"
b1111111110000000 T#
b1110000 u
b1000110000000 +"
b10000000 )"
b100011 *"
b110000010000000 ""
b10000000 ~
b11000001 !"
b1111000 W"
b1100000110000000 k"
b10000000 i"
b110000011 j"
b11000000000 b"
b10000000 `"
b1100 a"
b11001111 9#
b10011010000000 M#
b10000000 K#
b1001101 L#
b1111000000000 D#
b10000000 B#
b111100 C#
b11000111 y#
b1000010000000000 /$
b10000000 -$
b100001000 .$
b1001010000000000 &$
b10000000 $$
b100101000 %$
b11000001111111111111010000000000001111001111111011011000 '
b1111111111011101000000011000001100000000010011010000000100001000 (
b0 7
b0 :
b10000000111111111000000000000000100000001111111110000000 &
b0 8
b0 9
b1111111101001010 ]
b1111111110111010 a
b1110000 Y
b1110000 r
b0 k
b0 o
b10000000 [
b10000000 &"
b1111111111011101 c
b1111111111011101 '"
b0 l
b0 n
b10000000 Z
b10000000 {
b11000001 _
b11000001 |
b10000000 K"
b1111111110000000 J"
b10000000 I"
b111111 ?"
b10110111 C"
b1111000 ;"
b1111000 T"
b0 M"
b0 Q"
b1111111110000000 ="
b1111111110000000 f"
b110000011 E"
b110000011 g"
b0 N"
b0 P"
b1111111110000000 <"
b1111111110000000 ]"
b1111111111110100 A"
b1111111111110100 ^"
b1111111110110100 !#
b10000011 %#
b11001111 {"
b11001111 6#
b0 /#
b0 3#
b10000000 }"
b10000000 H#
b1001101 '#
b1001101 I#
b0 0#
b0 2#
b10000000 |"
b10000000 ?#
b111100 ##
b111100 @#
b10000000 m#
b1111111110000000 l#
b10000000 k#
b1001010 a#
b100010001 e#
b11000111 ]#
b11000111 v#
b0 o#
b0 s#
b1111111110000000 _#
b1111111110000000 *$
b100001000 g#
b100001000 +$
b0 p#
b0 r#
b1111111110000000 ^#
b1111111110000000 !$
b1111111011011000 c#
b1111111011011000 "$
1#
#700000
0#
#750000
0[#
b1111111101101100 V#
b1111111101101100 #$
b1111111101101100 ($
b10010100 )$
1'$
0Z#
b10000100 U#
b10000100 ,$
b10000100 1$
b10000100 2$
00$
b1111111111111010 4"
b1111111111111010 _"
b1111111111111010 d"
b110 e"
1c"
08"
b11000001 3"
b11000001 h"
b11000001 m"
b11000001 n"
0l"
b1001010000000000 &$
b10000000 $$
b1000010000000000 /$
b10000000 -$
b11000000000 b"
b10000000 `"
b1100000110000000 k"
b10000000 i"
b10000000 2"
b10000000 T#
b0 "
b0 2
b0 L
b0 4
b0 G
b0 K
b0 *
b0 H
b0 Y#
b0 t#
b10010100 r#
b10000000 ^#
b10000000 !$
b1001010 b#
b0 !
b0 1
b0 C
b0 3
b0 >
b0 B
b0 )
b0 ?
b0 X#
b0 u#
b1111111101111100 s#
b10000000 _#
b10000000 *$
b100010001 f#
b1111111110000000 m#
b10000000 l#
b1111111110000000 k#
b1111111011011000 `#
b100001000 d#
b0 ,
b0 I
b0 w"
b0 4#
b11110 2#
b1111111110110100 "#
b0 +
b0 @
b0 v"
b0 5#
b100110 3#
b10000011 &#
b111100 ~"
b1001101 $#
b0 6
b0 D
b0 J
b0 .
b0 E
b0 7"
b0 R"
b110 P"
b10000000 <"
b10000000 ]"
b111111 @"
b0 5
b0 ;
b0 A
b0 -
b0 <
b0 6"
b0 S"
b1111111100111111 Q"
b10000000 ="
b10000000 f"
b10110111 D"
b1111111110000000 K"
b10000000 J"
b1111111110000000 I"
b1111111111110100 >"
b110000011 B"
b0 0
b0 F
b0 U
b0 p
b1100000 n
b1111111101001010 ^
b0 /
b0 =
b0 T
b0 q
b1111111111101111 o
b1111111110111010 b
b11000001 \
b1111111111011101 `
b10000000000000001000000000000000100000000000000010000000 &
b1 8
b1 9
1#
#800000
0#
#850000
b1111111111011101 Q
b1111111111011101 ("
b1111111111011101 -"
b100011 ."
b1111111110100101 R
b1111111110100101 }
b1111111110100101 $"
b1011011 %"
1#"
08"
b1111111110100101 3"
b1111111110100101 h"
b1111111110100101 m"
b1011011 n"
1l"
09"
b1111111111100001 4"
b1111111111100001 _"
b1111111111100001 d"
b11111 e"
b1000001 s"
b1000001 J#
b1000001 O#
b1000001 P#
b1111111111011010 t"
b1111111111011010 A#
b1111111111011010 F#
b100110 G#
1E#
0Z#
b1111111101111000 U#
b1111111101111000 ,$
b1111111101111000 1$
b10001000 2$
10$
0[#
b1111111111011011 V#
b1111111111011011 #$
b1111111111011011 ($
b100101 )$
b1111111101001010 M
b111111 /"
b1111111110110100 o"
b1001010 Q#
b1111111110111010 N
b10110111 0"
b10000011 p"
b100010001 R#
b1111111110000000 2"
b1111111110000000 T#
b11100100 u
b10001100000000 +"
b1000110 *"
b101101100000000 ""
b10110110 !"
b110001111 W"
b10000000 i"
b101101110000000 k"
b10110111 j"
b10000000 `"
b1111110000000 b"
b111111 a"
b10001 9#
b100000110000000 M#
b10000011 L#
b10011000000000 D#
b1001100 C#
b1000110000 y#
b10000000 -$
b1000100010000000 /$
b100010001 .$
b10000000 $$
b10010100000000 &$
b1001010 %$
b1111111101001010000000000011111111111111101101000000000001001010 '
b1111111110111010000000001011011100000000100000110000000100010001 (
b1 7
b1 :
b10000000111111111000000000000000100000001111111110000000 &
b0 8
b0 9
b11000001 ]
b1111111111011101 a
b1111111100011100 Y
b1111111100011100 r
b1111111111101111 /
b1111111111101111 =
b1111111111101111 T
b1111111111101111 q
b1111111110111010 c
b1111111110111010 '"
b1100000 0
b1100000 F
b1100000 U
b1100000 p
b1111111101001010 _
b1111111101001010 |
b10000000 K"
b1111111110000000 J"
b10000000 I"
b1111111111110100 ?"
b110000011 C"
b110001111 ;"
b110001111 T"
b1111111100101110 5
b1111111100101110 ;
b1111111100101110 A
b1111111100111111 -
b1111111100111111 <
b1111111100111111 6"
b1111111100111111 S"
b11000001 Q"
b1111111110000000 ="
b1111111110000000 f"
b10110111 E"
b10110111 g"
b1100110 6
b1100110 D
b1100110 J
b110 .
b110 E
b110 7"
b110 R"
b1111111111111010 P"
b1111111110000000 <"
b1111111110000000 ]"
b111111 A"
b111111 ^"
b111100 !#
b1001101 %#
b10001 {"
b10001 6#
b100110 +
b100110 @
b100110 v"
b100110 5#
b10000011 '#
b10000011 I#
b11110 ,
b11110 I
b11110 w"
b11110 4#
b1111111110110100 ##
b1111111110110100 @#
b10000000 m#
b1111111110000000 l#
b10000000 k#
b1111111011011000 a#
b100001000 e#
b1000110000 ]#
b1000110000 v#
b1111111011010000 !
b1111111011010000 1
b1111111011010000 C
b1111111110100010 3
b1111111110100010 >
b1111111110100010 B
b1111111101111100 )
b1111111101111100 ?
b1111111101111100 X#
b1111111101111100 u#
b10000100 s#
b1111111110000000 _#
b1111111110000000 *$
b100010001 g#
b100010001 +$
b100011000 "
b100011000 2
b100011000 L
b10110010 4
b10110010 G
b10110010 K
b10010100 *
b10010100 H
b10010100 Y#
b10010100 t#
b1111111101101100 r#
b1111111110000000 ^#
b1111111110000000 !$
b1001010 c#
b1001010 "$
1#
#900000
0#
